1001,0.03
1003,0.03
1005,0.03
1007,0.03
1009,0.03
1011,0.03
1013,0.03
1015,0.03
1017,0.03
1019,0.03
1021,0.03
1023,0.03
1025,0.03
1027,0.03
1029,0.03
1031,0.03
1033,0.03
1035,0.03
1037,0.03
1039,0.03
1041,0.03
1043,0.03
1045,0.03
1047,0.03
1049,0.03
1051,0.03
1053,0.03
1055,0.03
1057,0.03
1059,0.03
1061,0.03
1063,0.03
1065,0.03
1067,0.03
1069,0.03
1071,0.03
1073,0.03
1075,0.03
1077,0.03
1079,0.03
1081,0.03
1083,0.03
1085,0.03
1087,0.03
1089,0.03
1091,0.03
1093,0.03
1095,0.03
1097,0.03
1099,0.03
1101,0.03
1103,0.03
1105,0.03
1107,0.03
1109,0.03
1111,0.03
1113,0.03
1115,0.03
1117,0.03
1119,0.03
1121,0.03
1123,0.03
1125,0.03
1127,0.03
1129,0.03
1131,0.03
1133,0.03
2013,0.03
2016,0.03
2020,0.03
2050,0.03
2060,0.03
2068,0.03
2070,0.03
2090,0.03
2100,0.03
2105,0.03
2110,0.03
2122,0.03
2130,0.03
2150,0.03
2164,0.03
2170,0.03
2180,0.03
2185,0.03
2188,0.03
2195,0.03
2198,0.03
2220,0.03
2230,0.03
2240,0.03
2261,0.03
2270,0.03
2275,0.03
2282,0.03
2290,0.03
4001,0.03
4003,0.03
4005,0.03
4007,0.03
4009,0.03
4011,0.03
4012,0.03
4013,0.03
4015,0.03
4017,0.03
4019,0.03
4021,0.03
4023,0.03
4025,0.03
4027,0.03
5001,0.03
5003,0.03
5005,0.03
5007,0.03
5009,0.03
5011,0.03
5013,0.03
5015,0.03
5017,0.03
5019,0.03
5021,0.03
5023,0.03
5025,0.03
5027,0.03
5029,0.03
5031,0.03
5033,0.03
5035,0.03
5037,0.03
5039,0.03
5041,0.03
5043,0.03
5045,0.03
5047,0.03
5049,0.03
5051,0.03
5053,0.03
5055,0.03
5057,0.03
5059,0.03
5061,0.03
5063,0.03
5065,0.03
5067,0.03
5069,0.03
5071,0.03
5073,0.03
5075,0.03
5077,0.03
5079,0.03
5081,0.03
5083,0.03
5085,0.03
5087,0.03
5089,0.03
5091,0.03
5093,0.03
5095,0.03
5097,0.03
5099,0.03
5101,0.03
5103,0.03
5105,0.03
5107,0.03
5109,0.03
5111,0.03
5113,0.03
5115,0.03
5117,0.03
5119,0.03
5121,0.03
5123,0.03
5125,0.03
5127,0.03
5129,0.03
5131,0.03
5133,0.03
5135,0.03
5137,0.03
5139,0.03
5141,0.03
5143,0.03
5145,0.03
5147,0.03
5149,0.03
6001,0.03
6003,0.03
6005,0.03
6007,0.03
6009,0.03
6011,0.03
6013,0.03
6015,0.03
6017,0.03
6019,0.03
6021,0.03
6023,0.03
6025,0.03
6027,0.03
6029,0.03
6031,0.03
6033,0.03
6035,0.03
6037,0.03
6039,0.03
6041,0.03
6043,0.03
6045,0.03
6047,0.03
6049,0.03
6051,0.03
6053,0.03
6055,0.03
6057,0.03
6059,0.03
6061,0.03
6063,0.03
6065,0.03
6067,0.03
6069,0.03
6071,0.03
6073,0.03
6075,0.03
6077,0.03
6079,0.03
6081,0.03
6083,0.03
6085,0.03
6087,0.03
6089,0.03
6091,0.03
6093,0.03
6095,0.03
6097,0.03
6099,0.03
6101,0.03
6103,0.03
6105,0.03
6107,0.03
6109,0.03
6111,0.03
6113,0.03
6115,0.03
8001,0.03
8003,0.03
8005,0.03
8007,0.03
8009,0.03
8011,0.03
8013,0.03
8014,0.03
8015,0.03
8017,0.03
8019,0.03
8021,0.03
8023,0.03
8025,0.03
8027,0.03
8029,0.03
8031,0.03
8033,0.03
8035,0.03
8037,0.03
8039,0.03
8041,0.03
8043,0.03
8045,0.03
8047,0.03
8049,0.03
8051,0.03
8053,0.03
8055,0.03
8057,0.03
8059,0.03
8061,0.03
8063,0.03
8065,0.03
8067,0.03
8069,0.03
8071,0.03
8073,0.03
8075,0.03
8077,0.03
8079,0.03
8081,0.03
8083,0.03
8085,0.03
8087,0.03
8089,0.03
8091,0.03
8093,0.03
8095,0.03
8097,0.03
8099,0.03
8101,0.03
8103,0.03
8105,0.03
8107,0.03
8109,0.03
8111,0.03
8113,0.03
8115,0.03
8117,0.03
8119,0.03
8121,0.03
8123,0.03
8125,0.03
9001,0.03
9003,0.03
9005,0.03
9007,0.03
9009,0.03
9011,0.03
9013,0.03
9015,0.03
10001,0.03
10003,0.03
10005,0.03
11001,0.03
12001,0.03
12003,0.03
12005,0.03
12007,0.03
12009,0.03
12011,1
12013,0.03
12015,1
12017,0.03
12019,0.03
12021,1
12023,0.03
12027,0.03
12029,0.03
12031,0.03
12033,0.03
12035,0.03
12037,0.03
12039,0.03
12041,0.03
12043,0.03
12045,0.03
12047,0.03
12049,0.03
12051,1
12053,0.03
12055,0.03
12057,0.03
12059,0.03
12061,0.03
12063,0.03
12065,0.03
12067,0.03
12069,0.03
12071,1
12073,0.03
12075,0.03
12077,0.03
12079,0.03
12081,0.03
12083,0.03
12085,1
12086,1
12087,1
12089,0.03
12091,0.03
12093,0.03
12095,0.03
12097,0.03
12099,1
12101,0.03
12103,0.03
12105,0.03
12107,0.03
12109,0.03
12111,1
12113,0.03
12115,0.03
12117,0.03
12119,0.03
12121,0.03
12123,0.03
12125,0.03
12127,0.03
12129,0.03
12131,0.03
12133,0.03
13001,0.03
13003,0.03
13005,0.03
13007,0.03
13009,0.03
13011,0.03
13013,0.03
13015,0.03
13017,0.03
13019,0.03
13021,0.03
13023,0.03
13025,0.03
13027,0.03
13029,0.03
13031,0.03
13033,0.03
13035,0.03
13037,0.03
13039,0.03
13043,0.03
13045,0.03
13047,0.03
13049,0.03
13051,0.03
13053,0.03
13055,0.03
13057,0.03
13059,0.03
13061,0.03
13063,0.03
13065,0.03
13067,0.03
13069,0.03
13071,0.03
13073,0.03
13075,0.03
13077,0.03
13079,0.03
13081,0.03
13083,0.03
13085,0.03
13087,0.03
13089,0.03
13091,0.03
13093,0.03
13095,0.03
13097,0.03
13099,0.03
13101,0.03
13103,0.03
13105,0.03
13107,0.03
13109,0.03
13111,0.03
13113,0.03
13115,0.03
13117,0.03
13119,0.03
13121,0.03
13123,0.03
13125,0.03
13127,0.03
13129,0.03
13131,0.03
13133,0.03
13135,0.03
13137,0.03
13139,0.03
13141,0.03
13143,0.03
13145,0.03
13147,0.03
13149,0.03
13151,0.03
13153,0.03
13155,0.03
13157,0.03
13159,0.03
13161,0.03
13163,0.03
13165,0.03
13167,0.03
13169,0.03
13171,0.03
13173,0.03
13175,0.03
13177,0.03
13179,0.03
13181,0.03
13183,0.03
13185,0.03
13187,0.03
13189,0.03
13191,0.03
13193,0.03
13195,0.03
13197,0.03
13199,0.03
13201,0.03
13205,0.03
13207,0.03
13209,0.03
13211,0.03
13213,0.03
13215,0.03
13217,0.03
13219,0.03
13221,0.03
13223,0.03
13225,0.03
13227,0.03
13229,0.03
13231,0.03
13233,0.03
13235,0.03
13237,0.03
13239,0.03
13241,0.03
13243,0.03
13245,0.03
13247,0.03
13249,0.03
13251,0.03
13253,0.03
13255,0.03
13257,0.03
13259,0.03
13261,0.03
13263,0.03
13265,0.03
13267,0.03
13269,0.03
13271,0.03
13273,0.03
13275,0.03
13277,0.03
13279,0.03
13281,0.03
13283,0.03
13285,0.03
13287,0.03
13289,0.03
13291,0.03
13293,0.03
13295,0.03
13297,0.03
13299,0.03
13301,0.03
13303,0.03
13305,0.03
13307,0.03
13309,0.03
13311,0.03
13313,0.03
13315,0.03
13317,0.03
13319,0.03
13321,0.03
15001,0.03
15003,0.03
15005,0.03
15007,0.03
15009,0.03
16001,0.03
16003,0.03
16005,0.03
16007,0.03
16009,0.03
16011,0.03
16013,0.03
16015,0.03
16017,0.03
16019,0.03
16021,0.03
16023,0.03
16025,0.03
16027,0.03
16029,0.03
16031,0.03
16033,0.03
16035,0.03
16037,0.03
16039,0.03
16041,0.03
16043,0.03
16045,0.03
16047,0.03
16049,0.03
16051,0.03
16053,0.03
16055,0.03
16057,0.03
16059,0.03
16061,0.03
16063,0.03
16065,0.03
16067,0.03
16069,0.03
16071,0.03
16073,0.03
16075,0.03
16077,0.03
16079,0.03
16081,0.03
16083,0.03
16085,0.03
16087,0.03
17001,0.03
17003,0.03
17005,0.03
17007,0.03
17009,0.03
17011,0.03
17013,0.03
17015,0.03
17017,0.03
17019,0.03
17021,0.03
17023,0.03
17025,0.03
17027,0.03
17029,0.03
17031,0.03
17033,0.03
17035,0.03
17037,0.03
17039,0.03
17041,0.03
17043,0.03
17045,0.03
17047,0.03
17049,0.03
17051,0.03
17053,0.03
17055,0.03
17057,0.03
17059,0.03
17061,0.03
17063,0.03
17065,0.03
17067,0.03
17069,0.03
17071,0.03
17073,0.03
17075,0.03
17077,0.03
17079,0.03
17081,0.03
17083,0.03
17085,0.03
17087,0.03
17089,0.03
17091,0.03
17093,0.03
17095,0.03
17097,0.03
17099,0.03
17101,0.03
17103,0.03
17105,0.03
17107,0.03
17109,0.03
17111,0.03
17113,0.03
17115,0.03
17117,0.03
17119,0.03
17121,0.03
17123,0.03
17125,0.03
17127,0.03
17129,0.03
17131,0.03
17133,0.03
17135,0.03
17137,0.03
17139,0.03
17141,0.03
17143,0.03
17145,0.03
17147,0.03
17149,0.03
17151,0.03
17153,0.03
17155,0.03
17157,0.03
17159,0.03
17161,0.03
17163,0.03
17165,0.03
17167,0.03
17169,0.03
17171,0.03
17173,0.03
17175,0.03
17177,0.03
17179,0.03
17181,0.03
17183,0.03
17185,0.03
17187,0.03
17189,0.03
17191,0.03
17193,0.03
17195,0.03
17197,0.03
17199,0.03
17201,0.03
17203,0.03
18001,0.03
18003,0.03
18005,0.03
18007,0.03
18009,0.03
18011,0.03
18013,0.03
18015,0.03
18017,0.03
18019,0.03
18021,0.03
18023,0.03
18025,0.03
18027,0.03
18029,0.03
18031,0.03
18033,0.03
18035,0.03
18037,0.03
18039,0.03
18041,0.03
18043,0.03
18045,0.03
18047,0.03
18049,0.03
18051,0.03
18053,0.03
18055,0.03
18057,0.03
18059,0.03
18061,0.03
18063,0.03
18065,0.03
18067,0.03
18069,0.03
18071,0.03
18073,0.03
18075,0.03
18077,0.03
18079,0.03
18081,0.03
18083,0.03
18085,0.03
18087,0.03
18089,0.03
18091,0.03
18093,0.03
18095,0.03
18097,0.03
18099,0.03
18101,0.03
18103,0.03
18105,0.03
18107,0.03
18109,0.03
18111,0.03
18113,0.03
18115,0.03
18117,0.03
18119,0.03
18121,0.03
18123,0.03
18125,0.03
18127,0.03
18129,0.03
18131,0.03
18133,0.03
18135,0.03
18137,0.03
18139,0.03
18141,0.03
18143,0.03
18145,0.03
18147,0.03
18149,0.03
18151,0.03
18153,0.03
18155,0.03
18157,0.03
18159,0.03
18161,0.03
18163,0.03
18165,0.03
18167,0.03
18169,0.03
18171,0.03
18173,0.03
18175,0.03
18177,0.03
18179,0.03
18181,0.03
18183,0.03
19001,0.03
19003,0.03
19005,0.03
19007,0.03
19009,0.03
19011,0.03
19013,0.03
19015,0.03
19017,0.03
19019,0.03
19021,0.03
19023,0.03
19025,0.03
19027,0.03
19029,0.03
19031,0.03
19033,0.03
19035,0.03
19037,0.03
19039,0.03
19041,0.03
19043,0.03
19045,0.03
19047,0.03
19049,0.03
19051,0.03
19053,0.03
19055,0.03
19057,0.03
19059,0.03
19061,0.03
19063,0.03
19065,0.03
19067,0.03
19069,0.03
19071,0.03
19073,0.03
19075,0.03
19077,0.03
19079,0.03
19081,0.03
19083,0.03
19085,0.03
19087,0.03
19089,0.03
19091,0.03
19093,0.03
19095,0.03
19097,0.03
19099,0.03
19101,0.03
19103,0.03
19105,0.03
19107,0.03
19109,0.03
19111,0.03
19113,0.03
19115,0.03
19117,0.03
19119,0.03
19121,0.03
19123,0.03
19125,0.03
19127,0.03
19129,0.03
19131,0.03
19133,0.03
19135,0.03
19137,0.03
19139,0.03
19141,0.03
19143,0.03
19145,0.03
19147,0.03
19149,0.03
19151,0.03
19153,0.03
19155,0.03
19157,0.03
19159,0.03
19161,0.03
19163,0.03
19165,0.03
19167,0.03
19169,0.03
19171,0.03
19173,0.03
19175,0.03
19177,0.03
19179,0.03
19181,0.03
19183,0.03
19185,0.03
19187,0.03
19189,0.03
19191,0.03
19193,0.03
19195,0.03
19197,0.03
20001,0.03
20003,0.03
20005,0.03
20007,0.03
20009,0.03
20011,0.03
20013,0.03
20015,0.03
20017,0.03
20019,0.03
20021,0.03
20023,0.03
20025,0.03
20027,0.03
20029,0.03
20031,0.03
20033,0.03
20035,0.03
20037,0.03
20039,0.03
20041,0.03
20043,0.03
20045,0.03
20047,0.03
20049,0.03
20051,0.03
20053,0.03
20055,0.03
20057,0.03
20059,0.03
20061,0.03
20063,0.03
20065,0.03
20067,0.03
20069,0.03
20071,0.03
20073,0.03
20075,0.03
20077,0.03
20079,0.03
20081,0.03
20083,0.03
20085,0.03
20087,0.03
20089,0.03
20091,0.03
20093,0.03
20095,0.03
20097,0.03
20099,0.03
20101,0.03
20103,0.03
20105,0.03
20107,0.03
20109,0.03
20111,0.03
20113,0.03
20115,0.03
20117,0.03
20119,0.03
20121,0.03
20123,0.03
20125,0.03
20127,0.03
20129,0.03
20131,0.03
20133,0.03
20135,0.03
20137,0.03
20139,0.03
20141,0.03
20143,0.03
20145,0.03
20147,0.03
20149,0.03
20151,0.03
20153,0.03
20155,0.03
20157,0.03
20159,0.03
20161,0.03
20163,0.03
20165,0.03
20167,0.03
20169,0.03
20171,0.03
20173,0.03
20175,0.03
20177,0.03
20179,0.03
20181,0.03
20183,0.03
20185,0.03
20187,0.03
20189,0.03
20191,0.03
20193,0.03
20195,0.03
20197,0.03
20199,0.03
20201,0.03
20203,0.03
20205,0.03
20207,0.03
20209,0.03
21001,0.03
21003,0.03
21005,0.03
21007,0.03
21009,0.03
21011,0.03
21013,0.03
21015,0.03
21017,0.03
21019,0.03
21021,0.03
21023,0.03
21025,0.03
21027,0.03
21029,0.03
21031,0.03
21033,0.03
21035,0.03
21037,0.03
21039,0.03
21041,0.03
21043,0.03
21045,0.03
21047,0.03
21049,0.03
21051,0.03
21053,0.03
21055,0.03
21057,0.03
21059,0.03
21061,0.03
21063,0.03
21065,0.03
21067,0.03
21069,0.03
21071,0.03
21073,0.03
21075,0.03
21077,0.03
21079,0.03
21081,0.03
21083,0.03
21085,0.03
21087,0.03
21089,0.03
21091,0.03
21093,0.03
21095,0.03
21097,0.03
21099,0.03
21101,0.03
21103,0.03
21105,0.03
21107,0.03
21109,0.03
21111,0.03
21113,0.03
21115,0.03
21117,0.03
21119,0.03
21121,0.03
21123,0.03
21125,0.03
21127,0.03
21129,0.03
21131,0.03
21133,0.03
21135,0.03
21137,0.03
21139,0.03
21141,0.03
21143,0.03
21145,0.03
21147,0.03
21149,0.03
21151,0.03
21153,0.03
21155,0.03
21157,0.03
21159,0.03
21161,0.03
21163,0.03
21165,0.03
21167,0.03
21169,0.03
21171,0.03
21173,0.03
21175,0.03
21177,0.03
21179,0.03
21181,0.03
21183,0.03
21185,0.03
21187,0.03
21189,0.03
21191,0.03
21193,0.03
21195,0.03
21197,0.03
21199,0.03
21201,0.03
21203,0.03
21205,0.03
21207,0.03
21209,0.03
21211,0.03
21213,0.03
21215,0.03
21217,0.03
21219,0.03
21221,0.03
21223,0.03
21225,0.03
21227,0.03
21229,0.03
21231,0.03
21233,0.03
21235,0.03
21237,0.03
21239,0.03
22001,0.03
22003,0.03
22005,0.03
22007,0.03
22009,0.03
22011,0.03
22013,0.03
22015,0.03
22017,0.03
22019,0.03
22021,0.03
22023,0.03
22025,0.03
22027,0.03
22029,0.03
22031,0.03
22033,0.03
22035,0.03
22037,0.03
22039,0.03
22041,0.03
22043,0.03
22045,0.03
22047,0.03
22049,0.03
22051,0.03
22053,0.03
22055,0.03
22057,0.03
22059,0.03
22061,0.03
22063,0.03
22065,0.03
22067,0.03
22069,0.03
22071,0.03
22073,0.03
22075,0.03
22077,0.03
22079,0.03
22081,0.03
22083,0.03
22085,0.03
22087,0.03
22089,0.03
22091,0.03
22093,0.03
22095,0.03
22097,0.03
22099,0.03
22101,0.03
22103,0.03
22105,0.03
22107,0.03
22109,0.03
22111,0.03
22113,0.03
22115,0.03
22117,0.03
22119,0.03
22121,0.03
22123,0.03
22125,0.03
22127,0.03
23001,0.03
23003,0.03
23005,0.03
23007,0.03
23009,0.03
23011,0.03
23013,0.03
23015,0.03
23017,0.03
23019,0.03
23021,0.03
23023,0.03
23025,0.03
23027,0.03
23029,0.03
23031,0.03
24001,0.03
24003,0.03
24005,0.03
24009,0.03
24011,0.03
24013,0.03
24015,0.03
24017,0.03
24019,0.03
24021,0.03
24023,0.03
24025,0.03
24027,0.03
24029,0.03
24031,0.03
24033,0.03
24035,0.03
24037,0.03
24039,0.03
24041,0.03
24043,0.03
24045,0.03
24047,0.03
24510,0.03
25001,0.03
25003,0.03
25005,0.03
25007,0.03
25009,0.03
25011,0.03
25013,0.03
25015,0.03
25017,0.03
25019,0.03
25021,0.03
25023,0.03
25025,0.03
25027,0.03
26001,0.03
26003,0.03
26005,0.03
26007,0.03
26009,0.03
26011,0.03
26013,0.03
26015,0.03
26017,0.03
26019,0.03
26021,0.03
26023,0.03
26025,0.03
26027,0.03
26029,0.03
26031,0.03
26033,0.03
26035,0.03
26037,0.03
26039,0.03
26041,0.03
26043,0.03
26045,0.03
26047,0.03
26049,0.03
26051,0.03
26053,0.03
26055,0.03
26057,0.03
26059,0.03
26061,0.03
26063,0.03
26065,0.03
26067,0.03
26069,0.03
26071,0.03
26073,0.03
26075,0.03
26077,0.03
26079,0.03
26081,0.03
26083,0.03
26085,0.03
26087,0.03
26089,0.03
26091,0.03
26093,0.03
26095,0.03
26097,0.03
26099,0.03
26101,0.03
26103,0.03
26105,0.03
26107,0.03
26109,0.03
26111,0.03
26113,0.03
26115,0.03
26117,0.03
26119,0.03
26121,0.03
26123,0.03
26125,0.03
26127,0.03
26129,0.03
26131,0.03
26133,0.03
26135,0.03
26137,0.03
26139,0.03
26141,0.03
26143,0.03
26145,0.03
26147,0.03
26149,0.03
26151,0.03
26153,0.03
26155,0.03
26157,0.03
26159,0.03
26161,0.03
26163,0.03
26165,0.03
27001,0.03
27003,0.03
27005,0.03
27007,0.03
27009,0.03
27011,0.03
27013,0.03
27015,0.03
27017,0.03
27019,0.03
27021,0.03
27023,0.03
27025,0.03
27027,0.03
27029,0.03
27031,0.03
27033,0.03
27035,0.03
27037,0.03
27039,0.03
27041,0.03
27043,0.03
27045,0.03
27047,0.03
27049,0.03
27051,0.03
27053,0.03
27055,0.03
27057,0.03
27059,0.03
27061,0.03
27063,0.03
27065,0.03
27067,0.03
27069,0.03
27071,0.03
27073,0.03
27075,0.03
27077,0.03
27079,0.03
27081,0.03
27083,0.03
27085,0.03
27087,0.03
27089,0.03
27091,0.03
27093,0.03
27095,0.03
27097,0.03
27099,0.03
27101,0.03
27103,0.03
27105,0.03
27107,0.03
27109,0.03
27111,0.03
27113,0.03
27115,0.03
27117,0.03
27119,0.03
27121,0.03
27123,0.03
27125,0.03
27127,0.03
27129,0.03
27131,0.03
27133,0.03
27135,0.03
27137,0.03
27139,0.03
27141,0.03
27143,0.03
27145,0.03
27147,0.03
27149,0.03
27151,0.03
27153,0.03
27155,0.03
27157,0.03
27159,0.03
27161,0.03
27163,0.03
27165,0.03
27167,0.03
27169,0.03
27171,0.03
27173,0.03
28001,0.03
28003,0.03
28005,0.03
28007,0.03
28009,0.03
28011,0.03
28013,0.03
28015,0.03
28017,0.03
28019,0.03
28021,0.03
28023,0.03
28025,0.03
28027,0.03
28029,0.03
28031,0.03
28033,0.03
28035,0.03
28037,0.03
28039,0.03
28041,0.03
28043,0.03
28045,0.03
28047,0.03
28049,0.03
28051,0.03
28053,0.03
28055,0.03
28057,0.03
28059,0.03
28061,0.03
28063,0.03
28065,0.03
28067,0.03
28069,0.03
28071,0.03
28073,0.03
28075,0.03
28077,0.03
28079,0.03
28081,0.03
28083,0.03
28085,0.03
28087,0.03
28089,0.03
28091,0.03
28093,0.03
28095,0.03
28097,0.03
28099,0.03
28101,0.03
28103,0.03
28105,0.03
28107,0.03
28109,0.03
28111,0.03
28113,0.03
28115,0.03
28117,0.03
28119,0.03
28121,0.03
28123,0.03
28125,0.03
28127,0.03
28129,0.03
28131,0.03
28133,0.03
28135,0.03
28137,0.03
28139,0.03
28141,0.03
28143,0.03
28145,0.03
28147,0.03
28149,0.03
28151,0.03
28153,0.03
28155,0.03
28157,0.03
28159,0.03
28161,0.03
28163,0.03
29001,0.03
29003,0.03
29005,0.03
29007,0.03
29009,0.03
29011,0.03
29013,0.03
29015,0.03
29017,0.03
29019,0.03
29021,0.03
29023,0.03
29025,0.03
29027,0.03
29029,0.03
29031,0.03
29033,0.03
29035,0.03
29037,0.03
29039,0.03
29041,0.03
29043,0.03
29045,0.03
29047,0.03
29049,0.03
29051,0.03
29053,0.03
29055,0.03
29057,0.03
29059,0.03
29061,0.03
29063,0.03
29065,0.03
29067,0.03
29069,0.03
29071,0.03
29073,0.03
29075,0.03
29077,0.03
29079,0.03
29081,0.03
29083,0.03
29085,0.03
29087,0.03
29089,0.03
29091,0.03
29093,0.03
29095,0.03
29097,0.03
29099,0.03
29101,0.03
29103,0.03
29105,0.03
29107,0.03
29109,0.03
29111,0.03
29113,0.03
29115,0.03
29117,0.03
29119,0.03
29121,0.03
29123,0.03
29125,0.03
29127,0.03
29129,0.03
29131,0.03
29133,0.03
29135,0.03
29137,0.03
29139,0.03
29141,0.03
29143,0.03
29145,0.03
29147,0.03
29149,0.03
29151,0.03
29153,0.03
29155,0.03
29157,0.03
29159,0.03
29161,0.03
29163,0.03
29165,0.03
29167,0.03
29169,0.03
29171,0.03
29173,0.03
29175,0.03
29177,0.03
29179,0.03
29181,0.03
29183,0.03
29185,0.03
29186,0.03
29187,0.03
29189,0.03
29195,0.03
29197,0.03
29199,0.03
29201,0.03
29203,0.03
29205,0.03
29207,0.03
29209,0.03
29211,0.03
29213,0.03
29215,0.03
29217,0.03
29219,0.03
29221,0.03
29223,0.03
29225,0.03
29227,0.03
29229,0.03
29510,0.03
30001,0.03
30003,0.03
30005,0.03
30007,0.03
30009,0.03
30011,0.03
30013,0.03
30015,0.03
30017,0.03
30019,0.03
30021,0.03
30023,0.03
30025,0.03
30027,0.03
30029,0.03
30031,0.03
30033,0.03
30035,0.03
30037,0.03
30039,0.03
30041,0.03
30043,0.03
30045,0.03
30047,0.03
30049,0.03
30051,0.03
30053,0.03
30055,0.03
30057,0.03
30059,0.03
30061,0.03
30063,0.03
30065,0.03
30067,0.03
30069,0.03
30071,0.03
30073,0.03
30075,0.03
30077,0.03
30079,0.03
30081,0.03
30083,0.03
30085,0.03
30087,0.03
30089,0.03
30091,0.03
30093,0.03
30095,0.03
30097,0.03
30099,0.03
30101,0.03
30103,0.03
30105,0.03
30107,0.03
30109,0.03
30111,0.03
31001,0.03
31003,0.03
31005,0.03
31007,0.03
31009,0.03
31011,0.03
31013,0.03
31015,0.03
31017,0.03
31019,0.03
31021,0.03
31023,0.03
31025,0.03
31027,0.03
31029,0.03
31031,0.03
31033,0.03
31035,0.03
31037,0.03
31039,0.03
31041,0.03
31043,0.03
31045,0.03
31047,0.03
31049,0.03
31051,0.03
31053,0.03
31055,0.03
31057,0.03
31059,0.03
31061,0.03
31063,0.03
31065,0.03
31067,0.03
31069,0.03
31071,0.03
31073,0.03
31075,0.03
31077,0.03
31079,0.03
31081,0.03
31083,0.03
31085,0.03
31087,0.03
31089,0.03
31091,0.03
31093,0.03
31095,0.03
31097,0.03
31099,0.03
31101,0.03
31103,0.03
31105,0.03
31107,0.03
31109,0.03
31111,0.03
31113,0.03
31115,0.03
31117,0.03
31119,0.03
31121,0.03
31123,0.03
31125,0.03
31127,0.03
31129,0.03
31131,0.03
31133,0.03
31135,0.03
31137,0.03
31139,0.03
31141,0.03
31143,0.03
31145,0.03
31147,0.03
31149,0.03
31151,0.03
31153,0.03
31155,0.03
31157,0.03
31159,0.03
31161,0.03
31163,0.03
31165,0.03
31167,0.03
31169,0.03
31171,0.03
31173,0.03
31175,0.03
31177,0.03
31179,0.03
31181,0.03
31183,0.03
31185,0.03
32001,0.03
32003,0.03
32005,0.03
32007,0.03
32009,0.03
32011,0.03
32013,0.03
32015,0.03
32017,0.03
32019,0.03
32021,0.03
32023,0.03
32027,0.03
32029,0.03
32031,0.03
32033,0.03
32510,0.03
33001,0.03
33003,0.03
33005,0.03
33007,0.03
33009,0.03
33011,0.03
33013,0.03
33015,0.03
33017,0.03
33019,0.03
34001,0.03
34003,0.03
34005,0.03
34007,0.03
34009,0.03
34011,0.03
34013,0.03
34015,0.03
34017,0.03
34019,0.03
34021,0.03
34023,0.03
34025,0.03
34027,0.03
34029,0.03
34031,0.03
34033,0.03
34035,0.03
34037,0.03
34039,0.03
34041,0.03
35001,0.03
35003,0.03
35005,0.03
35006,0.03
35007,0.03
35009,0.03
35011,0.03
35013,0.03
35015,0.03
35017,0.03
35019,0.03
35021,0.03
35023,0.03
35025,0.03
35027,0.03
35028,0.03
35029,0.03
35031,0.03
35033,0.03
35035,0.03
35037,0.03
35039,0.03
35041,0.03
35043,0.03
35045,0.03
35047,0.03
35049,0.03
35051,0.03
35053,0.03
35055,0.03
35057,0.03
35059,0.03
35061,0.03
36001,0.03
36003,0.03
36005,0.03
36007,0.03
36009,0.03
36011,0.03
36013,0.03
36015,0.03
36017,0.03
36019,0.03
36021,0.03
36023,0.03
36025,0.03
36027,0.03
36029,0.03
36031,0.03
36033,0.03
36035,0.03
36037,0.03
36039,0.03
36041,0.03
36043,0.03
36045,0.03
36047,0.03
36049,0.03
36051,0.03
36053,0.03
36055,0.03
36057,0.03
36059,0.03
36061,0.03
36063,0.03
36065,0.03
36067,0.03
36069,0.03
36071,0.03
36073,0.03
36075,0.03
36077,0.03
36079,0.03
36081,0.03
36083,0.03
36085,0.03
36087,0.03
36089,0.03
36091,0.03
36093,0.03
36095,0.03
36097,0.03
36099,0.03
36101,0.03
36103,0.03
36105,0.03
36107,0.03
36109,0.03
36111,0.03
36113,0.03
36115,0.03
36117,0.03
36119,0.03
36121,0.03
36123,0.03
37001,0.03
37003,0.03
37005,0.03
37007,0.03
37009,0.03
37011,0.03
37013,0.03
37015,0.03
37017,0.03
37019,0.03
37021,0.03
37023,0.03
37025,0.03
37027,0.03
37029,0.03
37031,0.03
37033,0.03
37035,0.03
37037,0.03
37039,0.03
37041,0.03
37043,0.03
37045,0.03
37047,0.03
37049,0.03
37051,0.03
37053,0.03
37055,0.03
37057,0.03
37059,0.03
37061,0.03
37063,0.03
37065,0.03
37067,0.03
37069,0.03
37071,0.03
37073,0.03
37075,0.03
37077,0.03
37079,0.03
37081,0.03
37083,0.03
37085,0.03
37087,0.03
37089,0.03
37091,0.03
37093,0.03
37095,0.03
37097,0.03
37099,0.03
37101,0.03
37103,0.03
37105,0.03
37107,0.03
37109,0.03
37111,0.03
37113,0.03
37115,0.03
37117,0.03
37119,0.03
37121,0.03
37123,0.03
37125,0.03
37127,0.03
37129,0.03
37131,0.03
37133,0.03
37135,0.03
37137,0.03
37139,0.03
37141,0.03
37143,0.03
37145,0.03
37147,0.03
37149,0.03
37151,0.03
37153,0.03
37155,0.03
37157,0.03
37159,0.03
37161,0.03
37163,0.03
37165,0.03
37167,0.03
37169,0.03
37171,0.03
37173,0.03
37175,0.03
37177,0.03
37179,0.03
37181,0.03
37183,0.03
37185,0.03
37187,0.03
37189,0.03
37191,0.03
37193,0.03
37195,0.03
37197,0.03
37199,0.03
38001,0.03
38003,0.03
38005,0.03
38007,0.03
38009,0.03
38011,0.03
38013,0.03
38015,0.03
38017,0.03
38019,0.03
38021,0.03
38023,0.03
38025,0.03
38027,0.03
38029,0.03
38031,0.03
38033,0.03
38035,0.03
38037,0.03
38039,0.03
38041,0.03
38043,0.03
38045,0.03
38047,0.03
38049,0.03
38051,0.03
38053,0.03
38055,0.03
38057,0.03
38059,0.03
38061,0.03
38063,0.03
38065,0.03
38067,0.03
38069,0.03
38071,0.03
38073,0.03
38075,0.03
38077,0.03
38079,0.03
38081,0.03
38083,0.03
38085,0.03
38087,0.03
38089,0.03
38091,0.03
38093,0.03
38095,0.03
38097,0.03
38099,0.03
38101,0.03
38103,0.03
38105,0.03
39001,0.03
39003,0.03
39005,0.03
39007,0.03
39009,0.03
39011,0.03
39013,0.03
39015,0.03
39017,0.03
39019,0.03
39021,0.03
39023,0.03
39025,0.03
39027,0.03
39029,0.03
39031,0.03
39033,0.03
39035,0.03
39037,0.03
39039,0.03
39041,0.03
39043,0.03
39045,0.03
39047,0.03
39049,0.03
39051,0.03
39053,0.03
39055,0.03
39057,0.03
39059,0.03
39061,0.03
39063,0.03
39065,0.03
39067,0.03
39069,0.03
39071,0.03
39073,0.03
39075,0.03
39077,0.03
39079,0.03
39081,0.03
39083,0.03
39085,0.03
39087,0.03
39089,0.03
39091,0.03
39093,0.03
39095,0.03
39097,0.03
39099,0.03
39101,0.03
39103,0.03
39105,0.03
39107,0.03
39109,0.03
39111,0.03
39113,0.03
39115,0.03
39117,0.03
39119,0.03
39121,0.03
39123,0.03
39125,0.03
39127,0.03
39129,0.03
39131,0.03
39133,0.03
39135,0.03
39137,0.03
39139,0.03
39141,0.03
39143,0.03
39145,0.03
39147,0.03
39149,0.03
39151,0.03
39153,0.03
39155,0.03
39157,0.03
39159,0.03
39161,0.03
39163,0.03
39165,0.03
39167,0.03
39169,0.03
39171,0.03
39173,0.03
39175,0.03
40001,0.03
40003,0.03
40005,0.03
40007,0.03
40009,0.03
40011,0.03
40013,0.03
40015,0.03
40017,0.03
40019,0.03
40021,0.03
40023,0.03
40025,0.03
40027,0.03
40029,0.03
40031,0.03
40033,0.03
40035,0.03
40037,0.03
40039,0.03
40041,0.03
40043,0.03
40045,0.03
40047,0.03
40049,0.03
40051,0.03
40053,0.03
40055,0.03
40057,0.03
40059,0.03
40061,0.03
40063,0.03
40065,0.03
40067,0.03
40069,0.03
40071,0.03
40073,0.03
40075,0.03
40077,0.03
40079,0.03
40081,0.03
40083,0.03
40085,0.03
40087,0.03
40089,0.03
40091,0.03
40093,0.03
40095,0.03
40097,0.03
40099,0.03
40101,0.03
40103,0.03
40105,0.03
40107,0.03
40109,0.03
40111,0.03
40113,0.03
40115,0.03
40117,0.03
40119,0.03
40121,0.03
40123,0.03
40125,0.03
40127,0.03
40129,0.03
40131,0.03
40133,0.03
40135,0.03
40137,0.03
40139,0.03
40141,0.03
40143,0.03
40145,0.03
40147,0.03
40149,0.03
40151,0.03
40153,0.03
41001,0.03
41003,0.03
41005,0.03
41007,0.03
41009,0.03
41011,0.03
41013,0.03
41015,0.03
41017,0.03
41019,0.03
41021,0.03
41023,0.03
41025,0.03
41027,0.03
41029,0.03
41031,0.03
41033,0.03
41035,0.03
41037,0.03
41039,0.03
41041,0.03
41043,0.03
41045,0.03
41047,0.03
41049,0.03
41051,0.03
41053,0.03
41055,0.03
41057,0.03
41059,0.03
41061,0.03
41063,0.03
41065,0.03
41067,0.03
41069,0.03
41071,0.03
42001,0.03
42003,0.03
42005,0.03
42007,0.03
42009,0.03
42011,0.03
42013,0.03
42015,0.03
42017,0.03
42019,0.03
42021,0.03
42023,0.03
42025,0.03
42027,0.03
42029,0.03
42031,0.03
42033,0.03
42035,0.03
42037,0.03
42039,0.03
42041,0.03
42043,0.03
42045,0.03
42047,0.03
42049,0.03
42051,0.03
42053,0.03
42055,0.03
42057,0.03
42059,0.03
42061,0.03
42063,0.03
42065,0.03
42067,0.03
42069,0.03
42071,0.03
42073,0.03
42075,0.03
42077,0.03
42079,0.03
42081,0.03
42083,0.03
42085,0.03
42087,0.03
42089,0.03
42091,0.03
42093,0.03
42095,0.03
42097,0.03
42099,0.03
42101,0.03
42103,0.03
42105,0.03
42107,0.03
42109,0.03
42111,0.03
42113,0.03
42115,0.03
42117,0.03
42119,0.03
42121,0.03
42123,0.03
42125,0.03
42127,0.03
42129,0.03
42131,0.03
42133,0.03
44001,0.03
44003,0.03
44005,0.03
44007,0.03
44009,0.03
45001,0.03
45003,0.03
45005,0.03
45007,0.03
45009,0.03
45011,0.03
45013,0.03
45015,0.03
45017,0.03
45019,0.03
45021,0.03
45023,0.03
45025,0.03
45027,0.03
45029,0.03
45031,0.03
45033,0.03
45035,0.03
45037,0.03
45039,0.03
45041,0.03
45043,0.03
45045,0.03
45047,0.03
45049,0.03
45051,0.03
45053,0.03
45055,0.03
45057,0.03
45059,0.03
45061,0.03
45063,0.03
45065,0.03
45067,0.03
45069,0.03
45071,0.03
45073,0.03
45075,0.03
45077,0.03
45079,0.03
45081,0.03
45083,0.03
45085,0.03
45087,0.03
45089,0.03
45091,0.03
46003,0.03
46005,0.03
46007,0.03
46009,0.03
46011,0.03
46013,0.03
46015,0.03
46017,0.03
46019,0.03
46021,0.03
46023,0.03
46025,0.03
46027,0.03
46029,0.03
46031,0.03
46033,0.03
46035,0.03
46037,0.03
46039,0.03
46041,0.03
46043,0.03
46045,0.03
46047,0.03
46049,0.03
46051,0.03
46053,0.03
46055,0.03
46057,0.03
46059,0.03
46061,0.03
46063,0.03
46065,0.03
46067,0.03
46069,0.03
46071,0.03
46073,0.03
46075,0.03
46077,0.03
46079,0.03
46081,0.03
46083,0.03
46085,0.03
46087,0.03
46089,0.03
46091,0.03
46093,0.03
46095,0.03
46097,0.03
46099,0.03
46101,0.03
46103,0.03
46105,0.03
46107,0.03
46109,0.03
46111,0.03
46113,0.03
46115,0.03
46117,0.03
46119,0.03
46121,0.03
46123,0.03
46125,0.03
46127,0.03
46129,0.03
46135,0.03
46137,0.03
47001,0.03
47003,0.03
47005,0.03
47007,0.03
47009,0.03
47011,0.03
47013,0.03
47015,0.03
47017,0.03
47019,0.03
47021,0.03
47023,0.03
47025,0.03
47027,0.03
47029,0.03
47031,0.03
47033,0.03
47035,0.03
47037,0.03
47039,0.03
47041,0.03
47043,0.03
47045,0.03
47047,0.03
47049,0.03
47051,0.03
47053,0.03
47055,0.03
47057,0.03
47059,0.03
47061,0.03
47063,0.03
47065,0.03
47067,0.03
47069,0.03
47071,0.03
47073,0.03
47075,0.03
47077,0.03
47079,0.03
47081,0.03
47083,0.03
47085,0.03
47087,0.03
47089,0.03
47091,0.03
47093,0.03
47095,0.03
47097,0.03
47099,0.03
47101,0.03
47103,0.03
47105,0.03
47107,0.03
47109,0.03
47111,0.03
47113,0.03
47115,0.03
47117,0.03
47119,0.03
47121,0.03
47123,0.03
47125,0.03
47127,0.03
47129,0.03
47131,0.03
47133,0.03
47135,0.03
47137,0.03
47139,0.03
47141,0.03
47143,0.03
47145,0.03
47147,0.03
47149,0.03
47151,0.03
47153,0.03
47155,0.03
47157,0.03
47159,0.03
47161,0.03
47163,0.03
47165,0.03
47167,0.03
47169,0.03
47171,0.03
47173,0.03
47175,0.03
47177,0.03
47179,0.03
47181,0.03
47183,0.03
47185,0.03
47187,0.03
47189,0.03
48001,0.03
48003,0.03
48005,0.03
48007,0.03
48009,0.03
48011,0.03
48013,0.03
48015,0.03
48017,0.03
48019,0.03
48021,0.03
48023,0.03
48025,0.03
48027,0.03
48029,0.03
48031,0.03
48033,0.03
48035,0.03
48037,0.03
48039,0.03
48041,0.03
48043,0.03
48045,0.03
48047,0.03
48049,0.03
48051,0.03
48053,0.03
48055,0.03
48057,0.03
48059,0.03
48061,0.03
48063,0.03
48065,0.03
48067,0.03
48069,0.03
48071,0.03
48073,0.03
48075,0.03
48077,0.03
48079,0.03
48081,0.03
48083,0.03
48085,0.03
48087,0.03
48089,0.03
48091,0.03
48093,0.03
48095,0.03
48097,0.03
48099,0.03
48101,0.03
48103,0.03
48105,0.03
48107,0.03
48109,0.03
48111,0.03
48113,0.03
48115,0.03
48117,0.03
48119,0.03
48121,0.03
48123,0.03
48125,0.03
48127,0.03
48129,0.03
48131,0.03
48133,0.03
48135,0.03
48137,0.03
48139,0.03
48141,0.03
48143,0.03
48145,0.03
48147,0.03
48149,0.03
48151,0.03
48153,0.03
48155,0.03
48157,0.03
48159,0.03
48161,0.03
48163,0.03
48165,0.03
48167,0.03
48169,0.03
48171,0.03
48173,0.03
48175,0.03
48177,0.03
48179,0.03
48181,0.03
48183,0.03
48185,0.03
48187,0.03
48189,0.03
48191,0.03
48193,0.03
48195,0.03
48197,0.03
48199,0.03
48201,0.03
48203,0.03
48205,0.03
48207,0.03
48209,0.03
48211,0.03
48213,0.03
48215,0.03
48217,0.03
48219,0.03
48221,0.03
48223,0.03
48225,0.03
48227,0.03
48229,0.03
48231,0.03
48233,0.03
48235,0.03
48237,0.03
48239,0.03
48241,0.03
48243,0.03
48245,0.03
48247,0.03
48249,0.03
48251,0.03
48253,0.03
48255,0.03
48257,0.03
48259,0.03
48261,0.03
48263,0.03
48265,0.03
48267,0.03
48269,0.03
48271,0.03
48273,0.03
48275,0.03
48277,0.03
48279,0.03
48281,0.03
48283,0.03
48285,0.03
48287,0.03
48289,0.03
48291,0.03
48293,0.03
48295,0.03
48297,0.03
48299,0.03
48301,0.03
48303,0.03
48305,0.03
48307,0.03
48309,0.03
48311,0.03
48313,0.03
48315,0.03
48317,0.03
48319,0.03
48321,0.03
48323,0.03
48325,0.03
48327,0.03
48329,0.03
48331,0.03
48333,0.03
48335,0.03
48337,0.03
48339,0.03
48341,0.03
48343,0.03
48345,0.03
48347,0.03
48349,0.03
48351,0.03
48353,0.03
48355,0.03
48357,0.03
48359,0.03
48361,0.03
48363,0.03
48365,0.03
48367,0.03
48369,0.03
48371,0.03
48373,0.03
48375,0.03
48377,0.03
48379,0.03
48381,0.03
48383,0.03
48385,0.03
48387,0.03
48389,0.03
48391,0.03
48393,0.03
48395,0.03
48397,0.03
48399,0.03
48401,0.03
48403,0.03
48405,0.03
48407,0.03
48409,0.03
48411,0.03
48413,0.03
48415,0.03
48417,0.03
48419,0.03
48421,0.03
48423,0.03
48425,0.03
48427,0.03
48429,0.03
48431,0.03
48433,0.03
48435,0.03
48437,0.03
48439,0.03
48441,0.03
48443,0.03
48445,0.03
48447,0.03
48449,0.03
48451,0.03
48453,0.03
48455,0.03
48457,0.03
48459,0.03
48461,0.03
48463,0.03
48465,0.03
48467,0.03
48469,0.03
48471,0.03
48473,0.03
48475,0.03
48477,0.03
48479,0.03
48481,0.03
48483,0.03
48485,0.03
48487,0.03
48489,0.03
48491,0.03
48493,0.03
48495,0.03
48497,0.03
48499,0.03
48501,0.03
48503,0.03
48505,0.03
48507,0.03
49001,0.03
49003,0.03
49005,0.03
49007,0.03
49009,0.03
49011,0.03
49013,0.03
49015,0.03
49017,0.03
49019,0.03
49021,0.03
49023,0.03
49025,0.03
49027,0.03
49029,0.03
49031,0.03
49033,0.03
49035,0.03
49037,0.03
49039,0.03
49041,0.03
49043,0.03
49045,0.03
49047,0.03
49049,0.03
49051,0.03
49053,0.03
49055,0.03
49057,0.03
50001,0.03
50003,0.03
50005,0.03
50007,0.03
50009,0.03
50011,0.03
50013,0.03
50015,0.03
50017,0.03
50019,0.03
50021,0.03
50023,0.03
50025,0.03
50027,0.03
51001,0.03
51003,0.03
51005,0.03
51007,0.03
51009,0.03
51011,0.03
51013,0.03
51015,0.03
51017,0.03
51019,0.03
51021,0.03
51023,0.03
51025,0.03
51027,0.03
51029,0.03
51031,0.03
51033,0.03
51035,0.03
51036,0.03
51037,0.03
51041,0.03
51043,0.03
51045,0.03
51047,0.03
51049,0.03
51051,0.03
51053,0.03
51057,0.03
51059,0.03
51061,0.03
51063,0.03
51065,0.03
51067,0.03
51069,0.03
51071,0.03
51073,0.03
51075,0.03
51077,0.03
51079,0.03
51081,0.03
51083,0.03
51085,0.03
51087,0.03
51089,0.03
51091,0.03
51093,0.03
51095,0.03
51097,0.03
51099,0.03
51101,0.03
51103,0.03
51105,0.03
51107,0.03
51109,0.03
51111,0.03
51113,0.03
51115,0.03
51117,0.03
51119,0.03
51121,0.03
51125,0.03
51127,0.03
51131,0.03
51133,0.03
51135,0.03
51137,0.03
51139,0.03
51141,0.03
51143,0.03
51145,0.03
51147,0.03
51149,0.03
51153,0.03
51155,0.03
51157,0.03
51159,0.03
51161,0.03
51163,0.03
51165,0.03
51167,0.03
51169,0.03
51171,0.03
51173,0.03
51175,0.03
51177,0.03
51179,0.03
51181,0.03
51183,0.03
51185,0.03
51187,0.03
51191,0.03
51193,0.03
51195,0.03
51197,0.03
51199,0.03
51510,0.03
51515,0.03
51520,0.03
51530,0.03
51540,0.03
51550,0.03
51570,0.03
51580,0.03
51590,0.03
51595,0.03
51600,0.03
51610,0.03
51620,0.03
51630,0.03
51640,0.03
51650,0.03
51660,0.03
51670,0.03
51678,0.03
51680,0.03
51683,0.03
51685,0.03
51690,0.03
51700,0.03
51710,0.03
51720,0.03
51730,0.03
51735,0.03
51740,0.03
51750,0.03
51760,0.03
51770,0.03
51775,0.03
51790,0.03
51800,0.03
51810,0.03
51820,0.03
51830,0.03
51840,0.03
53001,0.03
53003,0.03
53005,0.03
53007,0.03
53009,0.03
53011,0.03
53013,0.03
53015,0.03
53017,0.03
53019,0.03
53021,0.03
53023,0.03
53025,0.03
53027,0.03
53029,0.03
53031,0.03
53033,0.03
53035,0.03
53037,0.03
53039,0.03
53041,0.03
53043,0.03
53045,0.03
53047,0.03
53049,0.03
53051,0.03
53053,0.03
53055,0.03
53057,0.03
53059,0.03
53061,0.03
53063,0.03
53065,0.03
53067,0.03
53069,0.03
53071,0.03
53073,0.03
53075,0.03
53077,0.03
54001,0.03
54003,0.03
54005,0.03
54007,0.03
54009,0.03
54011,0.03
54013,0.03
54015,0.03
54017,0.03
54019,0.03
54021,0.03
54023,0.03
54025,0.03
54027,0.03
54029,0.03
54031,0.03
54033,0.03
54035,0.03
54037,0.03
54039,0.03
54041,0.03
54043,0.03
54045,0.03
54047,0.03
54049,0.03
54051,0.03
54053,0.03
54055,0.03
54057,0.03
54059,0.03
54061,0.03
54063,0.03
54065,0.03
54067,0.03
54069,0.03
54071,0.03
54073,0.03
54075,0.03
54077,0.03
54079,0.03
54081,0.03
54083,0.03
54085,0.03
54087,0.03
54089,0.03
54091,0.03
54093,0.03
54095,0.03
54097,0.03
54099,0.03
54101,0.03
54103,0.03
54105,0.03
54107,0.03
54109,0.03
55001,0.03
55003,0.03
55005,0.03
55007,0.03
55009,0.03
55011,0.03
55013,0.03
55015,0.03
55017,0.03
55019,0.03
55021,0.03
55023,0.03
55025,0.03
55027,0.03
55029,0.03
55031,0.03
55033,0.03
55035,0.03
55037,0.03
55039,0.03
55041,0.03
55043,0.03
55045,0.03
55047,0.03
55049,0.03
55051,0.03
55053,0.03
55055,0.03
55057,0.03
55059,0.03
55061,0.03
55063,0.03
55065,0.03
55067,0.03
55069,0.03
55071,0.03
55073,0.03
55075,0.03
55077,0.03
55078,0.03
55079,0.03
55081,0.03
55083,0.03
55085,0.03
55087,0.03
55089,0.03
55091,0.03
55093,0.03
55095,0.03
55097,0.03
55099,0.03
55101,0.03
55103,0.03
55105,0.03
55107,0.03
55109,0.03
55111,0.03
55113,0.03
55115,0.03
55117,0.03
55119,0.03
55121,0.03
55123,0.03
55125,0.03
55127,0.03
55129,0.03
55131,0.03
55133,0.03
55135,0.03
55137,0.03
55139,0.03
55141,0.03
56001,0.03
56003,0.03
56005,0.03
56007,0.03
56009,0.03
56011,0.03
56013,0.03
56015,0.03
56017,0.03
56019,0.03
56021,0.03
56023,0.03
56025,0.03
56027,0.03
56029,0.03
56031,0.03
56033,0.03
56035,0.03
56037,0.03
56039,0.03
56041,0.03
56043,0.03
56045,0.03
