FIPS,0m,1m,2m,3m,4m,5m,6m,7m,8m,9m
1001,0,0,0,0,0,0,0,0,0,0
1003,1,1,1,1,1,1,1,1,1,1
1005,0,0,0,0,0,0,0,0,0,0
1007,0,0,0,0,0,0,0,0,0,0
1009,0,0,0,0,0,0,0,0,0,0
1011,0,0,0,0,0,0,0,0,0,0
1013,0,0,0,0,0,0,0,0,0,0
1015,0,0,0,0,0,0,0,0,0,0
1017,0,0,0,0,0,0,0,0,0,0
1019,0,0,0,0,0,0,0,0,0,0
1021,0,0,0,0,0,0,0,0,0,0
1023,0,0,0,0,0,0,0,0,0,0
1025,0,0,0,0,0,0,0,0,0,0
1027,0,0,0,0,0,0,0,0,0,0
1029,0,0,0,0,0,0,0,0,0,0
1031,0,0,0,0,0,0,0,0,0,0
1033,0,0,0,0,0,0,0,0,0,0
1035,0,0,0,0,0,0,0,0,0,0
1037,0,0,0,0,0,0,0,0,0,0
1039,0,0,0,0,0,0,0,0,0,0
1041,0,0,0,0,0,0,0,0,0,0
1043,0,0,0,0,0,0,0,0,0,0
1045,0,0,0,0,0,0,0,0,0,0
1047,0,0,0,0,0,0,0,0,0,0
1049,0,0,0,0,0,0,0,0,0,0
1051,0,0,0,0,0,0,0,0,0,0
1053,0,0,0,0,0,0,0,0,0,0
1055,0,0,0,0,0,0,0,0,0,0
1057,0,0,0,0,0,0,0,0,0,0
1059,0,0,0,0,0,0,0,0,0,0
1061,0,0,0,0,0,0,0,0,0,0
1063,0,0,0,0,0,0,0,0,0,0
1065,0,0,0,0,0,0,0,0,0,0
1067,0,0,0,0,0,0,0,0,0,0
1069,0,0,0,0,0,0,0,0,0,0
1071,0,0,0,0,0,0,0,0,0,0
1073,0,0,0,0,0,0,0,0,0,0
1075,0,0,0,0,0,0,0,0,0,0
1077,0,0,0,0,0,0,0,0,0,0
1079,0,0,0,0,0,0,0,0,0,0
1081,0,0,0,0,0,0,0,0,0,0
1083,0,0,0,0,0,0,0,0,0,0
1085,0,0,0,0,0,0,0,0,0,0
1087,0,0,0,0,0,0,0,0,0,0
1089,0,0,0,0,0,0,0,0,0,0
1091,0,0,0,0,0,0,0,0,0,0
1093,0,0,0,0,0,0,0,0,0,0
1095,0,0,0,0,0,0,0,0,0,0
1097,1,1,1,1,1,1,1,1,1,1
1099,0,0,0,0,0,0,0,0,0,0
1101,0,0,0,0,0,0,0,0,0,0
1103,0,0,0,0,0,0,0,0,0,0
1105,0,0,0,0,0,0,0,0,0,0
1107,0,0,0,0,0,0,0,0,0,0
1109,0,0,0,0,0,0,0,0,0,0
1111,0,0,0,0,0,0,0,0,0,0
1113,0,0,0,0,0,0,0,0,0,0
1115,0,0,0,0,0,0,0,0,0,0
1117,0,0,0,0,0,0,0,0,0,0
1119,0,0,0,0,0,0,0,0,0,0
1121,0,0,0,0,0,0,0,0,0,0
1123,0,0,0,0,0,0,0,0,0,0
1125,0,0,0,0,0,0,0,0,0,0
1127,0,0,0,0,0,0,0,0,0,0
1129,0,0,0,0,0,0,0,0,0,0
1131,0,0,0,0,0,0,0,0,0,0
1133,0,0,0,0,0,0,0,0,0,0
2013,0,0,0,0,0,0,0,0,0,0
2016,0,0,0,0,0,0,0,0,0,0
2020,0,0,0,0,0,0,0,0,0,0
2050,0,0,0,0,0,0,0,0,0,0
2060,0,0,0,0,0,0,0,0,0,0
2068,0,0,0,0,0,0,0,0,0,0
2070,0,0,0,0,0,0,0,0,0,0
2090,0,0,0,0,0,0,0,0,0,0
2100,0,0,0,0,0,0,0,0,0,0
2105,0,0,0,0,0,0,0,0,0,0
2110,0,0,0,0,0,0,0,0,0,0
2122,0,0,0,0,0,0,0,0,0,0
2130,0,0,0,0,0,0,0,0,0,0
2150,0,0,0,0,0,0,0,0,0,0
2164,0,0,0,0,0,0,0,0,0,0
2170,0,0,0,0,0,0,0,0,0,0
2180,0,0,0,0,0,0,0,0,0,0
2185,0,0,0,0,0,0,0,0,0,0
2188,0,0,0,0,0,0,0,0,0,0
2195,0,0,0,0,0,0,0,0,0,0
2198,0,0,0,0,0,0,0,0,0,0
2220,0,0,0,0,0,0,0,0,0,0
2230,0,0,0,0,0,0,0,0,0,0
2240,0,0,0,0,0,0,0,0,0,0
2261,0,0,0,0,0,0,0,0,0,0
2270,0,0,0,0,0,0,0,0,0,0
2275,0,0,0,0,0,0,0,0,0,0
2282,0,0,0,0,0,0,0,0,0,0
2290,0,0,0,0,0,0,0,0,0,0
4001,0,0,0,0,0,0,0,0,0,0
4003,0,0,0,0,0,0,0,0,0,0
4005,0,0,0,0,0,0,0,0,0,0
4007,0,0,0,0,0,0,0,0,0,0
4009,0,0,0,0,0,0,0,0,0,0
4011,0,0,0,0,0,0,0,0,0,0
4012,0,0,0,0,0,0,0,0,0,0
4013,0,0,0,0,0,0,0,0,0,0
4015,0,0,0,0,0,0,0,0,0,0
4017,0,0,0,0,0,0,0,0,0,0
4019,0,0,0,0,0,0,0,0,0,0
4021,0,0,0,0,0,0,0,0,0,0
4023,0,0,0,0,0,0,0,0,0,0
4025,0,0,0,0,0,0,0,0,0,0
4027,0,0,0,0,0,0,0,0,0,0
5001,0,0,0,0,0,0,0,0,0,0
5003,0,0,0,0,0,0,0,0,0,0
5005,0,0,0,0,0,0,0,0,0,0
5007,0,0,0,0,0,0,0,0,0,0
5009,0,0,0,0,0,0,0,0,0,0
5011,0,0,0,0,0,0,0,0,0,0
5013,0,0,0,0,0,0,0,0,0,0
5015,0,0,0,0,0,0,0,0,0,0
5017,0,0,0,0,0,0,0,0,0,0
5019,0,0,0,0,0,0,0,0,0,0
5021,0,0,0,0,0,0,0,0,0,0
5023,0,0,0,0,0,0,0,0,0,0
5025,0,0,0,0,0,0,0,0,0,0
5027,0,0,0,0,0,0,0,0,0,0
5029,0,0,0,0,0,0,0,0,0,0
5031,0,0,0,0,0,0,0,0,0,0
5033,0,0,0,0,0,0,0,0,0,0
5035,0,0,0,0,0,0,0,0,0,0
5037,0,0,0,0,0,0,0,0,0,0
5039,0,0,0,0,0,0,0,0,0,0
5041,0,0,0,0,0,0,0,0,0,0
5043,0,0,0,0,0,0,0,0,0,0
5045,0,0,0,0,0,0,0,0,0,0
5047,0,0,0,0,0,0,0,0,0,0
5049,0,0,0,0,0,0,0,0,0,0
5051,0,0,0,0,0,0,0,0,0,0
5053,0,0,0,0,0,0,0,0,0,0
5055,0,0,0,0,0,0,0,0,0,0
5057,0,0,0,0,0,0,0,0,0,0
5059,0,0,0,0,0,0,0,0,0,0
5061,0,0,0,0,0,0,0,0,0,0
5063,0,0,0,0,0,0,0,0,0,0
5065,0,0,0,0,0,0,0,0,0,0
5067,0,0,0,0,0,0,0,0,0,0
5069,0,0,0,0,0,0,0,0,0,0
5071,0,0,0,0,0,0,0,0,0,0
5073,0,0,0,0,0,0,0,0,0,0
5075,0,0,0,0,0,0,0,0,0,0
5077,0,0,0,0,0,0,0,0,0,0
5079,0,0,0,0,0,0,0,0,0,0
5081,0,0,0,0,0,0,0,0,0,0
5083,0,0,0,0,0,0,0,0,0,0
5085,0,0,0,0,0,0,0,0,0,0
5087,0,0,0,0,0,0,0,0,0,0
5089,0,0,0,0,0,0,0,0,0,0
5091,0,0,0,0,0,0,0,0,0,0
5093,0,0,0,0,0,0,0,0,0,0
5095,0,0,0,0,0,0,0,0,0,0
5097,0,0,0,0,0,0,0,0,0,0
5099,0,0,0,0,0,0,0,0,0,0
5101,0,0,0,0,0,0,0,0,0,0
5103,0,0,0,0,0,0,0,0,0,0
5105,0,0,0,0,0,0,0,0,0,0
5107,0,0,0,0,0,0,0,0,0,0
5109,0,0,0,0,0,0,0,0,0,0
5111,0,0,0,0,0,0,0,0,0,0
5113,0,0,0,0,0,0,0,0,0,0
5115,0,0,0,0,0,0,0,0,0,0
5117,0,0,0,0,0,0,0,0,0,0
5119,0,0,0,0,0,0,0,0,0,0
5121,0,0,0,0,0,0,0,0,0,0
5123,0,0,0,0,0,0,0,0,0,0
5125,0,0,0,0,0,0,0,0,0,0
5127,0,0,0,0,0,0,0,0,0,0
5129,0,0,0,0,0,0,0,0,0,0
5131,0,0,0,0,0,0,0,0,0,0
5133,0,0,0,0,0,0,0,0,0,0
5135,0,0,0,0,0,0,0,0,0,0
5137,0,0,0,0,0,0,0,0,0,0
5139,0,0,0,0,0,0,0,0,0,0
5141,0,0,0,0,0,0,0,0,0,0
5143,0,0,0,0,0,0,0,0,0,0
5145,0,0,0,0,0,0,0,0,0,0
5147,0,0,0,0,0,0,0,0,0,0
5149,0,0,0,0,0,0,0,0,0,0
6001,1,1,1,1,1,1,1,1,1,1
6003,0,0,0,0,0,0,0,0,0,0
6005,0,0,0,0,0,0,0,0,0,0
6007,0,0,0,0,0,0,0,0,0,0
6009,0,0,0,0,0,0,0,0,0,0
6011,0,0,0,0,0,0,0,0,0,0
6013,1,1,1,1,1,1,1,1,1,1
6015,1,1,1,1,1,1,1,1,1,1
6017,0,0,0,0,0,0,0,0,0,0
6019,0,0,0,0,0,0,0,0,0,0
6021,0,0,0,0,0,0,0,0,0,0
6023,1,1,1,1,1,1,1,1,1,1
6025,0,0,0,0,0,0,0,0,0,0
6027,0,0,0,0,0,0,0,0,0,0
6029,0,0,0,0,0,0,0,0,0,0
6031,0,0,0,0,0,0,0,0,0,0
6033,0,0,0,0,0,0,0,0,0,0
6035,0,0,0,0,0,0,0,0,0,0
6037,1,1,1,1,1,1,1,1,1,1
6039,0,0,0,0,0,0,0,0,0,0
6041,1,1,1,1,1,1,1,1,1,1
6043,0,0,0,0,0,0,0,0,0,0
6045,1,1,1,1,1,1,1,1,1,1
6047,0,0,0,0,0,0,0,0,0,0
6049,0,0,0,0,0,0,0,0,0,0
6051,0,0,0,0,0,0,0,0,0,0
6053,1,1,1,1,1,1,1,1,1,1
6055,1,1,1,1,1,1,1,1,1,1
6057,0,0,0,0,0,0,0,0,0,0
6059,0,1,1,1,1,1,1,1,1,1
6061,0,0,0,0,0,0,0,0,0,0
6063,0,0,0,0,0,0,0,0,0,0
6065,0,0,0,0,0,0,0,0,0,0
6067,0,0,0,0,0,0,0,0,0,0
6069,0,0,0,0,0,0,0,0,0,0
6071,0,0,0,0,0,0,0,0,0,0
6073,1,1,1,1,1,1,1,1,1,1
6075,1,1,1,1,1,1,1,1,1,1
6077,0,0,0,0,0,0,0,0,0,0
6079,0,1,1,1,1,1,1,1,1,1
6081,1,1,1,1,1,1,1,1,1,1
6083,0,1,1,1,1,1,1,1,1,1
6085,1,1,1,1,1,1,1,1,1,1
6087,1,1,1,1,1,1,1,1,1,1
6089,0,0,0,0,0,0,0,0,0,0
6091,0,0,0,0,0,0,0,0,0,0
6093,0,0,0,0,0,0,0,0,0,0
6095,1,1,1,1,1,1,1,1,1,1
6097,1,1,1,1,1,1,1,1,1,1
6099,0,0,0,0,0,0,0,0,0,0
6101,0,0,0,0,0,0,0,0,0,0
6103,0,0,0,0,0,0,0,0,0,0
6105,0,0,0,0,0,0,0,0,0,0
6107,0,0,0,0,0,0,0,0,0,0
6109,0,0,0,0,0,0,0,0,0,0
6111,0,1,1,1,1,1,1,1,1,1
6113,0,0,0,0,0,0,0,0,0,0
6115,0,0,0,0,0,0,0,0,0,0
8001,0,0,0,0,0,0,0,0,0,0
8003,0,0,0,0,0,0,0,0,0,0
8005,0,0,0,0,0,0,0,0,0,0
8007,0,0,0,0,0,0,0,0,0,0
8009,0,0,0,0,0,0,0,0,0,0
8011,0,0,0,0,0,0,0,0,0,0
8013,0,0,0,0,0,0,0,0,0,0
8014,0,0,0,0,0,0,0,0,0,0
8015,0,0,0,0,0,0,0,0,0,0
8017,0,0,0,0,0,0,0,0,0,0
8019,0,0,0,0,0,0,0,0,0,0
8021,0,0,0,0,0,0,0,0,0,0
8023,0,0,0,0,0,0,0,0,0,0
8025,0,0,0,0,0,0,0,0,0,0
8027,0,0,0,0,0,0,0,0,0,0
8029,0,0,0,0,0,0,0,0,0,0
8031,0,0,0,0,0,0,0,0,0,0
8033,0,0,0,0,0,0,0,0,0,0
8035,0,0,0,0,0,0,0,0,0,0
8037,0,0,0,0,0,0,0,0,0,0
8039,0,0,0,0,0,0,0,0,0,0
8041,0,0,0,0,0,0,0,0,0,0
8043,0,0,0,0,0,0,0,0,0,0
8045,0,0,0,0,0,0,0,0,0,0
8047,0,0,0,0,0,0,0,0,0,0
8049,0,0,0,0,0,0,0,0,0,0
8051,0,0,0,0,0,0,0,0,0,0
8053,0,0,0,0,0,0,0,0,0,0
8055,0,0,0,0,0,0,0,0,0,0
8057,0,0,0,0,0,0,0,0,0,0
8059,0,0,0,0,0,0,0,0,0,0
8061,0,0,0,0,0,0,0,0,0,0
8063,0,0,0,0,0,0,0,0,0,0
8065,0,0,0,0,0,0,0,0,0,0
8067,0,0,0,0,0,0,0,0,0,0
8069,0,0,0,0,0,0,0,0,0,0
8071,0,0,0,0,0,0,0,0,0,0
8073,0,0,0,0,0,0,0,0,0,0
8075,0,0,0,0,0,0,0,0,0,0
8077,0,0,0,0,0,0,0,0,0,0
8079,0,0,0,0,0,0,0,0,0,0
8081,0,0,0,0,0,0,0,0,0,0
8083,0,0,0,0,0,0,0,0,0,0
8085,0,0,0,0,0,0,0,0,0,0
8087,0,0,0,0,0,0,0,0,0,0
8089,0,0,0,0,0,0,0,0,0,0
8091,0,0,0,0,0,0,0,0,0,0
8093,0,0,0,0,0,0,0,0,0,0
8095,0,0,0,0,0,0,0,0,0,0
8097,0,0,0,0,0,0,0,0,0,0
8099,0,0,0,0,0,0,0,0,0,0
8101,0,0,0,0,0,0,0,0,0,0
8103,0,0,0,0,0,0,0,0,0,0
8105,0,0,0,0,0,0,0,0,0,0
8107,0,0,0,0,0,0,0,0,0,0
8109,0,0,0,0,0,0,0,0,0,0
8111,0,0,0,0,0,0,0,0,0,0
8113,0,0,0,0,0,0,0,0,0,0
8115,0,0,0,0,0,0,0,0,0,0
8117,0,0,0,0,0,0,0,0,0,0
8119,0,0,0,0,0,0,0,0,0,0
8121,0,0,0,0,0,0,0,0,0,0
8123,0,0,0,0,0,0,0,0,0,0
8125,0,0,0,0,0,0,0,0,0,0
9001,1,1,1,1,1,1,1,1,1,1
9003,0,0,0,0,0,0,0,0,0,0
9005,0,0,0,0,0,0,0,0,0,0
9007,1,1,1,1,1,1,1,1,1,1
9009,1,1,1,1,1,1,1,1,1,1
9011,1,1,1,1,1,1,1,1,1,1
9013,0,0,0,0,0,0,0,0,0,0
9015,0,0,0,0,0,0,0,0,0,0
10001,1,1,1,1,1,1,1,1,1,1
10003,1,1,1,1,1,1,1,1,1,1
10005,1,1,1,1,1,1,1,1,1,1
11001,0,0,0,0,1,1,1,1,1,1
12001,0,0,0,0,0,0,0,0,0,0
12003,0,0,0,0,0,0,0,0,0,0
12005,1,1,1,1,1,1,1,1,1,1
12007,0,0,0,0,0,0,0,0,0,0
12009,1,1,1,1,1,1,1,1,1,1
12011,0,0,0,1,1,1,1,1,1,1
12013,0,0,0,0,0,0,0,0,0,0
12015,1,1,1,1,1,1,1,1,1,1
12017,1,1,1,1,1,1,1,1,1,1
12019,0,0,0,0,1,1,1,1,1,1
12021,1,1,1,1,1,1,1,1,1,1
12023,0,0,0,0,0,0,0,0,0,1
12027,0,0,1,1,1,1,1,1,1,1
12029,1,1,1,1,1,1,1,1,1,1
12031,1,1,1,1,1,1,1,1,1,1
12033,1,1,1,1,1,1,1,1,1,1
12035,0,1,1,1,1,1,1,1,1,1
12037,1,1,1,1,1,1,1,1,1,1
12039,0,0,0,0,0,0,0,0,0,0
12041,0,0,0,0,0,0,0,0,0,1
12043,0,0,0,0,0,0,1,1,1,1
12045,1,1,1,1,1,1,1,1,1,1
12047,0,0,0,0,0,0,0,0,0,0
12049,0,0,0,0,0,0,0,0,0,0
12051,0,0,0,0,0,0,1,1,1,1
12053,1,1,1,1,1,1,1,1,1,1
12055,0,0,0,0,0,0,0,0,0,1
12057,1,1,1,1,1,1,1,1,1,1
12059,0,0,0,0,0,0,0,0,0,0
12061,1,1,1,1,1,1,1,1,1,1
12063,0,0,0,0,0,0,0,0,0,0
12065,0,1,1,1,1,1,1,1,1,1
12067,0,0,0,0,0,0,0,0,0,1
12069,0,0,0,0,0,0,0,0,0,1
12071,1,1,1,1,1,1,1,1,1,1
12073,0,0,0,0,0,0,0,0,0,0
12075,1,1,1,1,1,1,1,1,1,1
12077,0,0,0,0,0,0,0,0,0,1
12079,0,0,0,0,0,0,0,0,0,0
12081,1,1,1,1,1,1,1,1,1,1
12083,0,0,0,0,0,0,0,0,0,0
12085,0,1,1,1,1,1,1,1,1,1
12086,1,1,1,1,1,1,1,1,1,1
12087,1,1,1,1,1,1,1,1,1,1
12089,1,1,1,1,1,1,1,1,1,1
12091,1,1,1,1,1,1,1,1,1,1
12093,0,0,0,0,0,0,1,1,1,1
12095,0,0,0,0,0,0,0,0,0,1
12097,0,0,0,0,0,0,0,0,0,1
12099,0,1,1,1,1,1,1,1,1,1
12101,1,1,1,1,1,1,1,1,1,1
12103,1,1,1,1,1,1,1,1,1,1
12105,0,0,0,0,0,0,0,0,0,0
12107,0,0,0,0,1,1,1,1,1,1
12109,1,1,1,1,1,1,1,1,1,1
12111,0,1,1,1,1,1,1,1,1,1
12113,1,1,1,1,1,1,1,1,1,1
12115,0,1,1,1,1,1,1,1,1,1
12117,0,0,0,0,0,0,0,0,0,1
12119,0,0,0,0,0,0,0,0,0,0
12121,0,0,0,0,0,0,0,0,0,1
12123,1,1,1,1,1,1,1,1,1,1
12125,0,0,0,0,0,0,0,0,0,0
12127,1,1,1,1,1,1,1,1,1,1
12129,1,1,1,1,1,1,1,1,1,1
12131,0,1,1,1,1,1,1,1,1,1
12133,0,0,0,0,0,0,0,0,0,0
13001,0,0,0,0,0,0,0,0,0,0
13003,0,0,0,0,0,0,0,0,0,0
13005,0,0,0,0,0,0,0,0,0,0
13007,0,0,0,0,0,0,0,0,0,0
13009,0,0,0,0,0,0,0,0,0,0
13011,0,0,0,0,0,0,0,0,0,0
13013,0,0,0,0,0,0,0,0,0,0
13015,0,0,0,0,0,0,0,0,0,0
13017,0,0,0,0,0,0,0,0,0,0
13019,0,0,0,0,0,0,0,0,0,0
13021,0,0,0,0,0,0,0,0,0,0
13023,0,0,0,0,0,0,0,0,0,0
13025,0,0,0,0,0,0,0,0,0,0
13027,0,0,0,0,0,0,0,0,0,0
13029,1,1,1,1,1,1,1,1,1,1
13031,0,0,0,0,0,0,0,0,0,0
13033,0,0,0,0,0,0,0,0,0,0
13035,0,0,0,0,0,0,0,0,0,0
13037,0,0,0,0,0,0,0,0,0,0
13039,1,1,1,1,1,1,1,1,1,1
13043,0,0,0,0,0,0,0,0,0,0
13045,0,0,0,0,0,0,0,0,0,0
13047,0,0,0,0,0,0,0,0,0,0
13049,0,0,0,0,0,0,0,0,0,1
13051,1,1,1,1,1,1,1,1,1,1
13053,0,0,0,0,0,0,0,0,0,0
13055,0,0,0,0,0,0,0,0,0,0
13057,0,0,0,0,0,0,0,0,0,0
13059,0,0,0,0,0,0,0,0,0,0
13061,0,0,0,0,0,0,0,0,0,0
13063,0,0,0,0,0,0,0,0,0,0
13065,0,0,0,0,0,0,0,0,0,0
13067,0,0,0,0,0,0,0,0,0,0
13069,0,0,0,0,0,0,0,0,0,0
13071,0,0,0,0,0,0,0,0,0,0
13073,0,0,0,0,0,0,0,0,0,0
13075,0,0,0,0,0,0,0,0,0,0
13077,0,0,0,0,0,0,0,0,0,0
13079,0,0,0,0,0,0,0,0,0,0
13081,0,0,0,0,0,0,0,0,0,0
13083,0,0,0,0,0,0,0,0,0,0
13085,0,0,0,0,0,0,0,0,0,0
13087,0,0,0,0,0,0,0,0,0,0
13089,0,0,0,0,0,0,0,0,0,0
13091,0,0,0,0,0,0,0,0,0,0
13093,0,0,0,0,0,0,0,0,0,0
13095,0,0,0,0,0,0,0,0,0,0
13097,0,0,0,0,0,0,0,0,0,0
13099,0,0,0,0,0,0,0,0,0,0
13101,0,0,0,0,0,0,0,0,0,0
13103,0,0,0,0,0,0,1,1,1,1
13105,0,0,0,0,0,0,0,0,0,0
13107,0,0,0,0,0,0,0,0,0,0
13109,0,0,0,0,0,0,0,0,0,0
13111,0,0,0,0,0,0,0,0,0,0
13113,0,0,0,0,0,0,0,0,0,0
13115,0,0,0,0,0,0,0,0,0,0
13117,0,0,0,0,0,0,0,0,0,0
13119,0,0,0,0,0,0,0,0,0,0
13121,0,0,0,0,0,0,0,0,0,0
13123,0,0,0,0,0,0,0,0,0,0
13125,0,0,0,0,0,0,0,0,0,0
13127,1,1,1,1,1,1,1,1,1,1
13129,0,0,0,0,0,0,0,0,0,0
13131,0,0,0,0,0,0,0,0,0,0
13133,0,0,0,0,0,0,0,0,0,0
13135,0,0,0,0,0,0,0,0,0,0
13137,0,0,0,0,0,0,0,0,0,0
13139,0,0,0,0,0,0,0,0,0,0
13141,0,0,0,0,0,0,0,0,0,0
13143,0,0,0,0,0,0,0,0,0,0
13145,0,0,0,0,0,0,0,0,0,0
13147,0,0,0,0,0,0,0,0,0,0
13149,0,0,0,0,0,0,0,0,0,0
13151,0,0,0,0,0,0,0,0,0,0
13153,0,0,0,0,0,0,0,0,0,0
13155,0,0,0,0,0,0,0,0,0,0
13157,0,0,0,0,0,0,0,0,0,0
13159,0,0,0,0,0,0,0,0,0,0
13161,0,0,0,0,0,0,0,0,0,0
13163,0,0,0,0,0,0,0,0,0,0
13165,0,0,0,0,0,0,0,0,0,0
13167,0,0,0,0,0,0,0,0,0,0
13169,0,0,0,0,0,0,0,0,0,0
13171,0,0,0,0,0,0,0,0,0,0
13173,0,0,0,0,0,0,0,0,0,0
13175,0,0,0,0,0,0,0,0,0,0
13177,0,0,0,0,0,0,0,0,0,0
13179,1,1,1,1,1,1,1,1,1,1
13181,0,0,0,0,0,0,0,0,0,0
13183,0,0,0,0,0,0,0,0,0,0
13185,0,0,0,0,0,0,0,0,0,0
13187,0,0,0,0,0,0,0,0,0,0
13189,0,0,0,0,0,0,0,0,0,0
13191,1,1,1,1,1,1,1,1,1,1
13193,0,0,0,0,0,0,0,0,0,0
13195,0,0,0,0,0,0,0,0,0,0
13197,0,0,0,0,0,0,0,0,0,0
13199,0,0,0,0,0,0,0,0,0,0
13201,0,0,0,0,0,0,0,0,0,0
13205,0,0,0,0,0,0,0,0,0,0
13207,0,0,0,0,0,0,0,0,0,0
13209,0,0,0,0,0,0,0,0,0,0
13211,0,0,0,0,0,0,0,0,0,0
13213,0,0,0,0,0,0,0,0,0,0
13215,0,0,0,0,0,0,0,0,0,0
13217,0,0,0,0,0,0,0,0,0,0
13219,0,0,0,0,0,0,0,0,0,0
13221,0,0,0,0,0,0,0,0,0,0
13223,0,0,0,0,0,0,0,0,0,0
13225,0,0,0,0,0,0,0,0,0,0
13227,0,0,0,0,0,0,0,0,0,0
13229,0,0,0,0,0,0,0,0,0,0
13231,0,0,0,0,0,0,0,0,0,0
13233,0,0,0,0,0,0,0,0,0,0
13235,0,0,0,0,0,0,0,0,0,0
13237,0,0,0,0,0,0,0,0,0,0
13239,0,0,0,0,0,0,0,0,0,0
13241,0,0,0,0,0,0,0,0,0,0
13243,0,0,0,0,0,0,0,0,0,0
13245,0,0,0,0,0,0,0,0,0,0
13247,0,0,0,0,0,0,0,0,0,0
13249,0,0,0,0,0,0,0,0,0,0
13251,0,0,0,0,0,0,0,0,0,0
13253,0,0,0,0,0,0,0,0,0,0
13255,0,0,0,0,0,0,0,0,0,0
13257,0,0,0,0,0,0,0,0,0,0
13259,0,0,0,0,0,0,0,0,0,0
13261,0,0,0,0,0,0,0,0,0,0
13263,0,0,0,0,0,0,0,0,0,0
13265,0,0,0,0,0,0,0,0,0,0
13267,0,0,0,0,0,0,0,0,0,0
13269,0,0,0,0,0,0,0,0,0,0
13271,0,0,0,0,0,0,0,0,0,0
13273,0,0,0,0,0,0,0,0,0,0
13275,0,0,0,0,0,0,0,0,0,0
13277,0,0,0,0,0,0,0,0,0,0
13279,0,0,0,0,0,0,0,0,0,0
13281,0,0,0,0,0,0,0,0,0,0
13283,0,0,0,0,0,0,0,0,0,0
13285,0,0,0,0,0,0,0,0,0,0
13287,0,0,0,0,0,0,0,0,0,0
13289,0,0,0,0,0,0,0,0,0,0
13291,0,0,0,0,0,0,0,0,0,0
13293,0,0,0,0,0,0,0,0,0,0
13295,0,0,0,0,0,0,0,0,0,0
13297,0,0,0,0,0,0,0,0,0,0
13299,0,0,0,0,0,0,0,0,0,0
13301,0,0,0,0,0,0,0,0,0,0
13303,0,0,0,0,0,0,0,0,0,0
13305,0,0,0,0,0,0,0,0,0,0
13307,0,0,0,0,0,0,0,0,0,0
13309,0,0,0,0,0,0,0,0,0,0
13311,0,0,0,0,0,0,0,0,0,0
13313,0,0,0,0,0,0,0,0,0,0
13315,0,0,0,0,0,0,0,0,0,0
13317,0,0,0,0,0,0,0,0,0,0
13319,0,0,0,0,0,0,0,0,0,0
13321,0,0,0,0,0,0,0,0,0,0
15001,0,0,0,0,0,0,0,0,0,0
15003,0,0,0,0,0,0,0,0,0,0
15005,0,0,0,0,0,0,0,0,0,0
15007,0,0,0,0,0,0,0,0,0,0
15009,0,0,0,0,0,0,0,0,0,0
16001,0,0,0,0,0,0,0,0,0,0
16003,0,0,0,0,0,0,0,0,0,0
16005,0,0,0,0,0,0,0,0,0,0
16007,0,0,0,0,0,0,0,0,0,0
16009,0,0,0,0,0,0,0,0,0,0
16011,0,0,0,0,0,0,0,0,0,0
16013,0,0,0,0,0,0,0,0,0,0
16015,0,0,0,0,0,0,0,0,0,0
16017,0,0,0,0,0,0,0,0,0,0
16019,0,0,0,0,0,0,0,0,0,0
16021,0,0,0,0,0,0,0,0,0,0
16023,0,0,0,0,0,0,0,0,0,0
16025,0,0,0,0,0,0,0,0,0,0
16027,0,0,0,0,0,0,0,0,0,0
16029,0,0,0,0,0,0,0,0,0,0
16031,0,0,0,0,0,0,0,0,0,0
16033,0,0,0,0,0,0,0,0,0,0
16035,0,0,0,0,0,0,0,0,0,0
16037,0,0,0,0,0,0,0,0,0,0
16039,0,0,0,0,0,0,0,0,0,0
16041,0,0,0,0,0,0,0,0,0,0
16043,0,0,0,0,0,0,0,0,0,0
16045,0,0,0,0,0,0,0,0,0,0
16047,0,0,0,0,0,0,0,0,0,0
16049,0,0,0,0,0,0,0,0,0,0
16051,0,0,0,0,0,0,0,0,0,0
16053,0,0,0,0,0,0,0,0,0,0
16055,0,0,0,0,0,0,0,0,0,0
16057,0,0,0,0,0,0,0,0,0,0
16059,0,0,0,0,0,0,0,0,0,0
16061,0,0,0,0,0,0,0,0,0,0
16063,0,0,0,0,0,0,0,0,0,0
16065,0,0,0,0,0,0,0,0,0,0
16067,0,0,0,0,0,0,0,0,0,0
16069,0,0,0,0,0,0,0,0,0,0
16071,0,0,0,0,0,0,0,0,0,0
16073,0,0,0,0,0,0,0,0,0,0
16075,0,0,0,0,0,0,0,0,0,0
16077,0,0,0,0,0,0,0,0,0,0
16079,0,0,0,0,0,0,0,0,0,0
16081,0,0,0,0,0,0,0,0,0,0
16083,0,0,0,0,0,0,0,0,0,0
16085,0,0,0,0,0,0,0,0,0,0
16087,0,0,0,0,0,0,0,0,0,0
17001,0,0,0,0,0,0,0,0,0,0
17003,0,0,0,0,0,0,0,0,0,0
17005,0,0,0,0,0,0,0,0,0,0
17007,0,0,0,0,0,0,0,0,0,0
17009,0,0,0,0,0,0,0,0,0,0
17011,0,0,0,0,0,0,0,0,0,0
17013,0,0,0,0,0,0,0,0,0,0
17015,0,0,0,0,0,0,0,0,0,0
17017,0,0,0,0,0,0,0,0,0,0
17019,0,0,0,0,0,0,0,0,0,0
17021,0,0,0,0,0,0,0,0,0,0
17023,0,0,0,0,0,0,0,0,0,0
17025,0,0,0,0,0,0,0,0,0,0
17027,0,0,0,0,0,0,0,0,0,0
17029,0,0,0,0,0,0,0,0,0,0
17031,0,0,0,0,0,0,0,0,0,0
17033,0,0,0,0,0,0,0,0,0,0
17035,0,0,0,0,0,0,0,0,0,0
17037,0,0,0,0,0,0,0,0,0,0
17039,0,0,0,0,0,0,0,0,0,0
17041,0,0,0,0,0,0,0,0,0,0
17043,0,0,0,0,0,0,0,0,0,0
17045,0,0,0,0,0,0,0,0,0,0
17047,0,0,0,0,0,0,0,0,0,0
17049,0,0,0,0,0,0,0,0,0,0
17051,0,0,0,0,0,0,0,0,0,0
17053,0,0,0,0,0,0,0,0,0,0
17055,0,0,0,0,0,0,0,0,0,0
17057,0,0,0,0,0,0,0,0,0,0
17059,0,0,0,0,0,0,0,0,0,0
17061,0,0,0,0,0,0,0,0,0,0
17063,0,0,0,0,0,0,0,0,0,0
17065,0,0,0,0,0,0,0,0,0,0
17067,0,0,0,0,0,0,0,0,0,0
17069,0,0,0,0,0,0,0,0,0,0
17071,0,0,0,0,0,0,0,0,0,0
17073,0,0,0,0,0,0,0,0,0,0
17075,0,0,0,0,0,0,0,0,0,0
17077,0,0,0,0,0,0,0,0,0,0
17079,0,0,0,0,0,0,0,0,0,0
17081,0,0,0,0,0,0,0,0,0,0
17083,0,0,0,0,0,0,0,0,0,0
17085,0,0,0,0,0,0,0,0,0,0
17087,0,0,0,0,0,0,0,0,0,0
17089,0,0,0,0,0,0,0,0,0,0
17091,0,0,0,0,0,0,0,0,0,0
17093,0,0,0,0,0,0,0,0,0,0
17095,0,0,0,0,0,0,0,0,0,0
17097,0,0,0,0,0,0,0,0,0,0
17099,0,0,0,0,0,0,0,0,0,0
17101,0,0,0,0,0,0,0,0,0,0
17103,0,0,0,0,0,0,0,0,0,0
17105,0,0,0,0,0,0,0,0,0,0
17107,0,0,0,0,0,0,0,0,0,0
17109,0,0,0,0,0,0,0,0,0,0
17111,0,0,0,0,0,0,0,0,0,0
17113,0,0,0,0,0,0,0,0,0,0
17115,0,0,0,0,0,0,0,0,0,0
17117,0,0,0,0,0,0,0,0,0,0
17119,0,0,0,0,0,0,0,0,0,0
17121,0,0,0,0,0,0,0,0,0,0
17123,0,0,0,0,0,0,0,0,0,0
17125,0,0,0,0,0,0,0,0,0,0
17127,0,0,0,0,0,0,0,0,0,0
17129,0,0,0,0,0,0,0,0,0,0
17131,0,0,0,0,0,0,0,0,0,0
17133,0,0,0,0,0,0,0,0,0,0
17135,0,0,0,0,0,0,0,0,0,0
17137,0,0,0,0,0,0,0,0,0,0
17139,0,0,0,0,0,0,0,0,0,0
17141,0,0,0,0,0,0,0,0,0,0
17143,0,0,0,0,0,0,0,0,0,0
17145,0,0,0,0,0,0,0,0,0,0
17147,0,0,0,0,0,0,0,0,0,0
17149,0,0,0,0,0,0,0,0,0,0
17151,0,0,0,0,0,0,0,0,0,0
17153,0,0,0,0,0,0,0,0,0,0
17155,0,0,0,0,0,0,0,0,0,0
17157,0,0,0,0,0,0,0,0,0,0
17159,0,0,0,0,0,0,0,0,0,0
17161,0,0,0,0,0,0,0,0,0,0
17163,0,0,0,0,0,0,0,0,0,0
17165,0,0,0,0,0,0,0,0,0,0
17167,0,0,0,0,0,0,0,0,0,0
17169,0,0,0,0,0,0,0,0,0,0
17171,0,0,0,0,0,0,0,0,0,0
17173,0,0,0,0,0,0,0,0,0,0
17175,0,0,0,0,0,0,0,0,0,0
17177,0,0,0,0,0,0,0,0,0,0
17179,0,0,0,0,0,0,0,0,0,0
17181,0,0,0,0,0,0,0,0,0,0
17183,0,0,0,0,0,0,0,0,0,0
17185,0,0,0,0,0,0,0,0,0,0
17187,0,0,0,0,0,0,0,0,0,0
17189,0,0,0,0,0,0,0,0,0,0
17191,0,0,0,0,0,0,0,0,0,0
17193,0,0,0,0,0,0,0,0,0,0
17195,0,0,0,0,0,0,0,0,0,0
17197,0,0,0,0,0,0,0,0,0,0
17199,0,0,0,0,0,0,0,0,0,0
17201,0,0,0,0,0,0,0,0,0,0
17203,0,0,0,0,0,0,0,0,0,0
18001,0,0,0,0,0,0,0,0,0,0
18003,0,0,0,0,0,0,0,0,0,0
18005,0,0,0,0,0,0,0,0,0,0
18007,0,0,0,0,0,0,0,0,0,0
18009,0,0,0,0,0,0,0,0,0,0
18011,0,0,0,0,0,0,0,0,0,0
18013,0,0,0,0,0,0,0,0,0,0
18015,0,0,0,0,0,0,0,0,0,0
18017,0,0,0,0,0,0,0,0,0,0
18019,0,0,0,0,0,0,0,0,0,0
18021,0,0,0,0,0,0,0,0,0,0
18023,0,0,0,0,0,0,0,0,0,0
18025,0,0,0,0,0,0,0,0,0,0
18027,0,0,0,0,0,0,0,0,0,0
18029,0,0,0,0,0,0,0,0,0,0
18031,0,0,0,0,0,0,0,0,0,0
18033,0,0,0,0,0,0,0,0,0,0
18035,0,0,0,0,0,0,0,0,0,0
18037,0,0,0,0,0,0,0,0,0,0
18039,0,0,0,0,0,0,0,0,0,0
18041,0,0,0,0,0,0,0,0,0,0
18043,0,0,0,0,0,0,0,0,0,0
18045,0,0,0,0,0,0,0,0,0,0
18047,0,0,0,0,0,0,0,0,0,0
18049,0,0,0,0,0,0,0,0,0,0
18051,0,0,0,0,0,0,0,0,0,0
18053,0,0,0,0,0,0,0,0,0,0
18055,0,0,0,0,0,0,0,0,0,0
18057,0,0,0,0,0,0,0,0,0,0
18059,0,0,0,0,0,0,0,0,0,0
18061,0,0,0,0,0,0,0,0,0,0
18063,0,0,0,0,0,0,0,0,0,0
18065,0,0,0,0,0,0,0,0,0,0
18067,0,0,0,0,0,0,0,0,0,0
18069,0,0,0,0,0,0,0,0,0,0
18071,0,0,0,0,0,0,0,0,0,0
18073,0,0,0,0,0,0,0,0,0,0
18075,0,0,0,0,0,0,0,0,0,0
18077,0,0,0,0,0,0,0,0,0,0
18079,0,0,0,0,0,0,0,0,0,0
18081,0,0,0,0,0,0,0,0,0,0
18083,0,0,0,0,0,0,0,0,0,0
18085,0,0,0,0,0,0,0,0,0,0
18087,0,0,0,0,0,0,0,0,0,0
18089,0,0,0,0,0,0,0,0,0,0
18091,0,0,0,0,0,0,0,0,0,0
18093,0,0,0,0,0,0,0,0,0,0
18095,0,0,0,0,0,0,0,0,0,0
18097,0,0,0,0,0,0,0,0,0,0
18099,0,0,0,0,0,0,0,0,0,0
18101,0,0,0,0,0,0,0,0,0,0
18103,0,0,0,0,0,0,0,0,0,0
18105,0,0,0,0,0,0,0,0,0,0
18107,0,0,0,0,0,0,0,0,0,0
18109,0,0,0,0,0,0,0,0,0,0
18111,0,0,0,0,0,0,0,0,0,0
18113,0,0,0,0,0,0,0,0,0,0
18115,0,0,0,0,0,0,0,0,0,0
18117,0,0,0,0,0,0,0,0,0,0
18119,0,0,0,0,0,0,0,0,0,0
18121,0,0,0,0,0,0,0,0,0,0
18123,0,0,0,0,0,0,0,0,0,0
18125,0,0,0,0,0,0,0,0,0,0
18127,0,0,0,0,0,0,0,0,0,0
18129,0,0,0,0,0,0,0,0,0,0
18131,0,0,0,0,0,0,0,0,0,0
18133,0,0,0,0,0,0,0,0,0,0
18135,0,0,0,0,0,0,0,0,0,0
18137,0,0,0,0,0,0,0,0,0,0
18139,0,0,0,0,0,0,0,0,0,0
18141,0,0,0,0,0,0,0,0,0,0
18143,0,0,0,0,0,0,0,0,0,0
18145,0,0,0,0,0,0,0,0,0,0
18147,0,0,0,0,0,0,0,0,0,0
18149,0,0,0,0,0,0,0,0,0,0
18151,0,0,0,0,0,0,0,0,0,0
18153,0,0,0,0,0,0,0,0,0,0
18155,0,0,0,0,0,0,0,0,0,0
18157,0,0,0,0,0,0,0,0,0,0
18159,0,0,0,0,0,0,0,0,0,0
18161,0,0,0,0,0,0,0,0,0,0
18163,0,0,0,0,0,0,0,0,0,0
18165,0,0,0,0,0,0,0,0,0,0
18167,0,0,0,0,0,0,0,0,0,0
18169,0,0,0,0,0,0,0,0,0,0
18171,0,0,0,0,0,0,0,0,0,0
18173,0,0,0,0,0,0,0,0,0,0
18175,0,0,0,0,0,0,0,0,0,0
18177,0,0,0,0,0,0,0,0,0,0
18179,0,0,0,0,0,0,0,0,0,0
18181,0,0,0,0,0,0,0,0,0,0
18183,0,0,0,0,0,0,0,0,0,0
19001,0,0,0,0,0,0,0,0,0,0
19003,0,0,0,0,0,0,0,0,0,0
19005,0,0,0,0,0,0,0,0,0,0
19007,0,0,0,0,0,0,0,0,0,0
19009,0,0,0,0,0,0,0,0,0,0
19011,0,0,0,0,0,0,0,0,0,0
19013,0,0,0,0,0,0,0,0,0,0
19015,0,0,0,0,0,0,0,0,0,0
19017,0,0,0,0,0,0,0,0,0,0
19019,0,0,0,0,0,0,0,0,0,0
19021,0,0,0,0,0,0,0,0,0,0
19023,0,0,0,0,0,0,0,0,0,0
19025,0,0,0,0,0,0,0,0,0,0
19027,0,0,0,0,0,0,0,0,0,0
19029,0,0,0,0,0,0,0,0,0,0
19031,0,0,0,0,0,0,0,0,0,0
19033,0,0,0,0,0,0,0,0,0,0
19035,0,0,0,0,0,0,0,0,0,0
19037,0,0,0,0,0,0,0,0,0,0
19039,0,0,0,0,0,0,0,0,0,0
19041,0,0,0,0,0,0,0,0,0,0
19043,0,0,0,0,0,0,0,0,0,0
19045,0,0,0,0,0,0,0,0,0,0
19047,0,0,0,0,0,0,0,0,0,0
19049,0,0,0,0,0,0,0,0,0,0
19051,0,0,0,0,0,0,0,0,0,0
19053,0,0,0,0,0,0,0,0,0,0
19055,0,0,0,0,0,0,0,0,0,0
19057,0,0,0,0,0,0,0,0,0,0
19059,0,0,0,0,0,0,0,0,0,0
19061,0,0,0,0,0,0,0,0,0,0
19063,0,0,0,0,0,0,0,0,0,0
19065,0,0,0,0,0,0,0,0,0,0
19067,0,0,0,0,0,0,0,0,0,0
19069,0,0,0,0,0,0,0,0,0,0
19071,0,0,0,0,0,0,0,0,0,0
19073,0,0,0,0,0,0,0,0,0,0
19075,0,0,0,0,0,0,0,0,0,0
19077,0,0,0,0,0,0,0,0,0,0
19079,0,0,0,0,0,0,0,0,0,0
19081,0,0,0,0,0,0,0,0,0,0
19083,0,0,0,0,0,0,0,0,0,0
19085,0,0,0,0,0,0,0,0,0,0
19087,0,0,0,0,0,0,0,0,0,0
19089,0,0,0,0,0,0,0,0,0,0
19091,0,0,0,0,0,0,0,0,0,0
19093,0,0,0,0,0,0,0,0,0,0
19095,0,0,0,0,0,0,0,0,0,0
19097,0,0,0,0,0,0,0,0,0,0
19099,0,0,0,0,0,0,0,0,0,0
19101,0,0,0,0,0,0,0,0,0,0
19103,0,0,0,0,0,0,0,0,0,0
19105,0,0,0,0,0,0,0,0,0,0
19107,0,0,0,0,0,0,0,0,0,0
19109,0,0,0,0,0,0,0,0,0,0
19111,0,0,0,0,0,0,0,0,0,0
19113,0,0,0,0,0,0,0,0,0,0
19115,0,0,0,0,0,0,0,0,0,0
19117,0,0,0,0,0,0,0,0,0,0
19119,0,0,0,0,0,0,0,0,0,0
19121,0,0,0,0,0,0,0,0,0,0
19123,0,0,0,0,0,0,0,0,0,0
19125,0,0,0,0,0,0,0,0,0,0
19127,0,0,0,0,0,0,0,0,0,0
19129,0,0,0,0,0,0,0,0,0,0
19131,0,0,0,0,0,0,0,0,0,0
19133,0,0,0,0,0,0,0,0,0,0
19135,0,0,0,0,0,0,0,0,0,0
19137,0,0,0,0,0,0,0,0,0,0
19139,0,0,0,0,0,0,0,0,0,0
19141,0,0,0,0,0,0,0,0,0,0
19143,0,0,0,0,0,0,0,0,0,0
19145,0,0,0,0,0,0,0,0,0,0
19147,0,0,0,0,0,0,0,0,0,0
19149,0,0,0,0,0,0,0,0,0,0
19151,0,0,0,0,0,0,0,0,0,0
19153,0,0,0,0,0,0,0,0,0,0
19155,0,0,0,0,0,0,0,0,0,0
19157,0,0,0,0,0,0,0,0,0,0
19159,0,0,0,0,0,0,0,0,0,0
19161,0,0,0,0,0,0,0,0,0,0
19163,0,0,0,0,0,0,0,0,0,0
19165,0,0,0,0,0,0,0,0,0,0
19167,0,0,0,0,0,0,0,0,0,0
19169,0,0,0,0,0,0,0,0,0,0
19171,0,0,0,0,0,0,0,0,0,0
19173,0,0,0,0,0,0,0,0,0,0
19175,0,0,0,0,0,0,0,0,0,0
19177,0,0,0,0,0,0,0,0,0,0
19179,0,0,0,0,0,0,0,0,0,0
19181,0,0,0,0,0,0,0,0,0,0
19183,0,0,0,0,0,0,0,0,0,0
19185,0,0,0,0,0,0,0,0,0,0
19187,0,0,0,0,0,0,0,0,0,0
19189,0,0,0,0,0,0,0,0,0,0
19191,0,0,0,0,0,0,0,0,0,0
19193,0,0,0,0,0,0,0,0,0,0
19195,0,0,0,0,0,0,0,0,0,0
19197,0,0,0,0,0,0,0,0,0,0
20001,0,0,0,0,0,0,0,0,0,0
20003,0,0,0,0,0,0,0,0,0,0
20005,0,0,0,0,0,0,0,0,0,0
20007,0,0,0,0,0,0,0,0,0,0
20009,0,0,0,0,0,0,0,0,0,0
20011,0,0,0,0,0,0,0,0,0,0
20013,0,0,0,0,0,0,0,0,0,0
20015,0,0,0,0,0,0,0,0,0,0
20017,0,0,0,0,0,0,0,0,0,0
20019,0,0,0,0,0,0,0,0,0,0
20021,0,0,0,0,0,0,0,0,0,0
20023,0,0,0,0,0,0,0,0,0,0
20025,0,0,0,0,0,0,0,0,0,0
20027,0,0,0,0,0,0,0,0,0,0
20029,0,0,0,0,0,0,0,0,0,0
20031,0,0,0,0,0,0,0,0,0,0
20033,0,0,0,0,0,0,0,0,0,0
20035,0,0,0,0,0,0,0,0,0,0
20037,0,0,0,0,0,0,0,0,0,0
20039,0,0,0,0,0,0,0,0,0,0
20041,0,0,0,0,0,0,0,0,0,0
20043,0,0,0,0,0,0,0,0,0,0
20045,0,0,0,0,0,0,0,0,0,0
20047,0,0,0,0,0,0,0,0,0,0
20049,0,0,0,0,0,0,0,0,0,0
20051,0,0,0,0,0,0,0,0,0,0
20053,0,0,0,0,0,0,0,0,0,0
20055,0,0,0,0,0,0,0,0,0,0
20057,0,0,0,0,0,0,0,0,0,0
20059,0,0,0,0,0,0,0,0,0,0
20061,0,0,0,0,0,0,0,0,0,0
20063,0,0,0,0,0,0,0,0,0,0
20065,0,0,0,0,0,0,0,0,0,0
20067,0,0,0,0,0,0,0,0,0,0
20069,0,0,0,0,0,0,0,0,0,0
20071,0,0,0,0,0,0,0,0,0,0
20073,0,0,0,0,0,0,0,0,0,0
20075,0,0,0,0,0,0,0,0,0,0
20077,0,0,0,0,0,0,0,0,0,0
20079,0,0,0,0,0,0,0,0,0,0
20081,0,0,0,0,0,0,0,0,0,0
20083,0,0,0,0,0,0,0,0,0,0
20085,0,0,0,0,0,0,0,0,0,0
20087,0,0,0,0,0,0,0,0,0,0
20089,0,0,0,0,0,0,0,0,0,0
20091,0,0,0,0,0,0,0,0,0,0
20093,0,0,0,0,0,0,0,0,0,0
20095,0,0,0,0,0,0,0,0,0,0
20097,0,0,0,0,0,0,0,0,0,0
20099,0,0,0,0,0,0,0,0,0,0
20101,0,0,0,0,0,0,0,0,0,0
20103,0,0,0,0,0,0,0,0,0,0
20105,0,0,0,0,0,0,0,0,0,0
20107,0,0,0,0,0,0,0,0,0,0
20109,0,0,0,0,0,0,0,0,0,0
20111,0,0,0,0,0,0,0,0,0,0
20113,0,0,0,0,0,0,0,0,0,0
20115,0,0,0,0,0,0,0,0,0,0
20117,0,0,0,0,0,0,0,0,0,0
20119,0,0,0,0,0,0,0,0,0,0
20121,0,0,0,0,0,0,0,0,0,0
20123,0,0,0,0,0,0,0,0,0,0
20125,0,0,0,0,0,0,0,0,0,0
20127,0,0,0,0,0,0,0,0,0,0
20129,0,0,0,0,0,0,0,0,0,0
20131,0,0,0,0,0,0,0,0,0,0
20133,0,0,0,0,0,0,0,0,0,0
20135,0,0,0,0,0,0,0,0,0,0
20137,0,0,0,0,0,0,0,0,0,0
20139,0,0,0,0,0,0,0,0,0,0
20141,0,0,0,0,0,0,0,0,0,0
20143,0,0,0,0,0,0,0,0,0,0
20145,0,0,0,0,0,0,0,0,0,0
20147,0,0,0,0,0,0,0,0,0,0
20149,0,0,0,0,0,0,0,0,0,0
20151,0,0,0,0,0,0,0,0,0,0
20153,0,0,0,0,0,0,0,0,0,0
20155,0,0,0,0,0,0,0,0,0,0
20157,0,0,0,0,0,0,0,0,0,0
20159,0,0,0,0,0,0,0,0,0,0
20161,0,0,0,0,0,0,0,0,0,0
20163,0,0,0,0,0,0,0,0,0,0
20165,0,0,0,0,0,0,0,0,0,0
20167,0,0,0,0,0,0,0,0,0,0
20169,0,0,0,0,0,0,0,0,0,0
20171,0,0,0,0,0,0,0,0,0,0
20173,0,0,0,0,0,0,0,0,0,0
20175,0,0,0,0,0,0,0,0,0,0
20177,0,0,0,0,0,0,0,0,0,0
20179,0,0,0,0,0,0,0,0,0,0
20181,0,0,0,0,0,0,0,0,0,0
20183,0,0,0,0,0,0,0,0,0,0
20185,0,0,0,0,0,0,0,0,0,0
20187,0,0,0,0,0,0,0,0,0,0
20189,0,0,0,0,0,0,0,0,0,0
20191,0,0,0,0,0,0,0,0,0,0
20193,0,0,0,0,0,0,0,0,0,0
20195,0,0,0,0,0,0,0,0,0,0
20197,0,0,0,0,0,0,0,0,0,0
20199,0,0,0,0,0,0,0,0,0,0
20201,0,0,0,0,0,0,0,0,0,0
20203,0,0,0,0,0,0,0,0,0,0
20205,0,0,0,0,0,0,0,0,0,0
20207,0,0,0,0,0,0,0,0,0,0
20209,0,0,0,0,0,0,0,0,0,0
21001,0,0,0,0,0,0,0,0,0,0
21003,0,0,0,0,0,0,0,0,0,0
21005,0,0,0,0,0,0,0,0,0,0
21007,0,0,0,0,0,0,0,0,0,0
21009,0,0,0,0,0,0,0,0,0,0
21011,0,0,0,0,0,0,0,0,0,0
21013,0,0,0,0,0,0,0,0,0,0
21015,0,0,0,0,0,0,0,0,0,0
21017,0,0,0,0,0,0,0,0,0,0
21019,0,0,0,0,0,0,0,0,0,0
21021,0,0,0,0,0,0,0,0,0,0
21023,0,0,0,0,0,0,0,0,0,0
21025,0,0,0,0,0,0,0,0,0,0
21027,0,0,0,0,0,0,0,0,0,0
21029,0,0,0,0,0,0,0,0,0,0
21031,0,0,0,0,0,0,0,0,0,0
21033,0,0,0,0,0,0,0,0,0,0
21035,0,0,0,0,0,0,0,0,0,0
21037,0,0,0,0,0,0,0,0,0,0
21039,0,0,0,0,0,0,0,0,0,0
21041,0,0,0,0,0,0,0,0,0,0
21043,0,0,0,0,0,0,0,0,0,0
21045,0,0,0,0,0,0,0,0,0,0
21047,0,0,0,0,0,0,0,0,0,0
21049,0,0,0,0,0,0,0,0,0,0
21051,0,0,0,0,0,0,0,0,0,0
21053,0,0,0,0,0,0,0,0,0,0
21055,0,0,0,0,0,0,0,0,0,0
21057,0,0,0,0,0,0,0,0,0,0
21059,0,0,0,0,0,0,0,0,0,0
21061,0,0,0,0,0,0,0,0,0,0
21063,0,0,0,0,0,0,0,0,0,0
21065,0,0,0,0,0,0,0,0,0,0
21067,0,0,0,0,0,0,0,0,0,0
21069,0,0,0,0,0,0,0,0,0,0
21071,0,0,0,0,0,0,0,0,0,0
21073,0,0,0,0,0,0,0,0,0,0
21075,0,0,0,0,0,0,0,0,0,0
21077,0,0,0,0,0,0,0,0,0,0
21079,0,0,0,0,0,0,0,0,0,0
21081,0,0,0,0,0,0,0,0,0,0
21083,0,0,0,0,0,0,0,0,0,0
21085,0,0,0,0,0,0,0,0,0,0
21087,0,0,0,0,0,0,0,0,0,0
21089,0,0,0,0,0,0,0,0,0,0
21091,0,0,0,0,0,0,0,0,0,0
21093,0,0,0,0,0,0,0,0,0,0
21095,0,0,0,0,0,0,0,0,0,0
21097,0,0,0,0,0,0,0,0,0,0
21099,0,0,0,0,0,0,0,0,0,0
21101,0,0,0,0,0,0,0,0,0,0
21103,0,0,0,0,0,0,0,0,0,0
21105,0,0,0,0,0,0,0,0,0,0
21107,0,0,0,0,0,0,0,0,0,0
21109,0,0,0,0,0,0,0,0,0,0
21111,0,0,0,0,0,0,0,0,0,0
21113,0,0,0,0,0,0,0,0,0,0
21115,0,0,0,0,0,0,0,0,0,0
21117,0,0,0,0,0,0,0,0,0,0
21119,0,0,0,0,0,0,0,0,0,0
21121,0,0,0,0,0,0,0,0,0,0
21123,0,0,0,0,0,0,0,0,0,0
21125,0,0,0,0,0,0,0,0,0,0
21127,0,0,0,0,0,0,0,0,0,0
21129,0,0,0,0,0,0,0,0,0,0
21131,0,0,0,0,0,0,0,0,0,0
21133,0,0,0,0,0,0,0,0,0,0
21135,0,0,0,0,0,0,0,0,0,0
21137,0,0,0,0,0,0,0,0,0,0
21139,0,0,0,0,0,0,0,0,0,0
21141,0,0,0,0,0,0,0,0,0,0
21143,0,0,0,0,0,0,0,0,0,0
21145,0,0,0,0,0,0,0,0,0,0
21147,0,0,0,0,0,0,0,0,0,0
21149,0,0,0,0,0,0,0,0,0,0
21151,0,0,0,0,0,0,0,0,0,0
21153,0,0,0,0,0,0,0,0,0,0
21155,0,0,0,0,0,0,0,0,0,0
21157,0,0,0,0,0,0,0,0,0,0
21159,0,0,0,0,0,0,0,0,0,0
21161,0,0,0,0,0,0,0,0,0,0
21163,0,0,0,0,0,0,0,0,0,0
21165,0,0,0,0,0,0,0,0,0,0
21167,0,0,0,0,0,0,0,0,0,0
21169,0,0,0,0,0,0,0,0,0,0
21171,0,0,0,0,0,0,0,0,0,0
21173,0,0,0,0,0,0,0,0,0,0
21175,0,0,0,0,0,0,0,0,0,0
21177,0,0,0,0,0,0,0,0,0,0
21179,0,0,0,0,0,0,0,0,0,0
21181,0,0,0,0,0,0,0,0,0,0
21183,0,0,0,0,0,0,0,0,0,0
21185,0,0,0,0,0,0,0,0,0,0
21187,0,0,0,0,0,0,0,0,0,0
21189,0,0,0,0,0,0,0,0,0,0
21191,0,0,0,0,0,0,0,0,0,0
21193,0,0,0,0,0,0,0,0,0,0
21195,0,0,0,0,0,0,0,0,0,0
21197,0,0,0,0,0,0,0,0,0,0
21199,0,0,0,0,0,0,0,0,0,0
21201,0,0,0,0,0,0,0,0,0,0
21203,0,0,0,0,0,0,0,0,0,0
21205,0,0,0,0,0,0,0,0,0,0
21207,0,0,0,0,0,0,0,0,0,0
21209,0,0,0,0,0,0,0,0,0,0
21211,0,0,0,0,0,0,0,0,0,0
21213,0,0,0,0,0,0,0,0,0,0
21215,0,0,0,0,0,0,0,0,0,0
21217,0,0,0,0,0,0,0,0,0,0
21219,0,0,0,0,0,0,0,0,0,0
21221,0,0,0,0,0,0,0,0,0,0
21223,0,0,0,0,0,0,0,0,0,0
21225,0,0,0,0,0,0,0,0,0,0
21227,0,0,0,0,0,0,0,0,0,0
21229,0,0,0,0,0,0,0,0,0,0
21231,0,0,0,0,0,0,0,0,0,0
21233,0,0,0,0,0,0,0,0,0,0
21235,0,0,0,0,0,0,0,0,0,0
21237,0,0,0,0,0,0,0,0,0,0
21239,0,0,0,0,0,0,0,0,0,0
22001,0,0,0,0,0,0,1,1,1,1
22003,0,0,0,0,0,0,0,0,0,0
22005,0,0,0,0,1,1,1,1,1,1
22007,0,0,0,0,1,1,1,1,1,1
22009,0,0,0,0,0,0,0,0,0,0
22011,0,0,0,0,0,0,0,0,0,0
22013,0,0,0,0,0,0,0,0,0,0
22015,0,0,0,0,0,0,0,0,0,0
22017,0,0,0,0,0,0,0,0,0,0
22019,0,0,1,1,1,1,1,1,1,1
22021,0,0,0,0,0,0,0,0,0,0
22023,0,1,1,1,1,1,1,1,1,1
22025,0,0,0,0,0,0,0,0,0,0
22027,0,0,0,0,0,0,0,0,0,0
22029,0,0,0,0,0,0,0,0,0,0
22031,0,0,0,0,0,0,0,0,0,0
22033,0,0,0,0,0,0,0,0,1,1
22035,0,0,0,0,0,0,0,0,0,0
22037,0,0,0,0,0,0,0,0,0,0
22039,0,0,0,0,0,0,0,0,0,0
22041,0,0,0,0,0,0,0,0,0,0
22043,0,0,0,0,0,0,0,0,0,0
22045,1,1,1,1,1,1,1,1,1,1
22047,0,0,0,0,0,1,1,1,1,1
22049,0,0,0,0,0,0,0,0,0,0
22051,1,1,1,1,1,1,1,1,1,1
22053,0,0,1,1,1,1,1,1,1,1
22055,0,0,0,0,0,0,1,1,1,1
22057,1,1,1,1,1,1,1,1,1,1
22059,0,0,0,0,0,0,0,0,0,0
22061,0,0,0,0,0,0,0,0,0,0
22063,0,0,1,1,1,1,1,1,1,1
22065,0,0,0,0,0,0,0,0,0,0
22067,0,0,0,0,0,0,0,0,0,0
22069,0,0,0,0,0,0,0,0,0,0
22071,1,1,1,1,1,1,1,1,1,1
22073,0,0,0,0,0,0,0,0,0,0
22075,1,1,1,1,1,1,1,1,1,1
22077,0,0,0,0,0,0,0,0,0,1
22079,0,0,0,0,0,0,0,0,0,0
22081,0,0,0,0,0,0,0,0,0,0
22083,0,0,0,0,0,0,0,0,0,0
22085,0,0,0,0,0,0,0,0,0,0
22087,1,1,1,1,1,1,1,1,1,1
22089,0,1,1,1,1,1,1,1,1,1
22091,0,0,0,0,0,0,0,0,0,0
22093,0,0,0,0,1,1,1,1,1,1
22095,0,1,1,1,1,1,1,1,1,1
22097,0,0,0,0,0,0,1,1,1,1
22099,0,0,0,0,1,1,1,1,1,1
22101,1,1,1,1,1,1,1,1,1,1
22103,1,1,1,1,1,1,1,1,1,1
22105,0,1,1,1,1,1,1,1,1,1
22107,0,0,0,0,0,0,0,0,0,0
22109,1,1,1,1,1,1,1,1,1,1
22111,0,0,0,0,0,0,0,0,0,0
22113,1,1,1,1,1,1,1,1,1,1
22115,0,0,0,0,0,0,0,0,0,0
22117,0,0,0,0,0,0,0,0,0,0
22119,0,0,0,0,0,0,0,0,0,0
22121,0,0,0,0,0,0,0,0,1,1
22123,0,0,0,0,0,0,0,0,0,0
22125,0,0,0,0,0,0,0,0,0,0
22127,0,0,0,0,0,0,0,0,0,0
23001,0,0,0,0,0,0,0,0,0,0
23003,0,0,0,0,0,0,0,0,0,0
23005,1,1,1,1,1,1,1,1,1,1
23007,0,0,0,0,0,0,0,0,0,0
23009,1,1,1,1,1,1,1,1,1,1
23011,0,0,0,0,0,0,0,0,0,0
23013,1,1,1,1,1,1,1,1,1,1
23015,1,1,1,1,1,1,1,1,1,1
23017,0,0,0,0,0,0,0,0,0,0
23019,0,0,0,0,0,0,0,0,0,0
23021,0,0,0,0,0,0,0,0,0,0
23023,1,1,1,1,1,1,1,1,1,1
23025,0,0,0,0,0,0,0,0,0,0
23027,0,1,1,1,1,1,1,1,1,1
23029,1,1,1,1,1,1,1,1,1,1
23031,1,1,1,1,1,1,1,1,1,1
24001,0,0,0,0,0,0,0,0,0,0
24003,1,1,1,1,1,1,1,1,1,1
24005,1,1,1,1,1,1,1,1,1,1
24009,0,1,1,1,1,1,1,1,1,1
24011,1,1,1,1,1,1,1,1,1,1
24013,0,0,0,0,0,0,0,0,0,0
24015,1,1,1,1,1,1,1,1,1,1
24017,1,1,1,1,1,1,1,1,1,1
24019,1,1,1,1,1,1,1,1,1,1
24021,0,0,0,0,0,0,0,0,0,0
24023,0,0,0,0,0,0,0,0,0,0
24025,1,1,1,1,1,1,1,1,1,1
24027,0,0,0,0,0,0,0,0,0,0
24029,1,1,1,1,1,1,1,1,1,1
24031,0,0,0,0,0,0,0,0,0,0
24033,0,0,1,1,1,1,1,1,1,1
24035,1,1,1,1,1,1,1,1,1,1
24037,1,1,1,1,1,1,1,1,1,1
24039,1,1,1,1,1,1,1,1,1,1
24041,1,1,1,1,1,1,1,1,1,1
24043,0,0,0,0,0,0,0,0,0,0
24045,1,1,1,1,1,1,1,1,1,1
24047,1,1,1,1,1,1,1,1,1,1
24510,1,1,1,1,1,1,1,1,1,1
25001,1,1,1,1,1,1,1,1,1,1
25003,0,0,0,0,0,0,0,0,0,0
25005,1,1,1,1,1,1,1,1,1,1
25007,1,1,1,1,1,1,1,1,1,1
25009,1,1,1,1,1,1,1,1,1,1
25011,0,0,0,0,0,0,0,0,0,0
25013,0,0,0,0,0,0,0,0,0,0
25015,0,0,0,0,0,0,0,0,0,0
25017,0,0,0,0,0,0,0,1,1,1
25019,1,1,1,1,1,1,1,1,1,1
25021,1,1,1,1,1,1,1,1,1,1
25023,1,1,1,1,1,1,1,1,1,1
25025,1,1,1,1,1,1,1,1,1,1
25027,0,0,0,0,0,0,0,0,0,0
26001,0,0,0,0,0,0,0,0,0,0
26003,0,0,0,0,0,0,0,0,0,0
26005,0,0,0,0,0,0,0,0,0,0
26007,0,0,0,0,0,0,0,0,0,0
26009,0,0,0,0,0,0,0,0,0,0
26011,0,0,0,0,0,0,0,0,0,0
26013,0,0,0,0,0,0,0,0,0,0
26015,0,0,0,0,0,0,0,0,0,0
26017,0,0,0,0,0,0,0,0,0,0
26019,0,0,0,0,0,0,0,0,0,0
26021,0,0,0,0,0,0,0,0,0,0
26023,0,0,0,0,0,0,0,0,0,0
26025,0,0,0,0,0,0,0,0,0,0
26027,0,0,0,0,0,0,0,0,0,0
26029,0,0,0,0,0,0,0,0,0,0
26031,0,0,0,0,0,0,0,0,0,0
26033,0,0,0,0,0,0,0,0,0,0
26035,0,0,0,0,0,0,0,0,0,0
26037,0,0,0,0,0,0,0,0,0,0
26039,0,0,0,0,0,0,0,0,0,0
26041,0,0,0,0,0,0,0,0,0,0
26043,0,0,0,0,0,0,0,0,0,0
26045,0,0,0,0,0,0,0,0,0,0
26047,0,0,0,0,0,0,0,0,0,0
26049,0,0,0,0,0,0,0,0,0,0
26051,0,0,0,0,0,0,0,0,0,0
26053,0,0,0,0,0,0,0,0,0,0
26055,0,0,0,0,0,0,0,0,0,0
26057,0,0,0,0,0,0,0,0,0,0
26059,0,0,0,0,0,0,0,0,0,0
26061,0,0,0,0,0,0,0,0,0,0
26063,0,0,0,0,0,0,0,0,0,0
26065,0,0,0,0,0,0,0,0,0,0
26067,0,0,0,0,0,0,0,0,0,0
26069,0,0,0,0,0,0,0,0,0,0
26071,0,0,0,0,0,0,0,0,0,0
26073,0,0,0,0,0,0,0,0,0,0
26075,0,0,0,0,0,0,0,0,0,0
26077,0,0,0,0,0,0,0,0,0,0
26079,0,0,0,0,0,0,0,0,0,0
26081,0,0,0,0,0,0,0,0,0,0
26083,0,0,0,0,0,0,0,0,0,0
26085,0,0,0,0,0,0,0,0,0,0
26087,0,0,0,0,0,0,0,0,0,0
26089,0,0,0,0,0,0,0,0,0,0
26091,0,0,0,0,0,0,0,0,0,0
26093,0,0,0,0,0,0,0,0,0,0
26095,0,0,0,0,0,0,0,0,0,0
26097,0,0,0,0,0,0,0,0,0,0
26099,0,0,0,0,0,0,0,0,0,0
26101,0,0,0,0,0,0,0,0,0,0
26103,0,0,0,0,0,0,0,0,0,0
26105,0,0,0,0,0,0,0,0,0,0
26107,0,0,0,0,0,0,0,0,0,0
26109,0,0,0,0,0,0,0,0,0,0
26111,0,0,0,0,0,0,0,0,0,0
26113,0,0,0,0,0,0,0,0,0,0
26115,0,0,0,0,0,0,0,0,0,0
26117,0,0,0,0,0,0,0,0,0,0
26119,0,0,0,0,0,0,0,0,0,0
26121,0,0,0,0,0,0,0,0,0,0
26123,0,0,0,0,0,0,0,0,0,0
26125,0,0,0,0,0,0,0,0,0,0
26127,0,0,0,0,0,0,0,0,0,0
26129,0,0,0,0,0,0,0,0,0,0
26131,0,0,0,0,0,0,0,0,0,0
26133,0,0,0,0,0,0,0,0,0,0
26135,0,0,0,0,0,0,0,0,0,0
26137,0,0,0,0,0,0,0,0,0,0
26139,0,0,0,0,0,0,0,0,0,0
26141,0,0,0,0,0,0,0,0,0,0
26143,0,0,0,0,0,0,0,0,0,0
26145,0,0,0,0,0,0,0,0,0,0
26147,0,0,0,0,0,0,0,0,0,0
26149,0,0,0,0,0,0,0,0,0,0
26151,0,0,0,0,0,0,0,0,0,0
26153,0,0,0,0,0,0,0,0,0,0
26155,0,0,0,0,0,0,0,0,0,0
26157,0,0,0,0,0,0,0,0,0,0
26159,0,0,0,0,0,0,0,0,0,0
26161,0,0,0,0,0,0,0,0,0,0
26163,0,0,0,0,0,0,0,0,0,0
26165,0,0,0,0,0,0,0,0,0,0
27001,0,0,0,0,0,0,0,0,0,0
27003,0,0,0,0,0,0,0,0,0,0
27005,0,0,0,0,0,0,0,0,0,0
27007,0,0,0,0,0,0,0,0,0,0
27009,0,0,0,0,0,0,0,0,0,0
27011,0,0,0,0,0,0,0,0,0,0
27013,0,0,0,0,0,0,0,0,0,0
27015,0,0,0,0,0,0,0,0,0,0
27017,0,0,0,0,0,0,0,0,0,0
27019,0,0,0,0,0,0,0,0,0,0
27021,0,0,0,0,0,0,0,0,0,0
27023,0,0,0,0,0,0,0,0,0,0
27025,0,0,0,0,0,0,0,0,0,0
27027,0,0,0,0,0,0,0,0,0,0
27029,0,0,0,0,0,0,0,0,0,0
27031,0,0,0,0,0,0,0,0,0,0
27033,0,0,0,0,0,0,0,0,0,0
27035,0,0,0,0,0,0,0,0,0,0
27037,0,0,0,0,0,0,0,0,0,0
27039,0,0,0,0,0,0,0,0,0,0
27041,0,0,0,0,0,0,0,0,0,0
27043,0,0,0,0,0,0,0,0,0,0
27045,0,0,0,0,0,0,0,0,0,0
27047,0,0,0,0,0,0,0,0,0,0
27049,0,0,0,0,0,0,0,0,0,0
27051,0,0,0,0,0,0,0,0,0,0
27053,0,0,0,0,0,0,0,0,0,0
27055,0,0,0,0,0,0,0,0,0,0
27057,0,0,0,0,0,0,0,0,0,0
27059,0,0,0,0,0,0,0,0,0,0
27061,0,0,0,0,0,0,0,0,0,0
27063,0,0,0,0,0,0,0,0,0,0
27065,0,0,0,0,0,0,0,0,0,0
27067,0,0,0,0,0,0,0,0,0,0
27069,0,0,0,0,0,0,0,0,0,0
27071,0,0,0,0,0,0,0,0,0,0
27073,0,0,0,0,0,0,0,0,0,0
27075,0,0,0,0,0,0,0,0,0,0
27077,0,0,0,0,0,0,0,0,0,0
27079,0,0,0,0,0,0,0,0,0,0
27081,0,0,0,0,0,0,0,0,0,0
27083,0,0,0,0,0,0,0,0,0,0
27085,0,0,0,0,0,0,0,0,0,0
27087,0,0,0,0,0,0,0,0,0,0
27089,0,0,0,0,0,0,0,0,0,0
27091,0,0,0,0,0,0,0,0,0,0
27093,0,0,0,0,0,0,0,0,0,0
27095,0,0,0,0,0,0,0,0,0,0
27097,0,0,0,0,0,0,0,0,0,0
27099,0,0,0,0,0,0,0,0,0,0
27101,0,0,0,0,0,0,0,0,0,0
27103,0,0,0,0,0,0,0,0,0,0
27105,0,0,0,0,0,0,0,0,0,0
27107,0,0,0,0,0,0,0,0,0,0
27109,0,0,0,0,0,0,0,0,0,0
27111,0,0,0,0,0,0,0,0,0,0
27113,0,0,0,0,0,0,0,0,0,0
27115,0,0,0,0,0,0,0,0,0,0
27117,0,0,0,0,0,0,0,0,0,0
27119,0,0,0,0,0,0,0,0,0,0
27121,0,0,0,0,0,0,0,0,0,0
27123,0,0,0,0,0,0,0,0,0,0
27125,0,0,0,0,0,0,0,0,0,0
27127,0,0,0,0,0,0,0,0,0,0
27129,0,0,0,0,0,0,0,0,0,0
27131,0,0,0,0,0,0,0,0,0,0
27133,0,0,0,0,0,0,0,0,0,0
27135,0,0,0,0,0,0,0,0,0,0
27137,0,0,0,0,0,0,0,0,0,0
27139,0,0,0,0,0,0,0,0,0,0
27141,0,0,0,0,0,0,0,0,0,0
27143,0,0,0,0,0,0,0,0,0,0
27145,0,0,0,0,0,0,0,0,0,0
27147,0,0,0,0,0,0,0,0,0,0
27149,0,0,0,0,0,0,0,0,0,0
27151,0,0,0,0,0,0,0,0,0,0
27153,0,0,0,0,0,0,0,0,0,0
27155,0,0,0,0,0,0,0,0,0,0
27157,0,0,0,0,0,0,0,0,0,0
27159,0,0,0,0,0,0,0,0,0,0
27161,0,0,0,0,0,0,0,0,0,0
27163,0,0,0,0,0,0,0,0,0,0
27165,0,0,0,0,0,0,0,0,0,0
27167,0,0,0,0,0,0,0,0,0,0
27169,0,0,0,0,0,0,0,0,0,0
27171,0,0,0,0,0,0,0,0,0,0
27173,0,0,0,0,0,0,0,0,0,0
28001,0,0,0,0,0,0,0,0,0,0
28003,0,0,0,0,0,0,0,0,0,0
28005,0,0,0,0,0,0,0,0,0,0
28007,0,0,0,0,0,0,0,0,0,0
28009,0,0,0,0,0,0,0,0,0,0
28011,0,0,0,0,0,0,0,0,0,0
28013,0,0,0,0,0,0,0,0,0,0
28015,0,0,0,0,0,0,0,0,0,0
28017,0,0,0,0,0,0,0,0,0,0
28019,0,0,0,0,0,0,0,0,0,0
28021,0,0,0,0,0,0,0,0,0,0
28023,0,0,0,0,0,0,0,0,0,0
28025,0,0,0,0,0,0,0,0,0,0
28027,0,0,0,0,0,0,0,0,0,0
28029,0,0,0,0,0,0,0,0,0,0
28031,0,0,0,0,0,0,0,0,0,0
28033,0,0,0,0,0,0,0,0,0,0
28035,0,0,0,0,0,0,0,0,0,0
28037,0,0,0,0,0,0,0,0,0,0
28039,0,0,0,0,0,0,0,0,0,0
28041,0,0,0,0,0,0,0,0,0,0
28043,0,0,0,0,0,0,0,0,0,0
28045,1,1,1,1,1,1,1,1,1,1
28047,1,1,1,1,1,1,1,1,1,1
28049,0,0,0,0,0,0,0,0,0,0
28051,0,0,0,0,0,0,0,0,0,0
28053,0,0,0,0,0,0,0,0,0,0
28055,0,0,0,0,0,0,0,0,0,0
28057,0,0,0,0,0,0,0,0,0,0
28059,1,1,1,1,1,1,1,1,1,1
28061,0,0,0,0,0,0,0,0,0,0
28063,0,0,0,0,0,0,0,0,0,0
28065,0,0,0,0,0,0,0,0,0,0
28067,0,0,0,0,0,0,0,0,0,0
28069,0,0,0,0,0,0,0,0,0,0
28071,0,0,0,0,0,0,0,0,0,0
28073,0,0,0,0,0,0,0,0,0,0
28075,0,0,0,0,0,0,0,0,0,0
28077,0,0,0,0,0,0,0,0,0,0
28079,0,0,0,0,0,0,0,0,0,0
28081,0,0,0,0,0,0,0,0,0,0
28083,0,0,0,0,0,0,0,0,0,0
28085,0,0,0,0,0,0,0,0,0,0
28087,0,0,0,0,0,0,0,0,0,0
28089,0,0,0,0,0,0,0,0,0,0
28091,0,0,0,0,0,0,0,0,0,0
28093,0,0,0,0,0,0,0,0,0,0
28095,0,0,0,0,0,0,0,0,0,0
28097,0,0,0,0,0,0,0,0,0,0
28099,0,0,0,0,0,0,0,0,0,0
28101,0,0,0,0,0,0,0,0,0,0
28103,0,0,0,0,0,0,0,0,0,0
28105,0,0,0,0,0,0,0,0,0,0
28107,0,0,0,0,0,0,0,0,0,0
28109,0,0,0,0,0,0,0,0,0,0
28111,0,0,0,0,0,0,0,0,0,0
28113,0,0,0,0,0,0,0,0,0,0
28115,0,0,0,0,0,0,0,0,0,0
28117,0,0,0,0,0,0,0,0,0,0
28119,0,0,0,0,0,0,0,0,0,0
28121,0,0,0,0,0,0,0,0,0,0
28123,0,0,0,0,0,0,0,0,0,0
28125,0,0,0,0,0,0,0,0,0,0
28127,0,0,0,0,0,0,0,0,0,0
28129,0,0,0,0,0,0,0,0,0,0
28131,0,0,0,0,0,0,0,0,0,0
28133,0,0,0,0,0,0,0,0,0,0
28135,0,0,0,0,0,0,0,0,0,0
28137,0,0,0,0,0,0,0,0,0,0
28139,0,0,0,0,0,0,0,0,0,0
28141,0,0,0,0,0,0,0,0,0,0
28143,0,0,0,0,0,0,0,0,0,0
28145,0,0,0,0,0,0,0,0,0,0
28147,0,0,0,0,0,0,0,0,0,0
28149,0,0,0,0,0,0,0,0,0,0
28151,0,0,0,0,0,0,0,0,0,0
28153,0,0,0,0,0,0,0,0,0,0
28155,0,0,0,0,0,0,0,0,0,0
28157,0,0,0,0,0,0,0,0,0,0
28159,0,0,0,0,0,0,0,0,0,0
28161,0,0,0,0,0,0,0,0,0,0
28163,0,0,0,0,0,0,0,0,0,0
29001,0,0,0,0,0,0,0,0,0,0
29003,0,0,0,0,0,0,0,0,0,0
29005,0,0,0,0,0,0,0,0,0,0
29007,0,0,0,0,0,0,0,0,0,0
29009,0,0,0,0,0,0,0,0,0,0
29011,0,0,0,0,0,0,0,0,0,0
29013,0,0,0,0,0,0,0,0,0,0
29015,0,0,0,0,0,0,0,0,0,0
29017,0,0,0,0,0,0,0,0,0,0
29019,0,0,0,0,0,0,0,0,0,0
29021,0,0,0,0,0,0,0,0,0,0
29023,0,0,0,0,0,0,0,0,0,0
29025,0,0,0,0,0,0,0,0,0,0
29027,0,0,0,0,0,0,0,0,0,0
29029,0,0,0,0,0,0,0,0,0,0
29031,0,0,0,0,0,0,0,0,0,0
29033,0,0,0,0,0,0,0,0,0,0
29035,0,0,0,0,0,0,0,0,0,0
29037,0,0,0,0,0,0,0,0,0,0
29039,0,0,0,0,0,0,0,0,0,0
29041,0,0,0,0,0,0,0,0,0,0
29043,0,0,0,0,0,0,0,0,0,0
29045,0,0,0,0,0,0,0,0,0,0
29047,0,0,0,0,0,0,0,0,0,0
29049,0,0,0,0,0,0,0,0,0,0
29051,0,0,0,0,0,0,0,0,0,0
29053,0,0,0,0,0,0,0,0,0,0
29055,0,0,0,0,0,0,0,0,0,0
29057,0,0,0,0,0,0,0,0,0,0
29059,0,0,0,0,0,0,0,0,0,0
29061,0,0,0,0,0,0,0,0,0,0
29063,0,0,0,0,0,0,0,0,0,0
29065,0,0,0,0,0,0,0,0,0,0
29067,0,0,0,0,0,0,0,0,0,0
29069,0,0,0,0,0,0,0,0,0,0
29071,0,0,0,0,0,0,0,0,0,0
29073,0,0,0,0,0,0,0,0,0,0
29075,0,0,0,0,0,0,0,0,0,0
29077,0,0,0,0,0,0,0,0,0,0
29079,0,0,0,0,0,0,0,0,0,0
29081,0,0,0,0,0,0,0,0,0,0
29083,0,0,0,0,0,0,0,0,0,0
29085,0,0,0,0,0,0,0,0,0,0
29087,0,0,0,0,0,0,0,0,0,0
29089,0,0,0,0,0,0,0,0,0,0
29091,0,0,0,0,0,0,0,0,0,0
29093,0,0,0,0,0,0,0,0,0,0
29095,0,0,0,0,0,0,0,0,0,0
29097,0,0,0,0,0,0,0,0,0,0
29099,0,0,0,0,0,0,0,0,0,0
29101,0,0,0,0,0,0,0,0,0,0
29103,0,0,0,0,0,0,0,0,0,0
29105,0,0,0,0,0,0,0,0,0,0
29107,0,0,0,0,0,0,0,0,0,0
29109,0,0,0,0,0,0,0,0,0,0
29111,0,0,0,0,0,0,0,0,0,0
29113,0,0,0,0,0,0,0,0,0,0
29115,0,0,0,0,0,0,0,0,0,0
29117,0,0,0,0,0,0,0,0,0,0
29119,0,0,0,0,0,0,0,0,0,0
29121,0,0,0,0,0,0,0,0,0,0
29123,0,0,0,0,0,0,0,0,0,0
29125,0,0,0,0,0,0,0,0,0,0
29127,0,0,0,0,0,0,0,0,0,0
29129,0,0,0,0,0,0,0,0,0,0
29131,0,0,0,0,0,0,0,0,0,0
29133,0,0,0,0,0,0,0,0,0,0
29135,0,0,0,0,0,0,0,0,0,0
29137,0,0,0,0,0,0,0,0,0,0
29139,0,0,0,0,0,0,0,0,0,0
29141,0,0,0,0,0,0,0,0,0,0
29143,0,0,0,0,0,0,0,0,0,0
29145,0,0,0,0,0,0,0,0,0,0
29147,0,0,0,0,0,0,0,0,0,0
29149,0,0,0,0,0,0,0,0,0,0
29151,0,0,0,0,0,0,0,0,0,0
29153,0,0,0,0,0,0,0,0,0,0
29155,0,0,0,0,0,0,0,0,0,0
29157,0,0,0,0,0,0,0,0,0,0
29159,0,0,0,0,0,0,0,0,0,0
29161,0,0,0,0,0,0,0,0,0,0
29163,0,0,0,0,0,0,0,0,0,0
29165,0,0,0,0,0,0,0,0,0,0
29167,0,0,0,0,0,0,0,0,0,0
29169,0,0,0,0,0,0,0,0,0,0
29171,0,0,0,0,0,0,0,0,0,0
29173,0,0,0,0,0,0,0,0,0,0
29175,0,0,0,0,0,0,0,0,0,0
29177,0,0,0,0,0,0,0,0,0,0
29179,0,0,0,0,0,0,0,0,0,0
29181,0,0,0,0,0,0,0,0,0,0
29183,0,0,0,0,0,0,0,0,0,0
29185,0,0,0,0,0,0,0,0,0,0
29186,0,0,0,0,0,0,0,0,0,0
29187,0,0,0,0,0,0,0,0,0,0
29189,0,0,0,0,0,0,0,0,0,0
29195,0,0,0,0,0,0,0,0,0,0
29197,0,0,0,0,0,0,0,0,0,0
29199,0,0,0,0,0,0,0,0,0,0
29201,0,0,0,0,0,0,0,0,0,0
29203,0,0,0,0,0,0,0,0,0,0
29205,0,0,0,0,0,0,0,0,0,0
29207,0,0,0,0,0,0,0,0,0,0
29209,0,0,0,0,0,0,0,0,0,0
29211,0,0,0,0,0,0,0,0,0,0
29213,0,0,0,0,0,0,0,0,0,0
29215,0,0,0,0,0,0,0,0,0,0
29217,0,0,0,0,0,0,0,0,0,0
29219,0,0,0,0,0,0,0,0,0,0
29221,0,0,0,0,0,0,0,0,0,0
29223,0,0,0,0,0,0,0,0,0,0
29225,0,0,0,0,0,0,0,0,0,0
29227,0,0,0,0,0,0,0,0,0,0
29229,0,0,0,0,0,0,0,0,0,0
29510,0,0,0,0,0,0,0,0,0,0
30001,0,0,0,0,0,0,0,0,0,0
30003,0,0,0,0,0,0,0,0,0,0
30005,0,0,0,0,0,0,0,0,0,0
30007,0,0,0,0,0,0,0,0,0,0
30009,0,0,0,0,0,0,0,0,0,0
30011,0,0,0,0,0,0,0,0,0,0
30013,0,0,0,0,0,0,0,0,0,0
30015,0,0,0,0,0,0,0,0,0,0
30017,0,0,0,0,0,0,0,0,0,0
30019,0,0,0,0,0,0,0,0,0,0
30021,0,0,0,0,0,0,0,0,0,0
30023,0,0,0,0,0,0,0,0,0,0
30025,0,0,0,0,0,0,0,0,0,0
30027,0,0,0,0,0,0,0,0,0,0
30029,0,0,0,0,0,0,0,0,0,0
30031,0,0,0,0,0,0,0,0,0,0
30033,0,0,0,0,0,0,0,0,0,0
30035,0,0,0,0,0,0,0,0,0,0
30037,0,0,0,0,0,0,0,0,0,0
30039,0,0,0,0,0,0,0,0,0,0
30041,0,0,0,0,0,0,0,0,0,0
30043,0,0,0,0,0,0,0,0,0,0
30045,0,0,0,0,0,0,0,0,0,0
30047,0,0,0,0,0,0,0,0,0,0
30049,0,0,0,0,0,0,0,0,0,0
30051,0,0,0,0,0,0,0,0,0,0
30053,0,0,0,0,0,0,0,0,0,0
30055,0,0,0,0,0,0,0,0,0,0
30057,0,0,0,0,0,0,0,0,0,0
30059,0,0,0,0,0,0,0,0,0,0
30061,0,0,0,0,0,0,0,0,0,0
30063,0,0,0,0,0,0,0,0,0,0
30065,0,0,0,0,0,0,0,0,0,0
30067,0,0,0,0,0,0,0,0,0,0
30069,0,0,0,0,0,0,0,0,0,0
30071,0,0,0,0,0,0,0,0,0,0
30073,0,0,0,0,0,0,0,0,0,0
30075,0,0,0,0,0,0,0,0,0,0
30077,0,0,0,0,0,0,0,0,0,0
30079,0,0,0,0,0,0,0,0,0,0
30081,0,0,0,0,0,0,0,0,0,0
30083,0,0,0,0,0,0,0,0,0,0
30085,0,0,0,0,0,0,0,0,0,0
30087,0,0,0,0,0,0,0,0,0,0
30089,0,0,0,0,0,0,0,0,0,0
30091,0,0,0,0,0,0,0,0,0,0
30093,0,0,0,0,0,0,0,0,0,0
30095,0,0,0,0,0,0,0,0,0,0
30097,0,0,0,0,0,0,0,0,0,0
30099,0,0,0,0,0,0,0,0,0,0
30101,0,0,0,0,0,0,0,0,0,0
30103,0,0,0,0,0,0,0,0,0,0
30105,0,0,0,0,0,0,0,0,0,0
30107,0,0,0,0,0,0,0,0,0,0
30109,0,0,0,0,0,0,0,0,0,0
30111,0,0,0,0,0,0,0,0,0,0
31001,0,0,0,0,0,0,0,0,0,0
31003,0,0,0,0,0,0,0,0,0,0
31005,0,0,0,0,0,0,0,0,0,0
31007,0,0,0,0,0,0,0,0,0,0
31009,0,0,0,0,0,0,0,0,0,0
31011,0,0,0,0,0,0,0,0,0,0
31013,0,0,0,0,0,0,0,0,0,0
31015,0,0,0,0,0,0,0,0,0,0
31017,0,0,0,0,0,0,0,0,0,0
31019,0,0,0,0,0,0,0,0,0,0
31021,0,0,0,0,0,0,0,0,0,0
31023,0,0,0,0,0,0,0,0,0,0
31025,0,0,0,0,0,0,0,0,0,0
31027,0,0,0,0,0,0,0,0,0,0
31029,0,0,0,0,0,0,0,0,0,0
31031,0,0,0,0,0,0,0,0,0,0
31033,0,0,0,0,0,0,0,0,0,0
31035,0,0,0,0,0,0,0,0,0,0
31037,0,0,0,0,0,0,0,0,0,0
31039,0,0,0,0,0,0,0,0,0,0
31041,0,0,0,0,0,0,0,0,0,0
31043,0,0,0,0,0,0,0,0,0,0
31045,0,0,0,0,0,0,0,0,0,0
31047,0,0,0,0,0,0,0,0,0,0
31049,0,0,0,0,0,0,0,0,0,0
31051,0,0,0,0,0,0,0,0,0,0
31053,0,0,0,0,0,0,0,0,0,0
31055,0,0,0,0,0,0,0,0,0,0
31057,0,0,0,0,0,0,0,0,0,0
31059,0,0,0,0,0,0,0,0,0,0
31061,0,0,0,0,0,0,0,0,0,0
31063,0,0,0,0,0,0,0,0,0,0
31065,0,0,0,0,0,0,0,0,0,0
31067,0,0,0,0,0,0,0,0,0,0
31069,0,0,0,0,0,0,0,0,0,0
31071,0,0,0,0,0,0,0,0,0,0
31073,0,0,0,0,0,0,0,0,0,0
31075,0,0,0,0,0,0,0,0,0,0
31077,0,0,0,0,0,0,0,0,0,0
31079,0,0,0,0,0,0,0,0,0,0
31081,0,0,0,0,0,0,0,0,0,0
31083,0,0,0,0,0,0,0,0,0,0
31085,0,0,0,0,0,0,0,0,0,0
31087,0,0,0,0,0,0,0,0,0,0
31089,0,0,0,0,0,0,0,0,0,0
31091,0,0,0,0,0,0,0,0,0,0
31093,0,0,0,0,0,0,0,0,0,0
31095,0,0,0,0,0,0,0,0,0,0
31097,0,0,0,0,0,0,0,0,0,0
31099,0,0,0,0,0,0,0,0,0,0
31101,0,0,0,0,0,0,0,0,0,0
31103,0,0,0,0,0,0,0,0,0,0
31105,0,0,0,0,0,0,0,0,0,0
31107,0,0,0,0,0,0,0,0,0,0
31109,0,0,0,0,0,0,0,0,0,0
31111,0,0,0,0,0,0,0,0,0,0
31113,0,0,0,0,0,0,0,0,0,0
31115,0,0,0,0,0,0,0,0,0,0
31117,0,0,0,0,0,0,0,0,0,0
31119,0,0,0,0,0,0,0,0,0,0
31121,0,0,0,0,0,0,0,0,0,0
31123,0,0,0,0,0,0,0,0,0,0
31125,0,0,0,0,0,0,0,0,0,0
31127,0,0,0,0,0,0,0,0,0,0
31129,0,0,0,0,0,0,0,0,0,0
31131,0,0,0,0,0,0,0,0,0,0
31133,0,0,0,0,0,0,0,0,0,0
31135,0,0,0,0,0,0,0,0,0,0
31137,0,0,0,0,0,0,0,0,0,0
31139,0,0,0,0,0,0,0,0,0,0
31141,0,0,0,0,0,0,0,0,0,0
31143,0,0,0,0,0,0,0,0,0,0
31145,0,0,0,0,0,0,0,0,0,0
31147,0,0,0,0,0,0,0,0,0,0
31149,0,0,0,0,0,0,0,0,0,0
31151,0,0,0,0,0,0,0,0,0,0
31153,0,0,0,0,0,0,0,0,0,0
31155,0,0,0,0,0,0,0,0,0,0
31157,0,0,0,0,0,0,0,0,0,0
31159,0,0,0,0,0,0,0,0,0,0
31161,0,0,0,0,0,0,0,0,0,0
31163,0,0,0,0,0,0,0,0,0,0
31165,0,0,0,0,0,0,0,0,0,0
31167,0,0,0,0,0,0,0,0,0,0
31169,0,0,0,0,0,0,0,0,0,0
31171,0,0,0,0,0,0,0,0,0,0
31173,0,0,0,0,0,0,0,0,0,0
31175,0,0,0,0,0,0,0,0,0,0
31177,0,0,0,0,0,0,0,0,0,0
31179,0,0,0,0,0,0,0,0,0,0
31181,0,0,0,0,0,0,0,0,0,0
31183,0,0,0,0,0,0,0,0,0,0
31185,0,0,0,0,0,0,0,0,0,0
32001,0,0,0,0,0,0,0,0,0,0
32003,0,0,0,0,0,0,0,0,0,0
32005,0,0,0,0,0,0,0,0,0,0
32007,0,0,0,0,0,0,0,0,0,0
32009,0,0,0,0,0,0,0,0,0,0
32011,0,0,0,0,0,0,0,0,0,0
32013,0,0,0,0,0,0,0,0,0,0
32015,0,0,0,0,0,0,0,0,0,0
32017,0,0,0,0,0,0,0,0,0,0
32019,0,0,0,0,0,0,0,0,0,0
32021,0,0,0,0,0,0,0,0,0,0
32023,0,0,0,0,0,0,0,0,0,0
32027,0,0,0,0,0,0,0,0,0,0
32029,0,0,0,0,0,0,0,0,0,0
32031,0,0,0,0,0,0,0,0,0,0
32033,0,0,0,0,0,0,0,0,0,0
32510,0,0,0,0,0,0,0,0,0,0
33001,0,0,0,0,0,0,0,0,0,0
33003,0,0,0,0,0,0,0,0,0,0
33005,0,0,0,0,0,0,0,0,0,0
33007,0,0,0,0,0,0,0,0,0,0
33009,0,0,0,0,0,0,0,0,0,0
33011,0,0,0,0,0,0,0,0,0,0
33013,0,0,0,0,0,0,0,0,0,0
33015,1,1,1,1,1,1,1,1,1,1
33017,0,0,0,0,0,0,0,0,0,0
33019,0,0,0,0,0,0,0,0,0,0
34001,1,1,1,1,1,1,1,1,1,1
34003,0,0,1,1,1,1,1,1,1,1
34005,1,1,1,1,1,1,1,1,1,1
34007,0,1,1,1,1,1,1,1,1,1
34009,1,1,1,1,1,1,1,1,1,1
34011,1,1,1,1,1,1,1,1,1,1
34013,0,0,0,0,1,1,1,1,1,1
34015,1,1,1,1,1,1,1,1,1,1
34017,1,1,1,1,1,1,1,1,1,1
34019,0,0,0,0,0,0,0,0,0,0
34021,0,0,0,0,0,0,0,0,0,1
34023,0,1,1,1,1,1,1,1,1,1
34025,1,1,1,1,1,1,1,1,1,1
34027,0,0,0,0,0,0,0,0,0,0
34029,1,1,1,1,1,1,1,1,1,1
34031,0,0,0,0,0,0,0,0,0,0
34033,1,1,1,1,1,1,1,1,1,1
34035,0,0,0,0,0,0,0,0,0,0
34037,0,0,0,0,0,0,0,0,0,0
34039,0,0,0,0,1,1,1,1,1,1
34041,0,0,0,0,0,0,0,0,0,0
35001,0,0,0,0,0,0,0,0,0,0
35003,0,0,0,0,0,0,0,0,0,0
35005,0,0,0,0,0,0,0,0,0,0
35006,0,0,0,0,0,0,0,0,0,0
35007,0,0,0,0,0,0,0,0,0,0
35009,0,0,0,0,0,0,0,0,0,0
35011,0,0,0,0,0,0,0,0,0,0
35013,0,0,0,0,0,0,0,0,0,0
35015,0,0,0,0,0,0,0,0,0,0
35017,0,0,0,0,0,0,0,0,0,0
35019,0,0,0,0,0,0,0,0,0,0
35021,0,0,0,0,0,0,0,0,0,0
35023,0,0,0,0,0,0,0,0,0,0
35025,0,0,0,0,0,0,0,0,0,0
35027,0,0,0,0,0,0,0,0,0,0
35028,0,0,0,0,0,0,0,0,0,0
35029,0,0,0,0,0,0,0,0,0,0
35031,0,0,0,0,0,0,0,0,0,0
35033,0,0,0,0,0,0,0,0,0,0
35035,0,0,0,0,0,0,0,0,0,0
35037,0,0,0,0,0,0,0,0,0,0
35039,0,0,0,0,0,0,0,0,0,0
35041,0,0,0,0,0,0,0,0,0,0
35043,0,0,0,0,0,0,0,0,0,0
35045,0,0,0,0,0,0,0,0,0,0
35047,0,0,0,0,0,0,0,0,0,0
35049,0,0,0,0,0,0,0,0,0,0
35051,0,0,0,0,0,0,0,0,0,0
35053,0,0,0,0,0,0,0,0,0,0
35055,0,0,0,0,0,0,0,0,0,0
35057,0,0,0,0,0,0,0,0,0,0
35059,0,0,0,0,0,0,0,0,0,0
35061,0,0,0,0,0,0,0,0,0,0
36001,0,0,0,0,0,0,0,0,0,0
36003,0,0,0,0,0,0,0,0,0,0
36005,1,1,1,1,1,1,1,1,1,1
36007,0,0,0,0,0,0,0,0,0,0
36009,0,0,0,0,0,0,0,0,0,0
36011,0,0,0,0,0,0,0,0,0,0
36013,0,0,0,0,0,0,0,0,0,0
36015,0,0,0,0,0,0,0,0,0,0
36017,0,0,0,0,0,0,0,0,0,0
36019,0,0,0,0,0,0,0,0,0,0
36021,0,0,0,0,0,0,0,0,0,0
36023,0,0,0,0,0,0,0,0,0,0
36025,0,0,0,0,0,0,0,0,0,0
36027,0,0,0,0,0,0,0,0,0,0
36029,0,0,0,0,0,0,0,0,0,0
36031,0,0,0,0,0,0,0,0,0,0
36033,0,0,0,0,0,0,0,0,0,0
36035,0,0,0,0,0,0,0,0,0,0
36037,0,0,0,0,0,0,0,0,0,0
36039,0,0,0,0,0,0,0,0,0,0
36041,0,0,0,0,0,0,0,0,0,0
36043,0,0,0,0,0,0,0,0,0,0
36045,0,0,0,0,0,0,0,0,0,0
36047,1,1,1,1,1,1,1,1,1,1
36049,0,0,0,0,0,0,0,0,0,0
36051,0,0,0,0,0,0,0,0,0,0
36053,0,0,0,0,0,0,0,0,0,0
36055,0,0,0,0,0,0,0,0,0,0
36057,0,0,0,0,0,0,0,0,0,0
36059,1,1,1,1,1,1,1,1,1,1
36061,1,1,1,1,1,1,1,1,1,1
36063,0,0,0,0,0,0,0,0,0,0
36065,0,0,0,0,0,0,0,0,0,0
36067,0,0,0,0,0,0,0,0,0,0
36069,0,0,0,0,0,0,0,0,0,0
36071,0,0,0,0,0,0,0,0,0,0
36073,0,0,0,0,0,0,0,0,0,0
36075,0,0,0,0,0,0,0,0,0,0
36077,0,0,0,0,0,0,0,0,0,0
36079,0,0,0,0,0,0,0,0,0,0
36081,1,1,1,1,1,1,1,1,1,1
36083,0,0,0,0,0,0,0,0,0,0
36085,1,1,1,1,1,1,1,1,1,1
36087,0,0,0,0,0,0,1,1,1,1
36089,0,0,0,0,0,0,0,0,0,0
36091,0,0,0,0,0,0,0,0,0,0
36093,0,0,0,0,0,0,0,0,0,0
36095,0,0,0,0,0,0,0,0,0,0
36097,0,0,0,0,0,0,0,0,0,0
36099,0,0,0,0,0,0,0,0,0,0
36101,0,0,0,0,0,0,0,0,0,0
36103,1,1,1,1,1,1,1,1,1,1
36105,0,0,0,0,0,0,0,0,0,0
36107,0,0,0,0,0,0,0,0,0,0
36109,0,0,0,0,0,0,0,0,0,0
36111,0,0,0,0,0,0,0,0,0,0
36113,0,0,0,0,0,0,0,0,0,0
36115,0,0,0,0,0,0,0,0,0,0
36117,0,0,0,0,0,0,0,0,0,0
36119,0,0,1,1,1,1,1,1,1,1
36121,0,0,0,0,0,0,0,0,0,0
36123,0,0,0,0,0,0,0,0,0,0
37001,0,0,0,0,0,0,0,0,0,0
37003,0,0,0,0,0,0,0,0,0,0
37005,0,0,0,0,0,0,0,0,0,0
37007,0,0,0,0,0,0,0,0,0,0
37009,0,0,0,0,0,0,0,0,0,0
37011,0,0,0,0,0,0,0,0,0,0
37013,1,1,1,1,1,1,1,1,1,1
37015,0,0,0,1,1,1,1,1,1,1
37017,0,0,0,0,0,1,1,1,1,1
37019,1,1,1,1,1,1,1,1,1,1
37021,0,0,0,0,0,0,0,0,0,0
37023,0,0,0,0,0,0,0,0,0,0
37025,0,0,0,0,0,0,0,0,0,0
37027,0,0,0,0,0,0,0,0,0,0
37029,1,1,1,1,1,1,1,1,1,1
37031,1,1,1,1,1,1,1,1,1,1
37033,0,0,0,0,0,0,0,0,0,0
37035,0,0,0,0,0,0,0,0,0,0
37037,0,0,0,0,0,0,0,0,0,0
37039,0,0,0,0,0,0,0,0,0,0
37041,1,1,1,1,1,1,1,1,1,1
37043,0,0,0,0,0,0,0,0,0,0
37045,0,0,0,0,0,0,0,0,0,0
37047,0,0,1,1,1,1,1,1,1,1
37049,1,1,1,1,1,1,1,1,1,1
37051,0,0,0,0,0,0,0,0,0,0
37053,1,1,1,1,1,1,1,1,1,1
37055,1,1,1,1,1,1,1,1,1,1
37057,0,0,0,0,0,0,0,0,0,0
37059,0,0,0,0,0,0,0,0,0,0
37061,0,0,0,0,0,0,0,0,1,1
37063,0,0,0,0,0,0,0,0,0,0
37065,0,0,0,0,0,0,0,0,0,0
37067,0,0,0,0,0,0,0,0,0,0
37069,0,0,0,0,0,0,0,0,0,0
37071,0,0,0,0,0,0,0,0,0,0
37073,0,0,1,1,1,1,1,1,1,1
37075,0,0,0,0,0,0,0,0,0,0
37077,0,0,0,0,0,0,0,0,0,0
37079,0,0,0,0,0,0,0,0,0,0
37081,0,0,0,0,0,0,0,0,0,0
37083,0,0,0,0,0,0,0,0,0,0
37085,0,0,0,0,0,0,0,0,0,0
37087,0,0,0,0,0,0,0,0,0,0
37089,0,0,0,0,0,0,0,0,0,0
37091,1,1,1,1,1,1,1,1,1,1
37093,0,0,0,0,0,0,0,0,0,0
37095,1,1,1,1,1,1,1,1,1,1
37097,0,0,0,0,0,0,0,0,0,0
37099,0,0,0,0,0,0,0,0,0,0
37101,0,0,0,0,0,0,0,0,0,0
37103,1,1,1,1,1,1,1,1,1,1
37105,0,0,0,0,0,0,0,0,0,0
37107,0,0,0,0,0,0,0,0,1,1
37109,0,0,0,0,0,0,0,0,0,0
37111,0,0,0,0,0,0,0,0,0,0
37113,0,0,0,0,0,0,0,0,0,0
37115,0,0,0,0,0,0,0,0,0,0
37117,0,0,0,0,0,0,0,1,1,1
37119,0,0,0,0,0,0,0,0,0,0
37121,0,0,0,0,0,0,0,0,0,0
37123,0,0,0,0,0,0,0,0,0,0
37125,0,0,0,0,0,0,0,0,0,0
37127,0,0,0,0,0,0,0,0,0,0
37129,1,1,1,1,1,1,1,1,1,1
37131,0,0,0,0,0,0,0,0,0,0
37133,1,1,1,1,1,1,1,1,1,1
37135,0,0,0,0,0,0,0,0,0,0
37137,1,1,1,1,1,1,1,1,1,1
37139,1,1,1,1,1,1,1,1,1,1
37141,1,1,1,1,1,1,1,1,1,1
37143,0,0,1,1,1,1,1,1,1,1
37145,0,0,0,0,0,0,0,0,0,0
37147,0,0,0,1,1,1,1,1,1,1
37149,0,0,0,0,0,0,0,0,0,0
37151,0,0,0,0,0,0,0,0,0,0
37153,0,0,0,0,0,0,0,0,0,0
37155,0,0,0,0,0,0,0,0,0,0
37157,0,0,0,0,0,0,0,0,0,0
37159,0,0,0,0,0,0,0,0,0,0
37161,0,0,0,0,0,0,0,0,0,0
37163,0,0,0,0,0,0,0,0,1,1
37165,0,0,0,0,0,0,0,0,0,0
37167,0,0,0,0,0,0,0,0,0,0
37169,0,0,0,0,0,0,0,0,0,0
37171,0,0,0,0,0,0,0,0,0,0
37173,0,0,0,0,0,0,0,0,0,0
37175,0,0,0,0,0,0,0,0,0,0
37177,1,1,1,1,1,1,1,1,1,1
37179,0,0,0,0,0,0,0,0,0,0
37181,0,0,0,0,0,0,0,0,0,0
37183,0,0,0,0,0,0,0,0,0,0
37185,0,0,0,0,0,0,0,0,0,0
37187,0,0,1,1,1,1,1,1,1,1
37189,0,0,0,0,0,0,0,0,0,0
37191,0,0,0,0,0,0,0,0,0,0
37193,0,0,0,0,0,0,0,0,0,0
37195,0,0,0,0,0,0,0,0,0,0
37197,0,0,0,0,0,0,0,0,0,0
37199,0,0,0,0,0,0,0,0,0,0
38001,0,0,0,0,0,0,0,0,0,0
38003,0,0,0,0,0,0,0,0,0,0
38005,0,0,0,0,0,0,0,0,0,0
38007,0,0,0,0,0,0,0,0,0,0
38009,0,0,0,0,0,0,0,0,0,0
38011,0,0,0,0,0,0,0,0,0,0
38013,0,0,0,0,0,0,0,0,0,0
38015,0,0,0,0,0,0,0,0,0,0
38017,0,0,0,0,0,0,0,0,0,0
38019,0,0,0,0,0,0,0,0,0,0
38021,0,0,0,0,0,0,0,0,0,0
38023,0,0,0,0,0,0,0,0,0,0
38025,0,0,0,0,0,0,0,0,0,0
38027,0,0,0,0,0,0,0,0,0,0
38029,0,0,0,0,0,0,0,0,0,0
38031,0,0,0,0,0,0,0,0,0,0
38033,0,0,0,0,0,0,0,0,0,0
38035,0,0,0,0,0,0,0,0,0,0
38037,0,0,0,0,0,0,0,0,0,0
38039,0,0,0,0,0,0,0,0,0,0
38041,0,0,0,0,0,0,0,0,0,0
38043,0,0,0,0,0,0,0,0,0,0
38045,0,0,0,0,0,0,0,0,0,0
38047,0,0,0,0,0,0,0,0,0,0
38049,0,0,0,0,0,0,0,0,0,0
38051,0,0,0,0,0,0,0,0,0,0
38053,0,0,0,0,0,0,0,0,0,0
38055,0,0,0,0,0,0,0,0,0,0
38057,0,0,0,0,0,0,0,0,0,0
38059,0,0,0,0,0,0,0,0,0,0
38061,0,0,0,0,0,0,0,0,0,0
38063,0,0,0,0,0,0,0,0,0,0
38065,0,0,0,0,0,0,0,0,0,0
38067,0,0,0,0,0,0,0,0,0,0
38069,0,0,0,0,0,0,0,0,0,0
38071,0,0,0,0,0,0,0,0,0,0
38073,0,0,0,0,0,0,0,0,0,0
38075,0,0,0,0,0,0,0,0,0,0
38077,0,0,0,0,0,0,0,0,0,0
38079,0,0,0,0,0,0,0,0,0,0
38081,0,0,0,0,0,0,0,0,0,0
38083,0,0,0,0,0,0,0,0,0,0
38085,0,0,0,0,0,0,0,0,0,0
38087,0,0,0,0,0,0,0,0,0,0
38089,0,0,0,0,0,0,0,0,0,0
38091,0,0,0,0,0,0,0,0,0,0
38093,0,0,0,0,0,0,0,0,0,0
38095,0,0,0,0,0,0,0,0,0,0
38097,0,0,0,0,0,0,0,0,0,0
38099,0,0,0,0,0,0,0,0,0,0
38101,0,0,0,0,0,0,0,0,0,0
38103,0,0,0,0,0,0,0,0,0,0
38105,0,0,0,0,0,0,0,0,0,0
39001,0,0,0,0,0,0,0,0,0,0
39003,0,0,0,0,0,0,0,0,0,0
39005,0,0,0,0,0,0,0,0,0,0
39007,0,0,0,0,0,0,0,0,0,0
39009,0,0,0,0,0,0,0,0,0,0
39011,0,0,0,0,0,0,0,0,0,0
39013,0,0,0,0,0,0,0,0,0,0
39015,0,0,0,0,0,0,0,0,0,0
39017,0,0,0,0,0,0,0,0,0,0
39019,0,0,0,0,0,0,0,0,0,0
39021,0,0,0,0,0,0,0,0,0,0
39023,0,0,0,0,0,0,0,0,0,0
39025,0,0,0,0,0,0,0,0,0,0
39027,0,0,0,0,0,0,0,0,0,0
39029,0,0,0,0,0,0,0,0,0,0
39031,0,0,0,0,0,0,0,0,0,0
39033,0,0,0,0,0,0,0,0,0,0
39035,0,0,0,0,0,0,0,0,0,0
39037,0,0,0,0,0,0,0,0,0,0
39039,0,0,0,0,0,0,0,0,0,0
39041,0,0,0,0,0,0,0,0,0,0
39043,0,0,0,0,0,0,0,0,0,0
39045,0,0,0,0,0,0,0,0,0,0
39047,0,0,0,0,0,0,0,0,0,0
39049,0,0,0,0,0,0,0,0,0,0
39051,0,0,0,0,0,0,0,0,0,0
39053,0,0,0,0,0,0,0,0,0,0
39055,0,0,0,0,0,0,0,0,0,0
39057,0,0,0,0,0,0,0,0,0,0
39059,0,0,0,0,0,0,0,0,0,0
39061,0,0,0,0,0,0,0,0,0,0
39063,0,0,0,0,0,0,0,0,0,0
39065,0,0,0,0,0,0,0,0,0,0
39067,0,0,0,0,0,0,0,0,0,0
39069,0,0,0,0,0,0,0,0,0,0
39071,0,0,0,0,0,0,0,0,0,0
39073,0,0,0,0,0,0,0,0,0,0
39075,0,0,0,0,0,0,0,0,0,0
39077,0,0,0,0,0,0,0,0,0,0
39079,0,0,0,0,0,0,0,0,0,0
39081,0,0,0,0,0,0,0,0,0,0
39083,0,0,0,0,0,0,0,0,0,0
39085,0,0,0,0,0,0,0,0,0,0
39087,0,0,0,0,0,0,0,0,0,0
39089,0,0,0,0,0,0,0,0,0,0
39091,0,0,0,0,0,0,0,0,0,0
39093,0,0,0,0,0,0,0,0,0,0
39095,0,0,0,0,0,0,0,0,0,0
39097,0,0,0,0,0,0,0,0,0,0
39099,0,0,0,0,0,0,0,0,0,0
39101,0,0,0,0,0,0,0,0,0,0
39103,0,0,0,0,0,0,0,0,0,0
39105,0,0,0,0,0,0,0,0,0,0
39107,0,0,0,0,0,0,0,0,0,0
39109,0,0,0,0,0,0,0,0,0,0
39111,0,0,0,0,0,0,0,0,0,0
39113,0,0,0,0,0,0,0,0,0,0
39115,0,0,0,0,0,0,0,0,0,0
39117,0,0,0,0,0,0,0,0,0,0
39119,0,0,0,0,0,0,0,0,0,0
39121,0,0,0,0,0,0,0,0,0,0
39123,0,0,0,0,0,0,0,0,0,0
39125,0,0,0,0,0,0,0,0,0,0
39127,0,0,0,0,0,0,0,0,0,0
39129,0,0,0,0,0,0,0,0,0,0
39131,0,0,0,0,0,0,0,0,0,0
39133,0,0,0,0,0,0,0,0,0,0
39135,0,0,0,0,0,0,0,0,0,0
39137,0,0,0,0,0,0,0,0,0,0
39139,0,0,0,0,0,0,0,0,0,0
39141,0,0,0,0,0,0,0,0,0,0
39143,0,0,0,0,0,0,0,0,0,0
39145,0,0,0,0,0,0,0,0,0,0
39147,0,0,0,0,0,0,0,0,0,0
39149,0,0,0,0,0,0,0,0,0,0
39151,0,0,0,0,0,0,0,0,0,0
39153,0,0,0,0,0,0,0,0,0,0
39155,0,0,0,0,0,0,0,0,0,0
39157,0,0,0,0,0,0,0,0,0,0
39159,0,0,0,0,0,0,0,0,0,0
39161,0,0,0,0,0,0,0,0,0,0
39163,0,0,0,0,0,0,0,0,0,0
39165,0,0,0,0,0,0,0,0,0,0
39167,0,0,0,0,0,0,0,0,0,0
39169,0,0,0,0,0,0,0,0,0,0
39171,0,0,0,0,0,0,0,0,0,0
39173,0,0,0,0,0,0,0,0,0,0
39175,0,0,0,0,0,0,0,0,0,0
40001,0,0,0,0,0,0,0,0,0,0
40003,0,0,0,0,0,0,0,0,0,0
40005,0,0,0,0,0,0,0,0,0,0
40007,0,0,0,0,0,0,0,0,0,0
40009,0,0,0,0,0,0,0,0,0,0
40011,0,0,0,0,0,0,0,0,0,0
40013,0,0,0,0,0,0,0,0,0,0
40015,0,0,0,0,0,0,0,0,0,0
40017,0,0,0,0,0,0,0,0,0,0
40019,0,0,0,0,0,0,0,0,0,0
40021,0,0,0,0,0,0,0,0,0,0
40023,0,0,0,0,0,0,0,0,0,0
40025,0,0,0,0,0,0,0,0,0,0
40027,0,0,0,0,0,0,0,0,0,0
40029,0,0,0,0,0,0,0,0,0,0
40031,0,0,0,0,0,0,0,0,0,0
40033,0,0,0,0,0,0,0,0,0,0
40035,0,0,0,0,0,0,0,0,0,0
40037,0,0,0,0,0,0,0,0,0,0
40039,0,0,0,0,0,0,0,0,0,0
40041,0,0,0,0,0,0,0,0,0,0
40043,0,0,0,0,0,0,0,0,0,0
40045,0,0,0,0,0,0,0,0,0,0
40047,0,0,0,0,0,0,0,0,0,0
40049,0,0,0,0,0,0,0,0,0,0
40051,0,0,0,0,0,0,0,0,0,0
40053,0,0,0,0,0,0,0,0,0,0
40055,0,0,0,0,0,0,0,0,0,0
40057,0,0,0,0,0,0,0,0,0,0
40059,0,0,0,0,0,0,0,0,0,0
40061,0,0,0,0,0,0,0,0,0,0
40063,0,0,0,0,0,0,0,0,0,0
40065,0,0,0,0,0,0,0,0,0,0
40067,0,0,0,0,0,0,0,0,0,0
40069,0,0,0,0,0,0,0,0,0,0
40071,0,0,0,0,0,0,0,0,0,0
40073,0,0,0,0,0,0,0,0,0,0
40075,0,0,0,0,0,0,0,0,0,0
40077,0,0,0,0,0,0,0,0,0,0
40079,0,0,0,0,0,0,0,0,0,0
40081,0,0,0,0,0,0,0,0,0,0
40083,0,0,0,0,0,0,0,0,0,0
40085,0,0,0,0,0,0,0,0,0,0
40087,0,0,0,0,0,0,0,0,0,0
40089,0,0,0,0,0,0,0,0,0,0
40091,0,0,0,0,0,0,0,0,0,0
40093,0,0,0,0,0,0,0,0,0,0
40095,0,0,0,0,0,0,0,0,0,0
40097,0,0,0,0,0,0,0,0,0,0
40099,0,0,0,0,0,0,0,0,0,0
40101,0,0,0,0,0,0,0,0,0,0
40103,0,0,0,0,0,0,0,0,0,0
40105,0,0,0,0,0,0,0,0,0,0
40107,0,0,0,0,0,0,0,0,0,0
40109,0,0,0,0,0,0,0,0,0,0
40111,0,0,0,0,0,0,0,0,0,0
40113,0,0,0,0,0,0,0,0,0,0
40115,0,0,0,0,0,0,0,0,0,0
40117,0,0,0,0,0,0,0,0,0,0
40119,0,0,0,0,0,0,0,0,0,0
40121,0,0,0,0,0,0,0,0,0,0
40123,0,0,0,0,0,0,0,0,0,0
40125,0,0,0,0,0,0,0,0,0,0
40127,0,0,0,0,0,0,0,0,0,0
40129,0,0,0,0,0,0,0,0,0,0
40131,0,0,0,0,0,0,0,0,0,0
40133,0,0,0,0,0,0,0,0,0,0
40135,0,0,0,0,0,0,0,0,0,0
40137,0,0,0,0,0,0,0,0,0,0
40139,0,0,0,0,0,0,0,0,0,0
40141,0,0,0,0,0,0,0,0,0,0
40143,0,0,0,0,0,0,0,0,0,0
40145,0,0,0,0,0,0,0,0,0,0
40147,0,0,0,0,0,0,0,0,0,0
40149,0,0,0,0,0,0,0,0,0,0
40151,0,0,0,0,0,0,0,0,0,0
40153,0,0,0,0,0,0,0,0,0,0
41001,0,0,0,0,0,0,0,0,0,0
41003,0,0,0,0,0,0,0,0,0,0
41005,0,0,0,0,0,0,0,0,0,0
41007,1,1,1,1,1,1,1,1,1,1
41009,0,1,1,1,1,1,1,1,1,1
41011,1,1,1,1,1,1,1,1,1,1
41013,0,0,0,0,0,0,0,0,0,0
41015,0,0,1,1,1,1,1,1,1,1
41017,0,0,0,0,0,0,0,0,0,0
41019,0,1,1,1,1,1,1,1,1,1
41021,0,0,0,0,0,0,0,0,0,0
41023,0,0,0,0,0,0,0,0,0,0
41025,0,0,0,0,0,0,0,0,0,0
41027,0,0,0,0,0,0,0,0,0,0
41029,0,0,0,0,0,0,0,0,0,0
41031,0,0,0,0,0,0,0,0,0,0
41033,0,0,0,0,0,0,0,0,0,0
41035,0,0,0,0,0,0,0,0,0,0
41037,0,0,0,0,0,0,0,0,0,0
41039,0,1,1,1,1,1,1,1,1,1
41041,0,1,1,1,1,1,1,1,1,1
41043,0,0,0,0,0,0,0,0,0,0
41045,0,0,0,0,0,0,0,0,0,0
41047,0,0,0,0,0,0,0,0,0,0
41049,0,0,0,0,0,0,0,0,0,0
41051,0,0,0,0,0,0,0,0,0,1
41053,0,0,0,0,0,0,0,0,0,0
41055,0,0,0,0,0,0,0,0,0,0
41057,1,1,1,1,1,1,1,1,1,1
41059,0,0,0,0,0,0,0,0,0,0
41061,0,0,0,0,0,0,0,0,0,0
41063,0,0,0,0,0,0,0,0,0,0
41065,0,0,0,0,0,0,0,0,0,0
41067,0,0,0,0,0,0,0,0,0,0
41069,0,0,0,0,0,0,0,0,0,0
41071,0,0,0,0,0,0,0,0,0,0
42001,0,0,0,0,0,0,0,0,0,0
42003,0,0,0,0,0,0,0,0,0,0
42005,0,0,0,0,0,0,0,0,0,0
42007,0,0,0,0,0,0,0,0,0,0
42009,0,0,0,0,0,0,0,0,0,0
42011,0,0,0,0,0,0,0,0,0,0
42013,0,0,0,0,0,0,0,0,0,0
42015,0,0,0,0,0,0,0,0,0,0
42017,0,0,0,0,0,0,1,1,1,1
42019,0,0,0,0,0,0,0,0,0,0
42021,0,0,0,0,0,0,0,0,0,0
42023,0,0,0,0,0,0,0,0,0,0
42025,0,0,0,0,0,0,0,0,0,0
42027,0,0,0,0,0,0,0,0,0,0
42029,0,0,0,0,0,0,0,0,0,0
42031,0,0,0,0,0,0,0,0,0,0
42033,0,0,0,0,0,0,0,0,0,0
42035,0,0,0,0,0,0,0,0,0,0
42037,0,0,0,0,0,0,0,0,0,0
42039,0,0,0,0,0,0,0,0,0,0
42041,0,0,0,0,0,0,0,0,0,0
42043,0,0,0,0,0,0,0,0,0,0
42045,1,1,1,1,1,1,1,1,1,1
42047,0,0,0,0,0,0,0,0,0,0
42049,0,0,0,0,0,0,0,0,0,0
42051,0,0,0,0,0,0,0,0,0,0
42053,0,0,0,0,0,0,0,0,0,0
42055,0,0,0,0,0,0,0,0,0,0
42057,0,0,0,0,0,0,0,0,0,0
42059,0,0,0,0,0,0,0,0,0,0
42061,0,0,0,0,0,0,0,0,0,0
42063,0,0,0,0,0,0,0,0,0,0
42065,0,0,0,0,0,0,0,0,0,0
42067,0,0,0,0,0,0,0,0,0,0
42069,0,0,0,0,0,0,0,0,0,0
42071,0,0,0,0,0,0,0,0,0,0
42073,0,0,0,0,0,0,0,0,0,0
42075,0,0,0,0,0,0,0,0,0,0
42077,0,0,0,0,0,0,0,0,0,0
42079,0,0,0,0,0,0,0,0,0,0
42081,0,0,0,0,0,0,0,0,0,0
42083,0,0,0,0,0,0,0,0,0,0
42085,0,0,0,0,0,0,0,0,0,0
42087,0,0,0,0,0,0,0,0,0,0
42089,0,0,0,0,0,0,0,0,0,0
42091,0,0,0,0,0,0,0,0,0,0
42093,0,0,0,0,0,0,0,0,0,0
42095,0,0,0,0,0,0,0,0,0,0
42097,0,0,0,0,0,0,0,0,0,0
42099,0,0,0,0,0,0,0,0,0,0
42101,0,1,1,1,1,1,1,1,1,1
42103,0,0,0,0,0,0,0,0,0,0
42105,0,0,0,0,0,0,0,0,0,0
42107,0,0,0,0,0,0,0,0,0,0
42109,0,0,0,0,0,0,0,0,0,0
42111,0,0,0,0,0,0,0,0,0,0
42113,0,0,0,0,0,0,0,0,0,0
42115,0,0,0,0,0,0,0,0,0,0
42117,0,0,0,0,0,0,0,0,0,0
42119,0,0,0,0,0,0,0,0,0,0
42121,0,0,0,0,0,0,0,0,0,0
42123,0,0,0,0,0,0,0,0,0,0
42125,0,0,0,0,0,0,0,0,0,0
42127,0,0,0,0,0,0,0,0,0,0
42129,0,0,0,0,0,0,0,0,0,0
42131,0,0,0,0,0,0,0,0,0,0
42133,0,0,0,0,0,0,0,0,0,0
44001,1,1,1,1,1,1,1,1,1,1
44003,1,1,1,1,1,1,1,1,1,1
44005,1,1,1,1,1,1,1,1,1,1
44007,1,1,1,1,1,1,1,1,1,1
44009,1,1,1,1,1,1,1,1,1,1
45001,0,0,0,0,0,0,0,0,0,0
45003,0,0,0,0,0,0,0,0,0,0
45005,0,0,0,0,0,0,0,0,0,0
45007,0,0,0,0,0,0,0,0,0,0
45009,0,0,0,0,0,0,0,0,0,0
45011,0,0,0,0,0,0,0,0,0,0
45013,1,1,1,1,1,1,1,1,1,1
45015,0,0,1,1,1,1,1,1,1,1
45017,0,0,0,0,0,0,0,0,0,0
45019,1,1,1,1,1,1,1,1,1,1
45021,0,0,0,0,0,0,0,0,0,0
45023,0,0,0,0,0,0,0,0,0,0
45025,0,0,0,0,0,0,0,0,0,0
45027,0,0,0,0,0,0,0,0,0,0
45029,1,1,1,1,1,1,1,1,1,1
45031,0,0,0,0,0,0,0,0,0,0
45033,0,0,0,0,0,0,0,0,0,0
45035,0,0,0,1,1,1,1,1,1,1
45037,0,0,0,0,0,0,0,0,0,0
45039,0,0,0,0,0,0,0,0,0,0
45041,0,0,0,0,0,0,1,1,1,1
45043,1,1,1,1,1,1,1,1,1,1
45045,0,0,0,0,0,0,0,0,0,0
45047,0,0,0,0,0,0,0,0,0,0
45049,0,0,0,0,0,0,0,0,1,1
45051,1,1,1,1,1,1,1,1,1,1
45053,1,1,1,1,1,1,1,1,1,1
45055,0,0,0,0,0,0,0,0,0,0
45057,0,0,0,0,0,0,0,0,0,0
45059,0,0,0,0,0,0,0,0,0,0
45061,0,0,0,0,0,0,0,0,0,0
45063,0,0,0,0,0,0,0,0,0,0
45065,0,0,0,0,0,0,0,0,0,0
45067,0,0,0,1,1,1,1,1,1,1
45069,0,0,0,0,0,0,0,0,0,0
45071,0,0,0,0,0,0,0,0,0,0
45073,0,0,0,0,0,0,0,0,0,0
45075,0,0,0,0,0,0,0,0,0,0
45077,0,0,0,0,0,0,0,0,0,0
45079,0,0,0,0,0,0,0,0,0,0
45081,0,0,0,0,0,0,0,0,0,0
45083,0,0,0,0,0,0,0,0,0,0
45085,0,0,0,0,0,0,0,0,0,0
45087,0,0,0,0,0,0,0,0,0,0
45089,0,0,0,0,0,0,1,1,1,1
45091,0,0,0,0,0,0,0,0,0,0
46003,0,0,0,0,0,0,0,0,0,0
46005,0,0,0,0,0,0,0,0,0,0
46007,0,0,0,0,0,0,0,0,0,0
46009,0,0,0,0,0,0,0,0,0,0
46011,0,0,0,0,0,0,0,0,0,0
46013,0,0,0,0,0,0,0,0,0,0
46015,0,0,0,0,0,0,0,0,0,0
46017,0,0,0,0,0,0,0,0,0,0
46019,0,0,0,0,0,0,0,0,0,0
46021,0,0,0,0,0,0,0,0,0,0
46023,0,0,0,0,0,0,0,0,0,0
46025,0,0,0,0,0,0,0,0,0,0
46027,0,0,0,0,0,0,0,0,0,0
46029,0,0,0,0,0,0,0,0,0,0
46031,0,0,0,0,0,0,0,0,0,0
46033,0,0,0,0,0,0,0,0,0,0
46035,0,0,0,0,0,0,0,0,0,0
46037,0,0,0,0,0,0,0,0,0,0
46039,0,0,0,0,0,0,0,0,0,0
46041,0,0,0,0,0,0,0,0,0,0
46043,0,0,0,0,0,0,0,0,0,0
46045,0,0,0,0,0,0,0,0,0,0
46047,0,0,0,0,0,0,0,0,0,0
46049,0,0,0,0,0,0,0,0,0,0
46051,0,0,0,0,0,0,0,0,0,0
46053,0,0,0,0,0,0,0,0,0,0
46055,0,0,0,0,0,0,0,0,0,0
46057,0,0,0,0,0,0,0,0,0,0
46059,0,0,0,0,0,0,0,0,0,0
46061,0,0,0,0,0,0,0,0,0,0
46063,0,0,0,0,0,0,0,0,0,0
46065,0,0,0,0,0,0,0,0,0,0
46067,0,0,0,0,0,0,0,0,0,0
46069,0,0,0,0,0,0,0,0,0,0
46071,0,0,0,0,0,0,0,0,0,0
46073,0,0,0,0,0,0,0,0,0,0
46075,0,0,0,0,0,0,0,0,0,0
46077,0,0,0,0,0,0,0,0,0,0
46079,0,0,0,0,0,0,0,0,0,0
46081,0,0,0,0,0,0,0,0,0,0
46083,0,0,0,0,0,0,0,0,0,0
46085,0,0,0,0,0,0,0,0,0,0
46087,0,0,0,0,0,0,0,0,0,0
46089,0,0,0,0,0,0,0,0,0,0
46091,0,0,0,0,0,0,0,0,0,0
46093,0,0,0,0,0,0,0,0,0,0
46095,0,0,0,0,0,0,0,0,0,0
46097,0,0,0,0,0,0,0,0,0,0
46099,0,0,0,0,0,0,0,0,0,0
46101,0,0,0,0,0,0,0,0,0,0
46103,0,0,0,0,0,0,0,0,0,0
46105,0,0,0,0,0,0,0,0,0,0
46107,0,0,0,0,0,0,0,0,0,0
46109,0,0,0,0,0,0,0,0,0,0
46111,0,0,0,0,0,0,0,0,0,0
46113,0,0,0,0,0,0,0,0,0,0
46115,0,0,0,0,0,0,0,0,0,0
46117,0,0,0,0,0,0,0,0,0,0
46119,0,0,0,0,0,0,0,0,0,0
46121,0,0,0,0,0,0,0,0,0,0
46123,0,0,0,0,0,0,0,0,0,0
46125,0,0,0,0,0,0,0,0,0,0
46127,0,0,0,0,0,0,0,0,0,0
46129,0,0,0,0,0,0,0,0,0,0
46135,0,0,0,0,0,0,0,0,0,0
46137,0,0,0,0,0,0,0,0,0,0
47001,0,0,0,0,0,0,0,0,0,0
47003,0,0,0,0,0,0,0,0,0,0
47005,0,0,0,0,0,0,0,0,0,0
47007,0,0,0,0,0,0,0,0,0,0
47009,0,0,0,0,0,0,0,0,0,0
47011,0,0,0,0,0,0,0,0,0,0
47013,0,0,0,0,0,0,0,0,0,0
47015,0,0,0,0,0,0,0,0,0,0
47017,0,0,0,0,0,0,0,0,0,0
47019,0,0,0,0,0,0,0,0,0,0
47021,0,0,0,0,0,0,0,0,0,0
47023,0,0,0,0,0,0,0,0,0,0
47025,0,0,0,0,0,0,0,0,0,0
47027,0,0,0,0,0,0,0,0,0,0
47029,0,0,0,0,0,0,0,0,0,0
47031,0,0,0,0,0,0,0,0,0,0
47033,0,0,0,0,0,0,0,0,0,0
47035,0,0,0,0,0,0,0,0,0,0
47037,0,0,0,0,0,0,0,0,0,0
47039,0,0,0,0,0,0,0,0,0,0
47041,0,0,0,0,0,0,0,0,0,0
47043,0,0,0,0,0,0,0,0,0,0
47045,0,0,0,0,0,0,0,0,0,0
47047,0,0,0,0,0,0,0,0,0,0
47049,0,0,0,0,0,0,0,0,0,0
47051,0,0,0,0,0,0,0,0,0,0
47053,0,0,0,0,0,0,0,0,0,0
47055,0,0,0,0,0,0,0,0,0,0
47057,0,0,0,0,0,0,0,0,0,0
47059,0,0,0,0,0,0,0,0,0,0
47061,0,0,0,0,0,0,0,0,0,0
47063,0,0,0,0,0,0,0,0,0,0
47065,0,0,0,0,0,0,0,0,0,0
47067,0,0,0,0,0,0,0,0,0,0
47069,0,0,0,0,0,0,0,0,0,0
47071,0,0,0,0,0,0,0,0,0,0
47073,0,0,0,0,0,0,0,0,0,0
47075,0,0,0,0,0,0,0,0,0,0
47077,0,0,0,0,0,0,0,0,0,0
47079,0,0,0,0,0,0,0,0,0,0
47081,0,0,0,0,0,0,0,0,0,0
47083,0,0,0,0,0,0,0,0,0,0
47085,0,0,0,0,0,0,0,0,0,0
47087,0,0,0,0,0,0,0,0,0,0
47089,0,0,0,0,0,0,0,0,0,0
47091,0,0,0,0,0,0,0,0,0,0
47093,0,0,0,0,0,0,0,0,0,0
47095,0,0,0,0,0,0,0,0,0,0
47097,0,0,0,0,0,0,0,0,0,0
47099,0,0,0,0,0,0,0,0,0,0
47101,0,0,0,0,0,0,0,0,0,0
47103,0,0,0,0,0,0,0,0,0,0
47105,0,0,0,0,0,0,0,0,0,0
47107,0,0,0,0,0,0,0,0,0,0
47109,0,0,0,0,0,0,0,0,0,0
47111,0,0,0,0,0,0,0,0,0,0
47113,0,0,0,0,0,0,0,0,0,0
47115,0,0,0,0,0,0,0,0,0,0
47117,0,0,0,0,0,0,0,0,0,0
47119,0,0,0,0,0,0,0,0,0,0
47121,0,0,0,0,0,0,0,0,0,0
47123,0,0,0,0,0,0,0,0,0,0
47125,0,0,0,0,0,0,0,0,0,0
47127,0,0,0,0,0,0,0,0,0,0
47129,0,0,0,0,0,0,0,0,0,0
47131,0,0,0,0,0,0,0,0,0,0
47133,0,0,0,0,0,0,0,0,0,0
47135,0,0,0,0,0,0,0,0,0,0
47137,0,0,0,0,0,0,0,0,0,0
47139,0,0,0,0,0,0,0,0,0,0
47141,0,0,0,0,0,0,0,0,0,0
47143,0,0,0,0,0,0,0,0,0,0
47145,0,0,0,0,0,0,0,0,0,0
47147,0,0,0,0,0,0,0,0,0,0
47149,0,0,0,0,0,0,0,0,0,0
47151,0,0,0,0,0,0,0,0,0,0
47153,0,0,0,0,0,0,0,0,0,0
47155,0,0,0,0,0,0,0,0,0,0
47157,0,0,0,0,0,0,0,0,0,0
47159,0,0,0,0,0,0,0,0,0,0
47161,0,0,0,0,0,0,0,0,0,0
47163,0,0,0,0,0,0,0,0,0,0
47165,0,0,0,0,0,0,0,0,0,0
47167,0,0,0,0,0,0,0,0,0,0
47169,0,0,0,0,0,0,0,0,0,0
47171,0,0,0,0,0,0,0,0,0,0
47173,0,0,0,0,0,0,0,0,0,0
47175,0,0,0,0,0,0,0,0,0,0
47177,0,0,0,0,0,0,0,0,0,0
47179,0,0,0,0,0,0,0,0,0,0
47181,0,0,0,0,0,0,0,0,0,0
47183,0,0,0,0,0,0,0,0,0,0
47185,0,0,0,0,0,0,0,0,0,0
47187,0,0,0,0,0,0,0,0,0,0
47189,0,0,0,0,0,0,0,0,0,0
48001,0,0,0,0,0,0,0,0,0,0
48003,0,0,0,0,0,0,0,0,0,0
48005,0,0,0,0,0,0,0,0,0,0
48007,0,1,1,1,1,1,1,1,1,1
48009,0,0,0,0,0,0,0,0,0,0
48011,0,0,0,0,0,0,0,0,0,0
48013,0,0,0,0,0,0,0,0,0,0
48015,0,0,0,0,0,0,0,0,0,0
48017,0,0,0,0,0,0,0,0,0,0
48019,0,0,0,0,0,0,0,0,0,0
48021,0,0,0,0,0,0,0,0,0,0
48023,0,0,0,0,0,0,0,0,0,0
48025,0,0,0,0,0,0,0,0,0,0
48027,0,0,0,0,0,0,0,0,0,0
48029,0,0,0,0,0,0,0,0,0,0
48031,0,0,0,0,0,0,0,0,0,0
48033,0,0,0,0,0,0,0,0,0,0
48035,0,0,0,0,0,0,0,0,0,0
48037,0,0,0,0,0,0,0,0,0,0
48039,1,1,1,1,1,1,1,1,1,1
48041,0,0,0,0,0,0,0,0,0,0
48043,0,0,0,0,0,0,0,0,0,0
48045,0,0,0,0,0,0,0,0,0,0
48047,0,0,0,0,0,0,0,0,0,0
48049,0,0,0,0,0,0,0,0,0,0
48051,0,0,0,0,0,0,0,0,0,0
48053,0,0,0,0,0,0,0,0,0,0
48055,0,0,0,0,0,0,0,0,0,0
48057,1,1,1,1,1,1,1,1,1,1
48059,0,0,0,0,0,0,0,0,0,0
48061,1,1,1,1,1,1,1,1,1,1
48063,0,0,0,0,0,0,0,0,0,0
48065,0,0,0,0,0,0,0,0,0,0
48067,0,0,0,0,0,0,0,0,0,0
48069,0,0,0,0,0,0,0,0,0,0
48071,1,1,1,1,1,1,1,1,1,1
48073,0,0,0,0,0,0,0,0,0,0
48075,0,0,0,0,0,0,0,0,0,0
48077,0,0,0,0,0,0,0,0,0,0
48079,0,0,0,0,0,0,0,0,0,0
48081,0,0,0,0,0,0,0,0,0,0
48083,0,0,0,0,0,0,0,0,0,0
48085,0,0,0,0,0,0,0,0,0,0
48087,0,0,0,0,0,0,0,0,0,0
48089,0,0,0,0,0,0,0,0,0,0
48091,0,0,0,0,0,0,0,0,0,0
48093,0,0,0,0,0,0,0,0,0,0
48095,0,0,0,0,0,0,0,0,0,0
48097,0,0,0,0,0,0,0,0,0,0
48099,0,0,0,0,0,0,0,0,0,0
48101,0,0,0,0,0,0,0,0,0,0
48103,0,0,0,0,0,0,0,0,0,0
48105,0,0,0,0,0,0,0,0,0,0
48107,0,0,0,0,0,0,0,0,0,0
48109,0,0,0,0,0,0,0,0,0,0
48111,0,0,0,0,0,0,0,0,0,0
48113,0,0,0,0,0,0,0,0,0,0
48115,0,0,0,0,0,0,0,0,0,0
48117,0,0,0,0,0,0,0,0,0,0
48119,0,0,0,0,0,0,0,0,0,0
48121,0,0,0,0,0,0,0,0,0,0
48123,0,0,0,0,0,0,0,0,0,0
48125,0,0,0,0,0,0,0,0,0,0
48127,0,0,0,0,0,0,0,0,0,0
48129,0,0,0,0,0,0,0,0,0,0
48131,0,0,0,0,0,0,0,0,0,0
48133,0,0,0,0,0,0,0,0,0,0
48135,0,0,0,0,0,0,0,0,0,0
48137,0,0,0,0,0,0,0,0,0,0
48139,0,0,0,0,0,0,0,0,0,0
48141,0,0,0,0,0,0,0,0,0,0
48143,0,0,0,0,0,0,0,0,0,0
48145,0,0,0,0,0,0,0,0,0,0
48147,0,0,0,0,0,0,0,0,0,0
48149,0,0,0,0,0,0,0,0,0,0
48151,0,0,0,0,0,0,0,0,0,0
48153,0,0,0,0,0,0,0,0,0,0
48155,0,0,0,0,0,0,0,0,0,0
48157,0,0,0,0,0,0,0,0,0,0
48159,0,0,0,0,0,0,0,0,0,0
48161,0,0,0,0,0,0,0,0,0,0
48163,0,0,0,0,0,0,0,0,0,0
48165,0,0,0,0,0,0,0,0,0,0
48167,1,1,1,1,1,1,1,1,1,1
48169,0,0,0,0,0,0,0,0,0,0
48171,0,0,0,0,0,0,0,0,0,0
48173,0,0,0,0,0,0,0,0,0,0
48175,0,0,0,0,0,0,0,0,0,0
48177,0,0,0,0,0,0,0,0,0,0
48179,0,0,0,0,0,0,0,0,0,0
48181,0,0,0,0,0,0,0,0,0,0
48183,0,0,0,0,0,0,0,0,0,0
48185,0,0,0,0,0,0,0,0,0,0
48187,0,0,0,0,0,0,0,0,0,0
48189,0,0,0,0,0,0,0,0,0,0
48191,0,0,0,0,0,0,0,0,0,0
48193,0,0,0,0,0,0,0,0,0,0
48195,0,0,0,0,0,0,0,0,0,0
48197,0,0,0,0,0,0,0,0,0,0
48199,0,0,0,0,0,0,0,0,0,0
48201,1,1,1,1,1,1,1,1,1,1
48203,0,0,0,0,0,0,0,0,0,0
48205,0,0,0,0,0,0,0,0,0,0
48207,0,0,0,0,0,0,0,0,0,0
48209,0,0,0,0,0,0,0,0,0,0
48211,0,0,0,0,0,0,0,0,0,0
48213,0,0,0,0,0,0,0,0,0,0
48215,0,0,0,0,0,0,0,0,0,0
48217,0,0,0,0,0,0,0,0,0,0
48219,0,0,0,0,0,0,0,0,0,0
48221,0,0,0,0,0,0,0,0,0,0
48223,0,0,0,0,0,0,0,0,0,0
48225,0,0,0,0,0,0,0,0,0,0
48227,0,0,0,0,0,0,0,0,0,0
48229,0,0,0,0,0,0,0,0,0,0
48231,0,0,0,0,0,0,0,0,0,0
48233,0,0,0,0,0,0,0,0,0,0
48235,0,0,0,0,0,0,0,0,0,0
48237,0,0,0,0,0,0,0,0,0,0
48239,1,1,1,1,1,1,1,1,1,1
48241,0,0,0,0,0,0,0,0,0,0
48243,0,0,0,0,0,0,0,0,0,0
48245,0,1,1,1,1,1,1,1,1,1
48247,0,0,0,0,0,0,0,0,0,0
48249,0,0,0,0,0,0,0,0,0,0
48251,0,0,0,0,0,0,0,0,0,0
48253,0,0,0,0,0,0,0,0,0,0
48255,0,0,0,0,0,0,0,0,0,0
48257,0,0,0,0,0,0,0,0,0,0
48259,0,0,0,0,0,0,0,0,0,0
48261,0,1,1,1,1,1,1,1,1,1
48263,0,0,0,0,0,0,0,0,0,0
48265,0,0,0,0,0,0,0,0,0,0
48267,0,0,0,0,0,0,0,0,0,0
48269,0,0,0,0,0,0,0,0,0,0
48271,0,0,0,0,0,0,0,0,0,0
48273,0,1,1,1,1,1,1,1,1,1
48275,0,0,0,0,0,0,0,0,0,0
48277,0,0,0,0,0,0,0,0,0,0
48279,0,0,0,0,0,0,0,0,0,0
48281,0,0,0,0,0,0,0,0,0,0
48283,0,0,0,0,0,0,0,0,0,0
48285,0,0,0,0,0,0,0,0,0,0
48287,0,0,0,0,0,0,0,0,0,0
48289,0,0,0,0,0,0,0,0,0,0
48291,0,0,0,0,1,1,1,1,1,1
48293,0,0,0,0,0,0,0,0,0,0
48295,0,0,0,0,0,0,0,0,0,0
48297,0,0,0,0,0,0,0,0,0,0
48299,0,0,0,0,0,0,0,0,0,0
48301,0,0,0,0,0,0,0,0,0,0
48303,0,0,0,0,0,0,0,0,0,0
48305,0,0,0,0,0,0,0,0,0,0
48307,0,0,0,0,0,0,0,0,0,0
48309,0,0,0,0,0,0,0,0,0,0
48311,0,0,0,0,0,0,0,0,0,0
48313,0,0,0,0,0,0,0,0,0,0
48315,0,0,0,0,0,0,0,0,0,0
48317,0,0,0,0,0,0,0,0,0,0
48319,0,0,0,0,0,0,0,0,0,0
48321,1,1,1,1,1,1,1,1,1,1
48323,0,0,0,0,0,0,0,0,0,0
48325,0,0,0,0,0,0,0,0,0,0
48327,0,0,0,0,0,0,0,0,0,0
48329,0,0,0,0,0,0,0,0,0,0
48331,0,0,0,0,0,0,0,0,0,0
48333,0,0,0,0,0,0,0,0,0,0
48335,0,0,0,0,0,0,0,0,0,0
48337,0,0,0,0,0,0,0,0,0,0
48339,0,0,0,0,0,0,0,0,0,0
48341,0,0,0,0,0,0,0,0,0,0
48343,0,0,0,0,0,0,0,0,0,0
48345,0,0,0,0,0,0,0,0,0,0
48347,0,0,0,0,0,0,0,0,0,0
48349,0,0,0,0,0,0,0,0,0,0
48351,0,0,0,0,0,0,0,0,0,0
48353,0,0,0,0,0,0,0,0,0,0
48355,0,1,1,1,1,1,1,1,1,1
48357,0,0,0,0,0,0,0,0,0,0
48359,0,0,0,0,0,0,0,0,0,0
48361,0,0,1,1,1,1,1,1,1,1
48363,0,0,0,0,0,0,0,0,0,0
48365,0,0,0,0,0,0,0,0,0,0
48367,0,0,0,0,0,0,0,0,0,0
48369,0,0,0,0,0,0,0,0,0,0
48371,0,0,0,0,0,0,0,0,0,0
48373,0,0,0,0,0,0,0,0,0,0
48375,0,0,0,0,0,0,0,0,0,0
48377,0,0,0,0,0,0,0,0,0,0
48379,0,0,0,0,0,0,0,0,0,0
48381,0,0,0,0,0,0,0,0,0,0
48383,0,0,0,0,0,0,0,0,0,0
48385,0,0,0,0,0,0,0,0,0,0
48387,0,0,0,0,0,0,0,0,0,0
48389,0,0,0,0,0,0,0,0,0,0
48391,0,1,1,1,1,1,1,1,1,1
48393,0,0,0,0,0,0,0,0,0,0
48395,0,0,0,0,0,0,0,0,0,0
48397,0,0,0,0,0,0,0,0,0,0
48399,0,0,0,0,0,0,0,0,0,0
48401,0,0,0,0,0,0,0,0,0,0
48403,0,0,0,0,0,0,0,0,0,0
48405,0,0,0,0,0,0,0,0,0,0
48407,0,0,0,0,0,0,0,0,0,0
48409,0,1,1,1,1,1,1,1,1,1
48411,0,0,0,0,0,0,0,0,0,0
48413,0,0,0,0,0,0,0,0,0,0
48415,0,0,0,0,0,0,0,0,0,0
48417,0,0,0,0,0,0,0,0,0,0
48419,0,0,0,0,0,0,0,0,0,0
48421,0,0,0,0,0,0,0,0,0,0
48423,0,0,0,0,0,0,0,0,0,0
48425,0,0,0,0,0,0,0,0,0,0
48427,0,0,0,0,0,0,0,0,0,0
48429,0,0,0,0,0,0,0,0,0,0
48431,0,0,0,0,0,0,0,0,0,0
48433,0,0,0,0,0,0,0,0,0,0
48435,0,0,0,0,0,0,0,0,0,0
48437,0,0,0,0,0,0,0,0,0,0
48439,0,0,0,0,0,0,0,0,0,0
48441,0,0,0,0,0,0,0,0,0,0
48443,0,0,0,0,0,0,0,0,0,0
48445,0,0,0,0,0,0,0,0,0,0
48447,0,0,0,0,0,0,0,0,0,0
48449,0,0,0,0,0,0,0,0,0,0
48451,0,0,0,0,0,0,0,0,0,0
48453,0,0,0,0,0,0,0,0,0,0
48455,0,0,0,0,0,0,0,0,0,0
48457,0,0,0,0,0,0,0,0,0,0
48459,0,0,0,0,0,0,0,0,0,0
48461,0,0,0,0,0,0,0,0,0,0
48463,0,0,0,0,0,0,0,0,0,0
48465,0,0,0,0,0,0,0,0,0,0
48467,0,0,0,0,0,0,0,0,0,0
48469,0,1,1,1,1,1,1,1,1,1
48471,0,0,0,0,0,0,0,0,0,0
48473,0,0,0,0,0,0,0,0,0,0
48475,0,0,0,0,0,0,0,0,0,0
48477,0,0,0,0,0,0,0,0,0,0
48479,0,0,0,0,0,0,0,0,0,0
48481,0,0,0,0,0,0,0,0,0,0
48483,0,0,0,0,0,0,0,0,0,0
48485,0,0,0,0,0,0,0,0,0,0
48487,0,0,0,0,0,0,0,0,0,0
48489,0,1,1,1,1,1,1,1,1,1
48491,0,0,0,0,0,0,0,0,0,0
48493,0,0,0,0,0,0,0,0,0,0
48495,0,0,0,0,0,0,0,0,0,0
48497,0,0,0,0,0,0,0,0,0,0
48499,0,0,0,0,0,0,0,0,0,0
48501,0,0,0,0,0,0,0,0,0,0
48503,0,0,0,0,0,0,0,0,0,0
48505,0,0,0,0,0,0,0,0,0,0
48507,0,0,0,0,0,0,0,0,0,0
49001,0,0,0,0,0,0,0,0,0,0
49003,0,0,0,0,0,0,0,0,0,0
49005,0,0,0,0,0,0,0,0,0,0
49007,0,0,0,0,0,0,0,0,0,0
49009,0,0,0,0,0,0,0,0,0,0
49011,0,0,0,0,0,0,0,0,0,0
49013,0,0,0,0,0,0,0,0,0,0
49015,0,0,0,0,0,0,0,0,0,0
49017,0,0,0,0,0,0,0,0,0,0
49019,0,0,0,0,0,0,0,0,0,0
49021,0,0,0,0,0,0,0,0,0,0
49023,0,0,0,0,0,0,0,0,0,0
49025,0,0,0,0,0,0,0,0,0,0
49027,0,0,0,0,0,0,0,0,0,0
49029,0,0,0,0,0,0,0,0,0,0
49031,0,0,0,0,0,0,0,0,0,0
49033,0,0,0,0,0,0,0,0,0,0
49035,0,0,0,0,0,0,0,0,0,0
49037,0,0,0,0,0,0,0,0,0,0
49039,0,0,0,0,0,0,0,0,0,0
49041,0,0,0,0,0,0,0,0,0,0
49043,0,0,0,0,0,0,0,0,0,0
49045,0,0,0,0,0,0,0,0,0,0
49047,0,0,0,0,0,0,0,0,0,0
49049,0,0,0,0,0,0,0,0,0,0
49051,0,0,0,0,0,0,0,0,0,0
49053,0,0,0,0,0,0,0,0,0,0
49055,0,0,0,0,0,0,0,0,0,0
49057,0,0,0,0,0,0,0,0,0,0
50001,0,0,0,0,0,0,0,0,0,0
50003,0,0,0,0,0,0,0,0,0,0
50005,0,0,0,0,0,0,0,0,0,0
50007,0,0,0,0,0,0,0,0,0,0
50009,0,0,0,0,0,0,0,0,0,0
50011,0,0,0,0,0,0,0,0,0,0
50013,0,0,0,0,0,0,0,0,0,0
50015,0,0,0,0,0,0,0,0,0,0
50017,0,0,0,0,0,0,0,0,0,0
50019,0,0,0,0,0,0,0,0,0,0
50021,0,0,0,0,0,0,0,0,0,0
50023,0,0,0,0,0,0,0,0,0,0
50025,0,0,0,0,0,0,0,0,0,0
50027,0,0,0,0,0,0,0,0,0,0
51001,1,1,1,1,1,1,1,1,1,1
51003,0,0,0,0,0,0,0,0,0,0
51005,0,0,0,0,0,0,0,0,0,0
51007,0,0,0,0,0,0,0,0,0,0
51009,0,0,0,0,0,0,0,0,0,0
51011,0,0,0,0,0,0,0,0,0,0
51013,0,0,0,0,1,1,1,1,1,1
51015,0,0,0,0,0,0,0,0,0,0
51017,0,0,0,0,0,0,0,0,0,0
51019,0,0,0,0,0,0,0,0,0,0
51021,0,0,0,0,0,0,0,0,0,0
51023,0,0,0,0,0,0,0,0,0,0
51025,0,0,0,0,0,0,0,0,0,0
51027,0,0,0,0,0,0,0,0,0,0
51029,0,0,0,0,0,0,0,0,0,0
51031,0,0,0,0,0,0,0,0,0,0
51033,0,0,0,0,1,1,1,1,1,1
51035,0,0,0,0,0,0,0,0,0,0
51036,0,0,1,1,1,1,1,1,1,1
51037,0,0,0,0,0,0,0,0,0,0
51041,0,0,1,1,1,1,1,1,1,1
51043,0,0,0,0,0,0,0,0,0,0
51045,0,0,0,0,0,0,0,0,0,0
51047,0,0,0,0,0,0,0,0,0,0
51049,0,0,0,0,0,0,0,0,0,0
51051,0,0,0,0,0,0,0,0,0,0
51053,0,0,0,0,0,0,0,0,0,0
51057,1,1,1,1,1,1,1,1,1,1
51059,1,1,1,1,1,1,1,1,1,1
51061,0,0,0,0,0,0,0,0,0,0
51063,0,0,0,0,0,0,0,0,0,0
51065,0,0,0,0,0,0,0,0,0,0
51067,0,0,0,0,0,0,0,0,0,0
51069,0,0,0,0,0,0,0,0,0,0
51071,0,0,0,0,0,0,0,0,0,0
51073,1,1,1,1,1,1,1,1,1,1
51075,0,0,0,0,0,0,0,0,0,0
51077,0,0,0,0,0,0,0,0,0,0
51079,0,0,0,0,0,0,0,0,0,0
51081,0,0,0,0,0,0,0,0,0,0
51083,0,0,0,0,0,0,0,0,0,0
51085,0,0,0,0,0,0,0,0,1,1
51087,0,0,1,1,1,1,1,1,1,1
51089,0,0,0,0,0,0,0,0,0,0
51091,0,0,0,0,0,0,0,0,0,0
51093,1,1,1,1,1,1,1,1,1,1
51095,1,1,1,1,1,1,1,1,1,1
51097,0,0,1,1,1,1,1,1,1,1
51099,0,1,1,1,1,1,1,1,1,1
51101,0,0,1,1,1,1,1,1,1,1
51103,1,1,1,1,1,1,1,1,1,1
51105,0,0,0,0,0,0,0,0,0,0
51107,0,0,0,0,0,0,0,0,0,0
51109,0,0,0,0,0,0,0,0,0,0
51111,0,0,0,0,0,0,0,0,0,0
51113,0,0,0,0,0,0,0,0,0,0
51115,1,1,1,1,1,1,1,1,1,1
51117,0,0,0,0,0,0,0,0,0,0
51119,1,1,1,1,1,1,1,1,1,1
51121,0,0,0,0,0,0,0,0,0,0
51125,0,0,0,0,0,0,0,0,0,0
51127,0,0,1,1,1,1,1,1,1,1
51131,1,1,1,1,1,1,1,1,1,1
51133,1,1,1,1,1,1,1,1,1,1
51135,0,0,0,0,0,0,0,0,0,0
51137,0,0,0,0,0,0,0,0,0,0
51139,0,0,0,0,0,0,0,0,0,0
51141,0,0,0,0,0,0,0,0,0,0
51143,0,0,0,0,0,0,0,0,0,0
51145,0,0,0,0,0,0,0,0,0,0
51147,0,0,0,0,0,0,0,0,0,0
51149,0,0,1,1,1,1,1,1,1,1
51153,0,1,1,1,1,1,1,1,1,1
51155,0,0,0,0,0,0,0,0,0,0
51157,0,0,0,0,0,0,0,0,0,0
51159,1,1,1,1,1,1,1,1,1,1
51161,0,0,0,0,0,0,0,0,0,0
51163,0,0,0,0,0,0,0,0,0,0
51165,0,0,0,0,0,0,0,0,0,0
51167,0,0,0,0,0,0,0,0,0,0
51169,0,0,0,0,0,0,0,0,0,0
51171,0,0,0,0,0,0,0,0,0,0
51173,0,0,0,0,0,0,0,0,0,0
51175,0,0,0,0,0,0,0,0,0,0
51177,0,0,0,0,0,0,0,0,0,0
51179,0,1,1,1,1,1,1,1,1,1
51181,1,1,1,1,1,1,1,1,1,1
51183,0,0,0,0,0,0,0,0,0,0
51185,0,0,0,0,0,0,0,0,0,0
51187,0,0,0,0,0,0,0,0,0,0
51191,0,0,0,0,0,0,0,0,0,0
51193,1,1,1,1,1,1,1,1,1,1
51195,0,0,0,0,0,0,0,0,0,0
51197,0,0,0,0,0,0,0,0,0,0
51199,1,1,1,1,1,1,1,1,1,1
51510,0,0,0,0,1,1,1,1,1,1
51515,0,0,0,0,0,0,0,0,0,0
51520,0,0,0,0,0,0,0,0,0,0
51530,0,0,0,0,0,0,0,0,0,0
51540,0,0,0,0,0,0,0,0,0,0
51550,0,0,0,1,1,1,1,1,1,1
51570,0,0,0,0,0,0,0,0,0,0
51580,0,0,0,0,0,0,0,0,0,0
51590,0,0,0,0,0,0,0,0,0,0
51595,0,0,0,0,0,0,0,0,0,0
51600,0,0,0,0,0,0,0,0,0,0
51610,0,0,0,0,0,0,0,0,0,0
51620,0,0,0,0,0,0,0,0,0,0
51630,0,0,0,0,0,0,0,0,0,0
51640,0,0,0,0,0,0,0,0,0,0
51650,1,1,1,1,1,1,1,1,1,1
51660,0,0,0,0,0,0,0,0,0,0
51670,0,0,1,1,1,1,1,1,1,1
51678,0,0,0,0,0,0,0,0,0,0
51680,0,0,0,0,0,0,0,0,0,0
51683,0,0,0,0,0,0,0,0,0,0
51685,0,0,0,0,0,0,0,0,0,0
51690,0,0,0,0,0,0,0,0,0,0
51700,1,1,1,1,1,1,1,1,1,1
51710,1,1,1,1,1,1,1,1,1,1
51720,0,0,0,0,0,0,0,0,0,0
51730,0,0,0,0,0,0,0,0,0,0
51735,1,1,1,1,1,1,1,1,1,1
51740,0,1,1,1,1,1,1,1,1,1
51750,0,0,0,0,0,0,0,0,0,0
51760,0,0,0,0,0,0,0,0,0,0
51770,0,0,0,0,0,0,0,0,0,0
51775,0,0,0,0,0,0,0,0,0,0
51790,0,0,0,0,0,0,0,0,0,0
51800,1,1,1,1,1,1,1,1,1,1
51810,1,1,1,1,1,1,1,1,1,1
51820,0,0,0,0,0,0,0,0,0,0
51830,0,0,0,0,0,0,0,0,0,0
51840,0,0,0,0,0,0,0,0,0,0
53001,0,0,0,0,0,0,0,0,0,0
53003,0,0,0,0,0,0,0,0,0,0
53005,0,0,0,0,0,0,0,0,0,0
53007,0,0,0,0,0,0,0,0,0,0
53009,1,1,1,1,1,1,1,1,1,1
53011,0,0,0,0,0,0,0,0,0,1
53013,0,0,0,0,0,0,0,0,0,0
53015,0,0,0,1,1,1,1,1,1,1
53017,0,0,0,0,0,0,0,0,0,0
53019,0,0,0,0,0,0,0,0,0,0
53021,0,0,0,0,0,0,0,0,0,0
53023,0,0,0,0,0,0,0,0,0,0
53025,0,0,0,0,0,0,0,0,0,0
53027,1,1,1,1,1,1,1,1,1,1
53029,1,1,1,1,1,1,1,1,1,1
53031,1,1,1,1,1,1,1,1,1,1
53033,0,1,1,1,1,1,1,1,1,1
53035,1,1,1,1,1,1,1,1,1,1
53037,0,0,0,0,0,0,0,0,0,0
53039,0,0,0,0,0,0,0,0,0,0
53041,0,0,0,0,0,0,0,0,0,0
53043,0,0,0,0,0,0,0,0,0,0
53045,1,1,1,1,1,1,1,1,1,1
53047,0,0,0,0,0,0,0,0,0,0
53049,1,1,1,1,1,1,1,1,1,1
53051,0,0,0,0,0,0,0,0,0,0
53053,0,1,1,1,1,1,1,1,1,1
53055,0,1,1,1,1,1,1,1,1,1
53057,1,1,1,1,1,1,1,1,1,1
53059,0,0,0,0,0,0,0,0,0,1
53061,1,1,1,1,1,1,1,1,1,1
53063,0,0,0,0,0,0,0,0,0,0
53065,0,0,0,0,0,0,0,0,0,0
53067,0,0,1,1,1,1,1,1,1,1
53069,1,1,1,1,1,1,1,1,1,1
53071,0,0,0,0,0,0,0,0,0,0
53073,1,1,1,1,1,1,1,1,1,1
53075,0,0,0,0,0,0,0,0,0,0
53077,0,0,0,0,0,0,0,0,0,0
54001,0,0,0,0,0,0,0,0,0,0
54003,0,0,0,0,0,0,0,0,0,0
54005,0,0,0,0,0,0,0,0,0,0
54007,0,0,0,0,0,0,0,0,0,0
54009,0,0,0,0,0,0,0,0,0,0
54011,0,0,0,0,0,0,0,0,0,0
54013,0,0,0,0,0,0,0,0,0,0
54015,0,0,0,0,0,0,0,0,0,0
54017,0,0,0,0,0,0,0,0,0,0
54019,0,0,0,0,0,0,0,0,0,0
54021,0,0,0,0,0,0,0,0,0,0
54023,0,0,0,0,0,0,0,0,0,0
54025,0,0,0,0,0,0,0,0,0,0
54027,0,0,0,0,0,0,0,0,0,0
54029,0,0,0,0,0,0,0,0,0,0
54031,0,0,0,0,0,0,0,0,0,0
54033,0,0,0,0,0,0,0,0,0,0
54035,0,0,0,0,0,0,0,0,0,0
54037,0,0,0,0,0,0,0,0,0,0
54039,0,0,0,0,0,0,0,0,0,0
54041,0,0,0,0,0,0,0,0,0,0
54043,0,0,0,0,0,0,0,0,0,0
54045,0,0,0,0,0,0,0,0,0,0
54047,0,0,0,0,0,0,0,0,0,0
54049,0,0,0,0,0,0,0,0,0,0
54051,0,0,0,0,0,0,0,0,0,0
54053,0,0,0,0,0,0,0,0,0,0
54055,0,0,0,0,0,0,0,0,0,0
54057,0,0,0,0,0,0,0,0,0,0
54059,0,0,0,0,0,0,0,0,0,0
54061,0,0,0,0,0,0,0,0,0,0
54063,0,0,0,0,0,0,0,0,0,0
54065,0,0,0,0,0,0,0,0,0,0
54067,0,0,0,0,0,0,0,0,0,0
54069,0,0,0,0,0,0,0,0,0,0
54071,0,0,0,0,0,0,0,0,0,0
54073,0,0,0,0,0,0,0,0,0,0
54075,0,0,0,0,0,0,0,0,0,0
54077,0,0,0,0,0,0,0,0,0,0
54079,0,0,0,0,0,0,0,0,0,0
54081,0,0,0,0,0,0,0,0,0,0
54083,0,0,0,0,0,0,0,0,0,0
54085,0,0,0,0,0,0,0,0,0,0
54087,0,0,0,0,0,0,0,0,0,0
54089,0,0,0,0,0,0,0,0,0,0
54091,0,0,0,0,0,0,0,0,0,0
54093,0,0,0,0,0,0,0,0,0,0
54095,0,0,0,0,0,0,0,0,0,0
54097,0,0,0,0,0,0,0,0,0,0
54099,0,0,0,0,0,0,0,0,0,0
54101,0,0,0,0,0,0,0,0,0,0
54103,0,0,0,0,0,0,0,0,0,0
54105,0,0,0,0,0,0,0,0,0,0
54107,0,0,0,0,0,0,0,0,0,0
54109,0,0,0,0,0,0,0,0,0,0
55001,0,0,0,0,0,0,0,0,0,0
55003,0,0,0,0,0,0,0,0,0,0
55005,0,0,0,0,0,0,0,0,0,0
55007,0,0,0,0,0,0,0,0,0,0
55009,0,0,0,0,0,0,0,0,0,0
55011,0,0,0,0,0,0,0,0,0,0
55013,0,0,0,0,0,0,0,0,0,0
55015,0,0,0,0,0,0,0,0,0,0
55017,0,0,0,0,0,0,0,0,0,0
55019,0,0,0,0,0,0,0,0,0,0
55021,0,0,0,0,0,0,0,0,0,0
55023,0,0,0,0,0,0,0,0,0,0
55025,0,0,0,0,0,0,0,0,0,0
55027,0,0,0,0,0,0,0,0,0,0
55029,0,0,0,0,0,0,0,0,0,0
55031,0,0,0,0,0,0,0,0,0,0
55033,0,0,0,0,0,0,0,0,0,0
55035,0,0,0,0,0,0,0,0,0,0
55037,0,0,0,0,0,0,0,0,0,0
55039,0,0,0,0,0,0,0,0,0,0
55041,0,0,0,0,0,0,0,0,0,0
55043,0,0,0,0,0,0,0,0,0,0
55045,0,0,0,0,0,0,0,0,0,0
55047,0,0,0,0,0,0,0,0,0,0
55049,0,0,0,0,0,0,0,0,0,0
55051,0,0,0,0,0,0,0,0,0,0
55053,0,0,0,0,0,0,0,0,0,0
55055,0,0,0,0,0,0,0,0,0,0
55057,0,0,0,0,0,0,0,0,0,0
55059,0,0,0,0,0,0,0,0,0,0
55061,0,0,0,0,0,0,0,0,0,0
55063,0,0,0,0,0,0,0,0,0,0
55065,0,0,0,0,0,0,0,0,0,0
55067,0,0,0,0,0,0,0,0,0,0
55069,0,0,0,0,0,0,0,0,0,0
55071,0,0,0,0,0,0,0,0,0,0
55073,0,0,0,0,0,0,0,0,0,0
55075,0,0,0,0,0,0,0,0,0,0
55077,0,0,0,0,0,0,0,0,0,0
55078,0,0,0,0,0,0,0,0,0,0
55079,0,0,0,0,0,0,0,0,0,0
55081,0,0,0,0,0,0,0,0,0,0
55083,0,0,0,0,0,0,0,0,0,0
55085,0,0,0,0,0,0,0,0,0,0
55087,0,0,0,0,0,0,0,0,0,0
55089,0,0,0,0,0,0,0,0,0,0
55091,0,0,0,0,0,0,0,0,0,0
55093,0,0,0,0,0,0,0,0,0,0
55095,0,0,0,0,0,0,0,0,0,0
55097,0,0,0,0,0,0,0,0,0,0
55099,0,0,0,0,0,0,0,0,0,0
55101,0,0,0,0,0,0,0,0,0,0
55103,0,0,0,0,0,0,0,0,0,0
55105,0,0,0,0,0,0,0,0,0,0
55107,0,0,0,0,0,0,0,0,0,0
55109,0,0,0,0,0,0,0,0,0,0
55111,0,0,0,0,0,0,0,0,0,0
55113,0,0,0,0,0,0,0,0,0,0
55115,0,0,0,0,0,0,0,0,0,0
55117,0,0,0,0,0,0,0,0,0,0
55119,0,0,0,0,0,0,0,0,0,0
55121,0,0,0,0,0,0,0,0,0,0
55123,0,0,0,0,0,0,0,0,0,0
55125,0,0,0,0,0,0,0,0,0,0
55127,0,0,0,0,0,0,0,0,0,0
55129,0,0,0,0,0,0,0,0,0,0
55131,0,0,0,0,0,0,0,0,0,0
55133,0,0,0,0,0,0,0,0,0,0
55135,0,0,0,0,0,0,0,0,0,0
55137,0,0,0,0,0,0,0,0,0,0
55139,0,0,0,0,0,0,0,0,0,0
55141,0,0,0,0,0,0,0,0,0,0
56001,0,0,0,0,0,0,0,0,0,0
56003,0,0,0,0,0,0,0,0,0,0
56005,0,0,0,0,0,0,0,0,0,0
56007,0,0,0,0,0,0,0,0,0,0
56009,0,0,0,0,0,0,0,0,0,0
56011,0,0,0,0,0,0,0,0,0,0
56013,0,0,0,0,0,0,0,0,0,0
56015,0,0,0,0,0,0,0,0,0,0
56017,0,0,0,0,0,0,0,0,0,0
56019,0,0,0,0,0,0,0,0,0,0
56021,0,0,0,0,0,0,0,0,0,0
56023,0,0,0,0,0,0,0,0,0,0
56025,0,0,0,0,0,0,0,0,0,0
56027,0,0,0,0,0,0,0,0,0,0
56029,0,0,0,0,0,0,0,0,0,0
56031,0,0,0,0,0,0,0,0,0,0
56033,0,0,0,0,0,0,0,0,0,0
56035,0,0,0,0,0,0,0,0,0,0
56037,0,0,0,0,0,0,0,0,0,0
56039,0,0,0,0,0,0,0,0,0,0
56041,0,0,0,0,0,0,0,0,0,0
56043,0,0,0,0,0,0,0,0,0,0
56045,0,0,0,0,0,0,0,0,0,0
